ISO-10303-21;
HEADER;
FILE_DESCRIPTION (( 'STEP AP214' ),
    '1' );
FILE_NAME ('GQM1555C2D9R5BB01J.STEP',
    '2020-07-27T14:38:53',
    ( '' ),
    ( '' ),
    'SwSTEP 2.0',
    'SolidWorks 2018',
    '' );
FILE_SCHEMA (( 'AUTOMOTIVE_DESIGN' ));
ENDSEC;

DATA;
#1 = DIRECTION ( 'NONE',  ( 0.0000000000000000000, 0.0000000000000000000, 1.000000000000000000 ) ) ;
#2 = DIRECTION ( 'NONE',  ( -1.000000000000000000, -0.0000000000000000000, 8.673617379884035472E-17 ) ) ;
#3 = LINE ( 'NONE', #275, #709 ) ;
#4 = CYLINDRICAL_SURFACE ( 'NONE', #865, 0.01666666666666664562 ) ;
#5 = ORIENTED_EDGE ( 'NONE', *, *, #396, .T. ) ;
#6 = EDGE_CURVE ( 'NONE', #1115, #148, #388, .T. ) ;
#7 = FACE_OUTER_BOUND ( 'NONE', #1225, .T. ) ;
#8 = DIRECTION ( 'NONE',  ( -1.000000000000000000, 0.0000000000000000000, 0.0000000000000000000 ) ) ;
#9 = ORIENTED_EDGE ( 'NONE', *, *, #312, .F. ) ;
#10 = EDGE_LOOP ( 'NONE', ( #1210, #131, #1012, #835 ) ) ;
#11 = CARTESIAN_POINT ( 'NONE',  ( 500000.0000000000582, 0.008333333333333333218, -0.2250000000433681202 ) ) ;
#12 = ORIENTED_EDGE ( 'NONE', *, *, #1202, .T. ) ;
#13 = EDGE_CURVE ( 'NONE', #874, #1239, #701, .T. ) ;
#14 = ORIENTED_EDGE ( 'NONE', *, *, #535, .F. ) ;
#15 = ADVANCED_FACE ( 'NONE', ( #969 ), #1197, .T. ) ;
#16 = AXIS2_PLACEMENT_3D ( 'NONE', #469, #749, #855 ) ;
#17 = DIRECTION ( 'NONE',  ( -1.000000000000000000, 0.0000000000000000000, 2.168404344971008375E-16 ) ) ;
#18 = DIRECTION ( 'NONE',  ( 0.0000000000000000000, 0.0000000000000000000, 1.000000000000000000 ) ) ;
#19 = LINE ( 'NONE', #1001, #776 ) ;
#20 = DIRECTION ( 'NONE',  ( -1.000000000000000000, -0.0000000000000000000, 8.673617379884035472E-17 ) ) ;
#21 = CYLINDRICAL_SURFACE ( 'NONE', #175, 0.02500000000000001180 ) ;
#22 = CARTESIAN_POINT ( 'NONE',  ( -0.4749999999999999778, 0.5250000000000000222, -0.2499999999999999445 ) ) ;
#23 = ORIENTED_EDGE ( 'NONE', *, *, #526, .T. ) ;
#24 = CARTESIAN_POINT ( 'NONE',  ( 0.2499999999999999445, 0.5500000000000000444, -0.2500000000000000000 ) ) ;
#25 = ORIENTED_EDGE ( 'NONE', *, *, #797, .T. ) ;
#26 = ADVANCED_FACE ( 'NONE', ( #644 ), #180, .T. ) ;
#27 = DIRECTION ( 'NONE',  ( 0.0000000000000000000, -1.000000000000000000, 0.0000000000000000000 ) ) ;
#28 = AXIS2_PLACEMENT_3D ( 'NONE', #348, #362, #1226 ) ;
#29 = DIRECTION ( 'NONE',  ( 1.000000000000000000, 0.0000000000000000000, 0.0000000000000000000 ) ) ;
#30 = EDGE_LOOP ( 'NONE', ( #400, #227, #325, #622 ) ) ;
#31 = CARTESIAN_POINT ( 'NONE',  ( 0.4749999999999999778, 0.5250000000000000222, -0.2249999999999999500 ) ) ;
#32 = FILL_AREA_STYLE ('',( #1207 ) ) ;
#33 = ADVANCED_FACE ( 'NONE', ( #671 ), #96, .F. ) ;
#34 = CARTESIAN_POINT ( 'NONE',  ( -0.4749999999999999778, 0.5500000000000000444, -0.2249999999999999500 ) ) ;
#35 = DIRECTION ( 'NONE',  ( -2.168404344971009608E-16, 0.0000000000000000000, 1.000000000000000000 ) ) ;
#36 = DIRECTION ( 'NONE',  ( 2.168404344971009608E-16, 0.0000000000000000000, -1.000000000000000000 ) ) ;
#37 = VECTOR ( 'NONE', #377, 1000.000000000000000 ) ;
#38 = EDGE_CURVE ( 'NONE', #164, #769, #150, .T. ) ;
#39 = DIRECTION ( 'NONE',  ( -1.084202172485504681E-16, 0.0000000000000000000, 1.000000000000000000 ) ) ;
#40 = ADVANCED_FACE ( 'NONE', ( #610 ), #575, .F. ) ;
#41 = CIRCLE ( 'NONE', #288, 0.02500000000000001180 ) ;
#42 = VERTEX_POINT ( 'NONE', #1258 ) ;
#43 = DIRECTION ( 'NONE',  ( 0.0000000000000000000, 0.0000000000000000000, -1.000000000000000000 ) ) ;
#44 = EDGE_CURVE ( 'NONE', #1091, #371, #333, .T. ) ;
#45 = ORIENTED_EDGE ( 'NONE', *, *, #788, .T. ) ;
#46 = ADVANCED_FACE ( 'NONE', ( #125 ), #394, .T. ) ;
#47 = ORIENTED_EDGE ( 'NONE', *, *, #759, .T. ) ;
#48 = CARTESIAN_POINT ( 'NONE',  ( 0.4749999999999999223, 0.0000000000000000000, 1.029992063861229459E-16 ) ) ;
#49 = ORIENTED_EDGE ( 'NONE', *, *, #149, .F. ) ;
#50 = CARTESIAN_POINT ( 'NONE',  ( 0.2499999999940882844, 0.02499999999999995628, 0.2249999999999998390 ) ) ;
#51 = DIRECTION ( 'NONE',  ( 0.0000000000000000000, 0.0000000000000000000, 1.000000000000000000 ) ) ;
#52 = AXIS2_PLACEMENT_3D ( 'NONE', #308, #514, #686 ) ;
#53 = FACE_OUTER_BOUND ( 'NONE', #434, .T. ) ;
#54 = DIRECTION ( 'NONE',  ( 0.0000000000000000000, 0.0000000000000000000, 1.000000000000000000 ) ) ;
#55 = DIRECTION ( 'NONE',  ( 0.0000000000000000000, 0.0000000000000000000, 1.000000000000000000 ) ) ;
#56 = FACE_OUTER_BOUND ( 'NONE', #608, .T. ) ;
#57 = ORIENTED_EDGE ( 'NONE', *, *, #1188, .T. ) ;
#58 = DIRECTION ( 'NONE',  ( -1.000000000000000000, 0.0000000000000000000, 0.0000000000000000000 ) ) ;
#59 = CIRCLE ( 'NONE', #580, 0.02500000000000001180 ) ;
#60 = EDGE_CURVE ( 'NONE', #868, #42, #1219, .T. ) ;
#61 = ORIENTED_EDGE ( 'NONE', *, *, #717, .F. ) ;
#62 =( LENGTH_UNIT ( ) NAMED_UNIT ( * ) SI_UNIT ( .MILLI., .METRE. ) );
#63 = CARTESIAN_POINT ( 'NONE',  ( -0.4999999999999998890, 0.5500000000000000444, 0.2249999999999998945 ) ) ;
#64 = LINE ( 'NONE', #972, #1170 ) ;
#65 = CARTESIAN_POINT ( 'NONE',  ( 0.2499999999940882844, 0.5416666666666667407, -0.2250000000000000611 ) ) ;
#66 = CARTESIAN_POINT ( 'NONE',  ( 0.2499999999940882844, 0.02499999999999995628, -0.2416666666666666685 ) ) ;
#67 = PRESENTATION_LAYER_ASSIGNMENT (  '', '', ( #1143 ) ) ;
#68 = ADVANCED_FACE ( 'NONE', ( #882 ), #756, .T. ) ;
#69 = CYLINDRICAL_SURFACE ( 'NONE', #497, 0.02500000000000001180 ) ;
#70 = EDGE_LOOP ( 'NONE', ( #311, #1135, #81, #959 ) ) ;
#71 = DIRECTION ( 'NONE',  ( 2.168404344971009608E-16, -0.0000000000000000000, 1.000000000000000000 ) ) ;
#72 = CARTESIAN_POINT ( 'NONE',  ( 0.4749999999999999778, 0.02499999999999995628, -0.2249999999999999500 ) ) ;
#73 = VERTEX_POINT ( 'NONE', #491 ) ;
#74 = LINE ( 'NONE', #539, #309 ) ;
#75 = DIRECTION ( 'NONE',  ( 1.000000000000000000, 0.0000000000000000000, 1.084202172485504681E-16 ) ) ;
#76 = EDGE_LOOP ( 'NONE', ( #1010, #139, #1015, #120 ) ) ;
#77 =( NAMED_UNIT ( * ) SI_UNIT ( $, .STERADIAN. ) SOLID_ANGLE_UNIT ( ) );
#78 = EDGE_CURVE ( 'NONE', #737, #805, #64, .T. ) ;
#79 = VECTOR ( 'NONE', #468, 1000.000000000000000 ) ;
#80 = CIRCLE ( 'NONE', #893, 0.02500000000000001180 ) ;
#81 = ORIENTED_EDGE ( 'NONE', *, *, #898, .F. ) ;
#82 = APPLICATION_PROTOCOL_DEFINITION ( 'draft international standard', 'automotive_design', 1998, #968 ) ;
#83 = CARTESIAN_POINT ( 'NONE',  ( -0.2499999999999998890, 0.5500000000000000444, 0.2249999999999998945 ) ) ;
#84 = EDGE_CURVE ( 'NONE', #857, #901, #560, .T. ) ;
#85 = DIRECTION ( 'NONE',  ( -1.000000000000000000, 0.0000000000000000000, 1.084202172485504681E-16 ) ) ;
#86 = LINE ( 'NONE', #1004, #1130 ) ;
#87 = ORIENTED_EDGE ( 'NONE', *, *, #742, .F. ) ;
#88 = CIRCLE ( 'NONE', #907, 0.02500000000000001180 ) ;
#89 = DIRECTION ( 'NONE',  ( 0.0000000000000000000, -1.000000000000000000, 0.0000000000000000000 ) ) ;
#90 = EDGE_LOOP ( 'NONE', ( #284, #555, #14, #485 ) ) ;
#91 =( NAMED_UNIT ( * ) PLANE_ANGLE_UNIT ( ) SI_UNIT ( $, .RADIAN. ) );
#92 = AXIS2_PLACEMENT_3D ( 'NONE', #953, #161, #147 ) ;
#93 = CARTESIAN_POINT ( 'NONE',  ( -0.2499999999999999445, 0.5250000000000000222, -0.2250000000000000056 ) ) ;
#94 = ORIENTED_EDGE ( 'NONE', *, *, #1077, .T. ) ;
#95 = LINE ( 'NONE', #1171, #37 ) ;
#96 = PLANE ( 'NONE',  #804 ) ;
#97 = CARTESIAN_POINT ( 'NONE',  ( -0.4749999999999998668, 0.02500000000000000139, 0.2249999999999998945 ) ) ;
#98 = CARTESIAN_POINT ( 'NONE',  ( 0.2499999999999999445, 0.5250000000000000222, -0.2250000000000000056 ) ) ;
#99 = AXIS2_PLACEMENT_3D ( 'NONE', #1065, #781, #181 ) ;
#100 = VECTOR ( 'NONE', #204, 1000.000000000000000 ) ;
#101 = ORIENTED_EDGE ( 'NONE', *, *, #280, .T. ) ;
#102 = CARTESIAN_POINT ( 'NONE',  ( 0.2499999999999999445, 0.5500000000000000444, -0.2500000000000000000 ) ) ;
#103 = VERTEX_POINT ( 'NONE', #384 ) ;
#104 = AXIS2_PLACEMENT_3D ( 'NONE', #722, #36, #142 ) ;
#105 = ORIENTED_EDGE ( 'NONE', *, *, #450, .F. ) ;
#106 = DIRECTION ( 'NONE',  ( 1.000000000000000000, 0.0000000000000000000, 2.168404344971008375E-16 ) ) ;
#107 = EDGE_CURVE ( 'NONE', #211, #195, #156, .T. ) ;
#108 = ORIENTED_EDGE ( 'NONE', *, *, #822, .F. ) ;
#109 = AXIS2_PLACEMENT_3D ( 'NONE', #507, #1190, #18 ) ;
#110 = CARTESIAN_POINT ( 'NONE',  ( 0.2499999999999999445, 0.5250000000000000222, -0.2500000000000000000 ) ) ;
#111 = PLANE ( 'NONE',  #962 ) ;
#112 = CARTESIAN_POINT ( 'NONE',  ( 0.0000000000000000000, 0.0000000000000000000, 0.2249999999999998945 ) ) ;
#113 = VECTOR ( 'NONE', #174, 1000.000000000000000 ) ;
#114 = VECTOR ( 'NONE', #1195, 1000.000000000000000 ) ;
#115 = EDGE_LOOP ( 'NONE', ( #846, #405, #1038, #1097 ) ) ;
#116 = EDGE_CURVE ( 'NONE', #365, #669, #1110, .T. ) ;
#117 = ORIENTED_EDGE ( 'NONE', *, *, #116, .F. ) ;
#118 = CARTESIAN_POINT ( 'NONE',  ( -0.4749999999999999778, 0.5500000000000000444, -0.2499999999999999445 ) ) ;
#119 = FACE_OUTER_BOUND ( 'NONE', #941, .T. ) ;
#120 = ORIENTED_EDGE ( 'NONE', *, *, #526, .F. ) ;
#121 = DIRECTION ( 'NONE',  ( -8.673617379884035472E-17, -5.421010862427520937E-17, -1.000000000000000000 ) ) ;
#122 = DIRECTION ( 'NONE',  ( 1.000000000000000000, 0.0000000000000000000, -8.673617379884036705E-17 ) ) ;
#123 = EDGE_CURVE ( 'NONE', #471, #850, #301, .T. ) ;
#124 = ORIENTED_EDGE ( 'NONE', *, *, #1274, .F. ) ;
#125 = FACE_OUTER_BOUND ( 'NONE', #70, .T. ) ;
#126 = DIRECTION ( 'NONE',  ( 0.0000000000000000000, 0.0000000000000000000, 1.000000000000000000 ) ) ;
#127 = DIRECTION ( 'NONE',  ( 0.0000000000000000000, 0.0000000000000000000, 1.000000000000000000 ) ) ;
#128 = FACE_OUTER_BOUND ( 'NONE', #1116, .T. ) ;
#129 = ORIENTED_EDGE ( 'NONE', *, *, #1018, .F. ) ;
#130 = CARTESIAN_POINT ( 'NONE',  ( 0.2499999999940882844, 0.02499999999999995975, -0.2416666666666666963 ) ) ;
#131 = ORIENTED_EDGE ( 'NONE', *, *, #883, .F. ) ;
#132 = ADVANCED_FACE ( 'NONE', ( #618 ), #931, .T. ) ;
#133 = DIRECTION ( 'NONE',  ( -1.000000000000000000, 0.0000000000000000000, 0.0000000000000000000 ) ) ;
#134 = CARTESIAN_POINT ( 'NONE',  ( -0.5000000000000000000, 0.5250000000000000222, -0.2249999999999999500 ) ) ;
#135 = ORIENTED_EDGE ( 'NONE', *, *, #742, .T. ) ;
#136 = DIRECTION ( 'NONE',  ( -1.000000000000000000, -0.0000000000000000000, 8.673617379884035472E-17 ) ) ;
#137 = CARTESIAN_POINT ( 'NONE',  ( -0.2499999999999998890, 0.5250000000000000222, 0.2416666666666665575 ) ) ;
#138 = CYLINDRICAL_SURFACE ( 'NONE', #412, 0.02500000000000001180 ) ;
#139 = ORIENTED_EDGE ( 'NONE', *, *, #919, .T. ) ;
#140 = AXIS2_PLACEMENT_3D ( 'NONE', #290, #486, #979 ) ;
#141 = CARTESIAN_POINT ( 'NONE',  ( -0.4749999999999999778, 0.02500000000000000139, -0.2249999999999999500 ) ) ;
#142 = DIRECTION ( 'NONE',  ( 1.000000000000000000, 0.0000000000000000000, 2.168404344971014538E-16 ) ) ;
#143 = FACE_OUTER_BOUND ( 'NONE', #627, .T. ) ;
#144 = SPHERICAL_SURFACE ( 'NONE', #511, 0.02500000000000000139 ) ;
#145 = VERTEX_POINT ( 'NONE', #582 ) ;
#146 = CIRCLE ( 'NONE', #1216, 0.02500000000000001180 ) ;
#147 = DIRECTION ( 'NONE',  ( -1.000000000000000000, 0.0000000000000000000, 0.0000000000000000000 ) ) ;
#148 = VERTEX_POINT ( 'NONE', #220 ) ;
#149 = EDGE_CURVE ( 'NONE', #647, #356, #1076, .T. ) ;
#150 = CIRCLE ( 'NONE', #1260, 0.02500000000000001180 ) ;
#151 =( GEOMETRIC_REPRESENTATION_CONTEXT ( 3 ) GLOBAL_UNCERTAINTY_ASSIGNED_CONTEXT ( ( #470 ) ) GLOBAL_UNIT_ASSIGNED_CONTEXT ( ( #674, #1164, #77 ) ) REPRESENTATION_CONTEXT ( 'NONE', 'WORKASPACE' ) );
#152 = VERTEX_POINT ( 'NONE', #1275 ) ;
#153 = CARTESIAN_POINT ( 'NONE',  ( -0.4749999999999999778, 0.0000000000000000000, -0.2249999999999999500 ) ) ;
#154 = CARTESIAN_POINT ( 'NONE',  ( -0.2499999999999998890, 0.5250000000000000222, 0.2499999999999998890 ) ) ;
#155 = ORIENTED_EDGE ( 'NONE', *, *, #1156, .F. ) ;
#156 = CIRCLE ( 'NONE', #302, 0.02500000000000001180 ) ;
#157 = DIRECTION ( 'NONE',  ( 0.0000000000000000000, -1.000000000000000000, 0.0000000000000000000 ) ) ;
#158 = CARTESIAN_POINT ( 'NONE',  ( -0.4749999999999998668, 0.02499999999999995628, 0.2249999999999998945 ) ) ;
#159 = AXIS2_PLACEMENT_3D ( 'NONE', #1053, #475, #1255 ) ;
#160 = SHAPE_DEFINITION_REPRESENTATION ( #764, #291 ) ;
#161 = DIRECTION ( 'NONE',  ( -2.168404344971009608E-16, 0.0000000000000000000, 1.000000000000000000 ) ) ;
#162 = DIRECTION ( 'NONE',  ( 0.0000000000000000000, 0.0000000000000000000, -1.000000000000000000 ) ) ;
#163 = FACE_OUTER_BOUND ( 'NONE', #30, .T. ) ;
#164 = VERTEX_POINT ( 'NONE', #705 ) ;
#165 = CARTESIAN_POINT ( 'NONE',  ( -0.2499999999999998890, 0.5250000000000000222, -0.2416666666666666408 ) ) ;
#166 = LINE ( 'NONE', #433, #1117 ) ;
#167 = AXIS2_PLACEMENT_3D ( 'NONE', #196, #770, #774 ) ;
#168 = EDGE_LOOP ( 'NONE', ( #1099, #887, #49, #1060 ) ) ;
#169 = ORIENTED_EDGE ( 'NONE', *, *, #123, .F. ) ;
#170 = ORIENTED_EDGE ( 'NONE', *, *, #1227, .T. ) ;
#171 = VERTEX_POINT ( 'NONE', #903 ) ;
#172 = EDGE_CURVE ( 'NONE', #145, #857, #360, .T. ) ;
#173 = DIRECTION ( 'NONE',  ( 1.000000000000000000, -0.0000000000000000000, -1.084202172485504681E-16 ) ) ;
#174 = DIRECTION ( 'NONE',  ( 1.000000000000000000, -0.0000000000000000000, -2.168404344971008375E-16 ) ) ;
#175 = AXIS2_PLACEMENT_3D ( 'NONE', #821, #217, #319 ) ;
#176 = FACE_OUTER_BOUND ( 'NONE', #483, .T. ) ;
#177 = VECTOR ( 'NONE', #703, 1000.000000000000000 ) ;
#178 = ORIENTED_EDGE ( 'NONE', *, *, #563, .T. ) ;
#179 = EDGE_LOOP ( 'NONE', ( #1047, #261, #346 ) ) ;
#180 = CYLINDRICAL_SURFACE ( 'NONE', #1129, 0.02500000000000001180 ) ;
#181 = DIRECTION ( 'NONE',  ( -1.000000000000000000, 0.0000000000000000000, 0.0000000000000000000 ) ) ;
#182 = EDGE_CURVE ( 'NONE', #239, #737, #946, .T. ) ;
#183 = CYLINDRICAL_SURFACE ( 'NONE', #930, 0.02500000000000001180 ) ;
#184 = DIRECTION ( 'NONE',  ( -0.0000000000000000000, -1.000000000000000000, -0.0000000000000000000 ) ) ;
#185 = CARTESIAN_POINT ( 'NONE',  ( -0.4999999999999998890, 0.02499999999999995628, 0.2499999999999998890 ) ) ;
#186 = DIRECTION ( 'NONE',  ( 1.084202172485504681E-16, 0.0000000000000000000, 1.000000000000000000 ) ) ;
#187 = DIRECTION ( 'NONE',  ( 1.000000000000000000, -0.0000000000000000000, -1.084202172485504681E-16 ) ) ;
#188 = DIRECTION ( 'NONE',  ( -2.168404344971009608E-16, 0.0000000000000000000, 1.000000000000000000 ) ) ;
#189 = EDGE_CURVE ( 'NONE', #805, #542, #95, .T. ) ;
#190 = PRODUCT_CONTEXT ( 'NONE', #968, 'mechanical' ) ;
#191 = SPHERICAL_SURFACE ( 'NONE', #16, 0.02500000000000000139 ) ;
#192 =( GEOMETRIC_REPRESENTATION_CONTEXT ( 3 ) GLOBAL_UNCERTAINTY_ASSIGNED_CONTEXT ( ( #329 ) ) GLOBAL_UNIT_ASSIGNED_CONTEXT ( ( #840, #546, #1039 ) ) REPRESENTATION_CONTEXT ( 'NONE', 'WORKASPACE' ) );
#193 = LINE ( 'NONE', #1172, #1042 ) ;
#194 = ORIENTED_EDGE ( 'NONE', *, *, #84, .T. ) ;
#195 = VERTEX_POINT ( 'NONE', #197 ) ;
#196 = CARTESIAN_POINT ( 'NONE',  ( 0.0000000000000000000, 0.5250000000000000222, 0.2249999999999998945 ) ) ;
#197 = CARTESIAN_POINT ( 'NONE',  ( 0.2499999999999999445, 0.5500000000000000444, -0.2250000000000000056 ) ) ;
#198 = CARTESIAN_POINT ( 'NONE',  ( 500000.0000000000582, 0.02499999999999995975, -0.2416666667100347554 ) ) ;
#199 = EDGE_LOOP ( 'NONE', ( #105, #117, #316, #657 ) ) ;
#200 = EDGE_CURVE ( 'NONE', #1151, #368, #1278, .T. ) ;
#201 = ORIENTED_EDGE ( 'NONE', *, *, #939, .F. ) ;
#202 = AXIS2_PLACEMENT_3D ( 'NONE', #24, #1095, #715 ) ;
#203 = DIRECTION ( 'NONE',  ( 1.000000000000000000, 0.0000000000000000000, 0.0000000000000000000 ) ) ;
#204 = DIRECTION ( 'NONE',  ( -0.0000000000000000000, -1.000000000000000000, -0.0000000000000000000 ) ) ;
#205 = ORIENTED_EDGE ( 'NONE', *, *, #665, .F. ) ;
#206 = ORIENTED_EDGE ( 'NONE', *, *, #44, .F. ) ;
#207 = CARTESIAN_POINT ( 'NONE',  ( 0.4749999999999998668, 0.02500000000000000139, 0.2249999999999998945 ) ) ;
#208 = UNCERTAINTY_MEASURE_WITH_UNIT (LENGTH_MEASURE( 1.000000000000000082E-05 ), #915, 'distance_accuracy_value', 'NONE');
#209 = AXIS2_PLACEMENT_3D ( 'NONE', #872, #488, #395 ) ;
#210 = CARTESIAN_POINT ( 'NONE',  ( 500000.0000000000582, 0.5416666666666667407, -0.2250000000433681202 ) ) ;
#211 = VERTEX_POINT ( 'NONE', #110 ) ;
#212 = DIRECTION ( 'NONE',  ( 1.000000000000000000, 0.0000000000000000000, 2.168404344971008375E-16 ) ) ;
#213 = COLOUR_RGB ( '',0.7921568627450980005, 0.8196078431372548767, 0.9333333333333333481 ) ;
#214 = EDGE_LOOP ( 'NONE', ( #866, #1046, #890, #765, #496, #527, #135, #12 ) ) ;
#215 = DIRECTION ( 'NONE',  ( -1.000000000000000000, -0.0000000000000000000, 8.673617379884035472E-17 ) ) ;
#216 = VERTEX_POINT ( 'NONE', #1279 ) ;
#217 = DIRECTION ( 'NONE',  ( 0.0000000000000000000, -1.000000000000000000, 0.0000000000000000000 ) ) ;
#218 = CIRCLE ( 'NONE', #885, 0.02500000000000001180 ) ;
#219 = EDGE_CURVE ( 'NONE', #542, #195, #1023, .T. ) ;
#220 = CARTESIAN_POINT ( 'NONE',  ( 0.4749999999999998668, 0.02499999999999995628, 0.2499999999999998890 ) ) ;
#221 = ORIENTED_EDGE ( 'NONE', *, *, #673, .T. ) ;
#222 = DIRECTION ( 'NONE',  ( 1.000000000000000000, 0.0000000000000000000, 0.0000000000000000000 ) ) ;
#223 = DIRECTION ( 'NONE',  ( 1.000000000000000000, -0.0000000000000000000, -1.084202172485504681E-16 ) ) ;
#224 = DIRECTION ( 'NONE',  ( 0.0000000000000000000, -1.000000000000000000, 0.0000000000000000000 ) ) ;
#225 = VECTOR ( 'NONE', #257, 1000.000000000000000 ) ;
#226 = VECTOR ( 'NONE', #801, 1000.000000000000000 ) ;
#227 = ORIENTED_EDGE ( 'NONE', *, *, #189, .F. ) ;
#228 = CARTESIAN_POINT ( 'NONE',  ( 500000.0000000000582, 0.008333333333333296788, 0.2249999999566317799 ) ) ;
#229 = AXIS2_PLACEMENT_3D ( 'NONE', #31, #912, #816 ) ;
#230 = CARTESIAN_POINT ( 'NONE',  ( -0.4749999999999999778, 0.5500000000000000444, -0.2249999999999999500 ) ) ;
#231 = DIRECTION ( 'NONE',  ( 0.0000000000000000000, -0.0000000000000000000, 1.000000000000000000 ) ) ;
#232 = DIRECTION ( 'NONE',  ( 0.0000000000000000000, 0.0000000000000000000, -1.000000000000000000 ) ) ;
#233 = DIRECTION ( 'NONE',  ( -0.0000000000000000000, 0.0000000000000000000, -1.000000000000000000 ) ) ;
#234 = SURFACE_STYLE_USAGE ( .BOTH. , #598 ) ;
#235 = ADVANCED_FACE ( 'NONE', ( #599 ), #841, .T. ) ;
#236 = EDGE_CURVE ( 'NONE', #769, #337, #317, .T. ) ;
#237 = VERTEX_POINT ( 'NONE', #303 ) ;
#238 = FACE_OUTER_BOUND ( 'NONE', #886, .T. ) ;
#239 = VERTEX_POINT ( 'NONE', #700 ) ;
#240 = AXIS2_PLACEMENT_3D ( 'NONE', #449, #340, #455 ) ;
#241 = DIRECTION ( 'NONE',  ( 1.000000000000000000, 0.0000000000000000000, 0.0000000000000000000 ) ) ;
#242 = CARTESIAN_POINT ( 'NONE',  ( -0.4749999999999998668, 0.02499999999999995628, 0.2249999999999998945 ) ) ;
#243 = ADVANCED_FACE ( 'NONE', ( #238 ), #111, .F. ) ;
#244 = VECTOR ( 'NONE', #1072, 1000.000000000000000 ) ;
#245 = DIRECTION ( 'NONE',  ( 0.0000000000000000000, -1.000000000000000000, 0.0000000000000000000 ) ) ;
#246 = EDGE_CURVE ( 'NONE', #368, #973, #271, .T. ) ;
#247 = ORIENTED_EDGE ( 'NONE', *, *, #766, .F. ) ;
#248 = AXIS2_PLACEMENT_3D ( 'NONE', #428, #324, #601 ) ;
#249 = FACE_OUTER_BOUND ( 'NONE', #199, .T. ) ;
#250 = ORIENTED_EDGE ( 'NONE', *, *, #505, .T. ) ;
#251 = DIRECTION ( 'NONE',  ( -1.000000000000000000, 0.0000000000000000000, 0.0000000000000000000 ) ) ;
#252 = CARTESIAN_POINT ( 'NONE',  ( -0.4999999999999998890, 0.02499999999999995628, 0.2249999999999998945 ) ) ;
#253 = ORIENTED_EDGE ( 'NONE', *, *, #1064, .F. ) ;
#254 = ORIENTED_EDGE ( 'NONE', *, *, #585, .T. ) ;
#255 = EDGE_CURVE ( 'NONE', #42, #417, #80, .T. ) ;
#256 = FILL_AREA_STYLE ('',( #1132 ) ) ;
#257 = DIRECTION ( 'NONE',  ( -1.000000000000000000, 0.0000000000000000000, 2.168404344971008375E-16 ) ) ;
#258 = CIRCLE ( 'NONE', #398, 0.02500000000000001180 ) ;
#259 = VECTOR ( 'NONE', #808, 1000.000000000000000 ) ;
#260 = SPHERICAL_SURFACE ( 'NONE', #825, 0.02500000000000000139 ) ;
#261 = ORIENTED_EDGE ( 'NONE', *, *, #422, .T. ) ;
#262 = DIRECTION ( 'NONE',  ( 1.000000000000000000, 0.0000000000000000000, 1.084202172485504681E-16 ) ) ;
#263 = CARTESIAN_POINT ( 'NONE',  ( 0.2499999999940882844, 0.5250000000000000222, 0.2416666666666665020 ) ) ;
#264 = ORIENTED_EDGE ( 'NONE', *, *, #353, .T. ) ;
#265 = EDGE_CURVE ( 'NONE', #145, #569, #1245, .T. ) ;
#266 = AXIS2_PLACEMENT_3D ( 'NONE', #1054, #649, #1146 ) ;
#267 = DIRECTION ( 'NONE',  ( -1.000000000000000000, -0.0000000000000000000, -0.0000000000000000000 ) ) ;
#268 = DIRECTION ( 'NONE',  ( -1.000000000000000000, 0.0000000000000000000, -2.168404344971009608E-16 ) ) ;
#269 = ADVANCED_FACE ( 'NONE', ( #725 ), #960, .T. ) ;
#270 = ORIENTED_EDGE ( 'NONE', *, *, #1202, .F. ) ;
#271 = LINE ( 'NONE', #407, #869 ) ;
#272 = EDGE_CURVE ( 'NONE', #195, #737, #447, .T. ) ;
#273 = AXIS2_PLACEMENT_3D ( 'NONE', #820, #223, #127 ) ;
#274 = ADVANCED_FACE ( 'NONE', ( #1092 ), #138, .T. ) ;
#275 = CARTESIAN_POINT ( 'NONE',  ( 0.0000000000000000000, 0.0000000000000000000, 0.2249999999999998945 ) ) ;
#276 = LINE ( 'NONE', #964, #113 ) ;
#277 = ORIENTED_EDGE ( 'NONE', *, *, #1121, .F. ) ;
#278 = DIRECTION ( 'NONE',  ( 1.000000000000000000, 0.0000000000000000000, -8.673617379884036705E-17 ) ) ;
#279 = SURFACE_STYLE_USAGE ( .BOTH. , #283 ) ;
#280 = EDGE_CURVE ( 'NONE', #103, #466, #347, .T. ) ;
#281 = ORIENTED_EDGE ( 'NONE', *, *, #1196, .F. ) ;
#282 = ORIENTED_EDGE ( 'NONE', *, *, #585, .F. ) ;
#283 = SURFACE_SIDE_STYLE ('',( #289 ) ) ;
#284 = ORIENTED_EDGE ( 'NONE', *, *, #474, .F. ) ;
#285 = ORIENTED_EDGE ( 'NONE', *, *, #811, .T. ) ;
#286 = DIRECTION ( 'NONE',  ( 0.0000000000000000000, -1.000000000000000000, 0.0000000000000000000 ) ) ;
#287 = EDGE_CURVE ( 'NONE', #668, #544, #661, .T. ) ;
#288 = AXIS2_PLACEMENT_3D ( 'NONE', #843, #531, #1218 ) ;
#289 = SURFACE_STYLE_FILL_AREA ( #772 ) ;
#290 = CARTESIAN_POINT ( 'NONE',  ( -0.5000000000000000000, 0.5500000000000000444, -0.2499999999999999445 ) ) ;
#291 = ADVANCED_BREP_SHAPE_REPRESENTATION ( 'GQM1555C2D9R5BB01J', ( #603, #974, #385, #443 ), #151 ) ;
#292 = LINE ( 'NONE', #567, #1157 ) ;
#293 = EDGE_LOOP ( 'NONE', ( #391, #540, #908, #997 ) ) ;
#294 = CYLINDRICAL_SURFACE ( 'NONE', #976, 0.02500000000000001180 ) ;
#295 = DIRECTION ( 'NONE',  ( -1.000000000000000000, -0.0000000000000000000, 8.673617379884035472E-17 ) ) ;
#296 = DIRECTION ( 'NONE',  ( -2.168404344971008375E-16, 0.0000000000000000000, 1.000000000000000000 ) ) ;
#297 = ORIENTED_EDGE ( 'NONE', *, *, #463, .F. ) ;
#298 = AXIS2_PLACEMENT_3D ( 'NONE', #1057, #278, #656 ) ;
#299 = CARTESIAN_POINT ( 'NONE',  ( -0.4999999999999998890, 0.5250000000000000222, 0.2249999999999998945 ) ) ;
#300 = EDGE_LOOP ( 'NONE', ( #1026, #285, #170, #1131 ) ) ;
#301 = LINE ( 'NONE', #670, #1187 ) ;
#302 = AXIS2_PLACEMENT_3D ( 'NONE', #98, #1075, #877 ) ;
#303 = CARTESIAN_POINT ( 'NONE',  ( -0.4749999999999999778, 0.02499999999999995628, -0.2499999999999999445 ) ) ;
#304 = AXIS2_PLACEMENT_3D ( 'NONE', #252, #335, #625 ) ;
#305 = DIRECTION ( 'NONE',  ( 8.673617379884035472E-17, -0.0000000000000000000, 1.000000000000000000 ) ) ;
#306 = FACE_OUTER_BOUND ( 'NONE', #76, .T. ) ;
#307 = ORIENTED_EDGE ( 'NONE', *, *, #1121, .T. ) ;
#308 = CARTESIAN_POINT ( 'NONE',  ( -0.4749999999999998668, 0.02500000000000000139, 0.2249999999999998945 ) ) ;
#309 = VECTOR ( 'NONE', #136, 1000.000000000000000 ) ;
#310 = CARTESIAN_POINT ( 'NONE',  ( 0.2499999999999998890, 0.0000000000000000000, 0.2249999999999998945 ) ) ;
#311 = ORIENTED_EDGE ( 'NONE', *, *, #697, .F. ) ;
#312 = EDGE_CURVE ( 'NONE', #874, #103, #793, .T. ) ;
#313 = ORIENTED_EDGE ( 'NONE', *, *, #1137, .F. ) ;
#314 = AXIS2_PLACEMENT_3D ( 'NONE', #1084, #680, #988 ) ;
#315 = DIRECTION ( 'NONE',  ( -0.0000000000000000000, 1.000000000000000000, -0.0000000000000000000 ) ) ;
#316 = ORIENTED_EDGE ( 'NONE', *, *, #422, .F. ) ;
#317 = CIRCLE ( 'NONE', #692, 0.02500000000000001180 ) ;
#318 = DIRECTION ( 'NONE',  ( 1.000000000000000000, 0.0000000000000000000, 1.084202172485504681E-16 ) ) ;
#319 = DIRECTION ( 'NONE',  ( 0.0000000000000000000, 0.0000000000000000000, -1.000000000000000000 ) ) ;
#320 = AXIS2_PLACEMENT_3D ( 'NONE', #905, #707, #126 ) ;
#321 = FACE_OUTER_BOUND ( 'NONE', #633, .T. ) ;
#322 = ADVANCED_FACE ( 'NONE', ( #914 ), #1200, .F. ) ;
#323 = ORIENTED_EDGE ( 'NONE', *, *, #854, .F. ) ;
#324 = DIRECTION ( 'NONE',  ( 0.0000000000000000000, 1.000000000000000000, 0.0000000000000000000 ) ) ;
#325 = ORIENTED_EDGE ( 'NONE', *, *, #78, .F. ) ;
#326 = DIRECTION ( 'NONE',  ( 0.0000000000000000000, 0.0000000000000000000, 1.000000000000000000 ) ) ;
#327 = ADVANCED_FACE ( 'NONE', ( #478 ), #4, .T. ) ;
#328 = EDGE_CURVE ( 'NONE', #612, #237, #1265, .T. ) ;
#329 = UNCERTAINTY_MEASURE_WITH_UNIT (LENGTH_MEASURE( 1.000000000000000082E-05 ), #840, 'distance_accuracy_value', 'NONE');
#330 = ORIENTED_EDGE ( 'NONE', *, *, #280, .F. ) ;
#331 = CARTESIAN_POINT ( 'NONE',  ( 0.2499999999999999445, 0.02499999999999995628, -0.2500000000000000000 ) ) ;
#332 = CARTESIAN_POINT ( 'NONE',  ( 0.4749999999999998668, 0.02499999999999995628, 0.2249999999999998945 ) ) ;
#333 = CIRCLE ( 'NONE', #99, 0.02500000000000001180 ) ;
#334 = ADVANCED_FACE ( 'NONE', ( #1235 ), #494, .T. ) ;
#335 = DIRECTION ( 'NONE',  ( 1.000000000000000000, -0.0000000000000000000, 0.0000000000000000000 ) ) ;
#336 = VECTOR ( 'NONE', #493, 1000.000000000000000 ) ;
#337 = VERTEX_POINT ( 'NONE', #616 ) ;
#338 = LINE ( 'NONE', #1224, #641 ) ;
#339 = CARTESIAN_POINT ( 'NONE',  ( -0.2499999999999998890, 0.5250000000000000222, -0.2250000000000000056 ) ) ;
#340 = DIRECTION ( 'NONE',  ( 1.000000000000000000, 0.0000000000000000000, 1.084202172485504681E-16 ) ) ;
#341 = ADVANCED_FACE ( 'NONE', ( #7 ), #1030, .T. ) ;
#342 = EDGE_LOOP ( 'NONE', ( #1165, #565, #499 ) ) ;
#343 = EDGE_LOOP ( 'NONE', ( #732, #221, #818, #694 ) ) ;
#344 = CARTESIAN_POINT ( 'NONE',  ( 0.5000000000000000000, 0.5500000000000000444, -0.2249999999999999500 ) ) ;
#345 = CARTESIAN_POINT ( 'NONE',  ( 0.2499999999940882844, 0.5416666666666667407, 0.2249999999999998390 ) ) ;
#346 = ORIENTED_EDGE ( 'NONE', *, *, #484, .F. ) ;
#347 = LINE ( 'NONE', #11, #677 ) ;
#348 = CARTESIAN_POINT ( 'NONE',  ( 0.0000000000000000000, 0.0000000000000000000, 0.0000000000000000000 ) ) ;
#349 = PRESENTATION_STYLE_ASSIGNMENT (( #279 ) ) ;
#350 = VECTOR ( 'NONE', #1251, 1000.000000000000000 ) ;
#351 = DIRECTION ( 'NONE',  ( 0.0000000000000000000, 0.0000000000000000000, -1.000000000000000000 ) ) ;
#352 = DIRECTION ( 'NONE',  ( 0.0000000000000000000, -1.000000000000000000, 0.0000000000000000000 ) ) ;
#353 = EDGE_CURVE ( 'NONE', #769, #42, #711, .T. ) ;
#354 = EDGE_LOOP ( 'NONE', ( #621, #1237, #313 ) ) ;
#355 = CIRCLE ( 'NONE', #378, 0.02500000000000001180 ) ;
#356 = VERTEX_POINT ( 'NONE', #426 ) ;
#357 = CARTESIAN_POINT ( 'NONE',  ( -0.2499999999999998890, 0.0000000000000000000, 0.2249999999999998945 ) ) ;
#358 = DIRECTION ( 'NONE',  ( -1.000000000000000000, -0.0000000000000000000, 8.673617379884035472E-17 ) ) ;
#359 =( GEOMETRIC_REPRESENTATION_CONTEXT ( 3 ) GLOBAL_UNCERTAINTY_ASSIGNED_CONTEXT ( ( #208 ) ) GLOBAL_UNIT_ASSIGNED_CONTEXT ( ( #915, #91, #397 ) ) REPRESENTATION_CONTEXT ( 'NONE', 'WORKASPACE' ) );
#360 = CIRCLE ( 'NONE', #52, 0.02500000000000001180 ) ;
#361 = ADVANCED_FACE ( 'NONE', ( #980 ), #1160, .T. ) ;
#362 = DIRECTION ( 'NONE',  ( 0.0000000000000000000, 1.000000000000000000, 0.0000000000000000000 ) ) ;
#363 = CARTESIAN_POINT ( 'NONE',  ( 0.4749999999999998668, 0.5250000000000000222, 0.2249999999999998945 ) ) ;
#364 = VECTOR ( 'NONE', #315, 1000.000000000000000 ) ;
#365 = VERTEX_POINT ( 'NONE', #1101 ) ;
#366 = PLANE ( 'NONE',  #159 ) ;
#367 = DIRECTION ( 'NONE',  ( 0.0000000000000000000, 0.0000000000000000000, -1.000000000000000000 ) ) ;
#368 = VERTEX_POINT ( 'NONE', #819 ) ;
#369 = AXIS2_PLACEMENT_3D ( 'NONE', #413, #1180, #695 ) ;
#370 = ADVANCED_FACE ( 'NONE', ( #642 ), #294, .T. ) ;
#371 = VERTEX_POINT ( 'NONE', #230 ) ;
#372 = DIRECTION ( 'NONE',  ( 1.000000000000000000, 0.0000000000000000000, -2.168404344971008375E-16 ) ) ;
#373 = DIRECTION ( 'NONE',  ( 0.0000000000000000000, 0.0000000000000000000, 1.000000000000000000 ) ) ;
#374 = CIRCLE ( 'NONE', #452, 0.02500000000000001180 ) ;
#375 = EDGE_CURVE ( 'NONE', #747, #1091, #994, .T. ) ;
#376 = DIRECTION ( 'NONE',  ( 0.0000000000000000000, 0.0000000000000000000, 1.000000000000000000 ) ) ;
#377 = DIRECTION ( 'NONE',  ( -1.000000000000000000, 0.0000000000000000000, 0.0000000000000000000 ) ) ;
#378 = AXIS2_PLACEMENT_3D ( 'NONE', #545, #733, #461 ) ;
#379 = PRESENTATION_STYLE_ASSIGNMENT (( #1034 ) ) ;
#380 = DIRECTION ( 'NONE',  ( -1.000000000000000000, 0.0000000000000000000, -2.168404344971008375E-16 ) ) ;
#381 = LINE ( 'NONE', #696, #336 ) ;
#382 = ORIENTED_EDGE ( 'NONE', *, *, #1222, .T. ) ;
#383 = LINE ( 'NONE', #713, #780 ) ;
#384 = CARTESIAN_POINT ( 'NONE',  ( 0.2499999999940882844, 0.008333333333333333218, -0.2250000000000000611 ) ) ;
#385 = MANIFOLD_SOLID_BREP ( 'Boss-Extrude2', #792 ) ;
#386 = PLANE ( 'NONE',  #1204 ) ;
#387 = AXIS2_PLACEMENT_3D ( 'NONE', #827, #133, #724 ) ;
#388 = LINE ( 'NONE', #906, #904 ) ;
#389 = VECTOR ( 'NONE', #721, 1000.000000000000000 ) ;
#390 = ORIENTED_EDGE ( 'NONE', *, *, #236, .F. ) ;
#391 = ORIENTED_EDGE ( 'NONE', *, *, #107, .T. ) ;
#392 = DIRECTION ( 'NONE',  ( 1.000000000000000000, 0.0000000000000000000, -8.673617379884035472E-17 ) ) ;
#393 = VERTEX_POINT ( 'NONE', #1134 ) ;
#394 = CYLINDRICAL_SURFACE ( 'NONE', #1086, 0.02500000000000001180 ) ;
#395 = DIRECTION ( 'NONE',  ( 1.000000000000000000, 0.0000000000000000000, 0.0000000000000000000 ) ) ;
#396 = EDGE_CURVE ( 'NONE', #1104, #1151, #529, .T. ) ;
#397 =( NAMED_UNIT ( * ) SI_UNIT ( $, .STERADIAN. ) SOLID_ANGLE_UNIT ( ) );
#398 = AXIS2_PLACEMENT_3D ( 'NONE', #1120, #1126, #51 ) ;
#399 = CARTESIAN_POINT ( 'NONE',  ( 0.4749999999999999778, 0.5250000000000000222, -0.2249999999999999500 ) ) ;
#400 = ORIENTED_EDGE ( 'NONE', *, *, #219, .F. ) ;
#401 = CARTESIAN_POINT ( 'NONE',  ( 0.4749999999999999778, 0.02500000000000000139, -0.2249999999999999500 ) ) ;
#402 = ORIENTED_EDGE ( 'NONE', *, *, #952, .T. ) ;
#403 = CARTESIAN_POINT ( 'NONE',  ( 0.4999999999999998890, 0.02499999999999995628, 0.2499999999999998890 ) ) ;
#404 = EDGE_CURVE ( 'NONE', #393, #1115, #218, .T. ) ;
#405 = ORIENTED_EDGE ( 'NONE', *, *, #735, .T. ) ;
#406 = AXIS2_PLACEMENT_3D ( 'NONE', #93, #187, #785 ) ;
#407 = CARTESIAN_POINT ( 'NONE',  ( 500000.0000000000582, 0.02499999999999995628, 0.2416666666232984706 ) ) ;
#408 = CARTESIAN_POINT ( 'NONE',  ( -0.2499999999999998890, 0.5500000000000000444, 0.2499999999999998890 ) ) ;
#409 = LINE ( 'NONE', #1231, #473 ) ;
#410 = VECTOR ( 'NONE', #604, 1000.000000000000000 ) ;
#411 = DIRECTION ( 'NONE',  ( 2.168404344971007142E-16, 0.0000000000000000000, -1.000000000000000000 ) ) ;
#412 = AXIS2_PLACEMENT_3D ( 'NONE', #1192, #799, #411 ) ;
#413 = CARTESIAN_POINT ( 'NONE',  ( 0.4749999999999999778, 0.5250000000000000222, -0.2249999999999999500 ) ) ;
#414 = DIRECTION ( 'NONE',  ( 0.0000000000000000000, -1.000000000000000000, -0.0000000000000000000 ) ) ;
#415 = VECTOR ( 'NONE', #944, 1000.000000000000000 ) ;
#416 = LINE ( 'NONE', #408, #100 ) ;
#417 = VERTEX_POINT ( 'NONE', #331 ) ;
#418 = DIRECTION ( 'NONE',  ( -5.877471754111437540E-33, -1.000000000000000000, 5.421010862427520937E-17 ) ) ;
#419 = CARTESIAN_POINT ( 'NONE',  ( -0.4749999999999998668, 0.5250000000000000222, 0.2499999999999998890 ) ) ;
#420 = LINE ( 'NONE', #947, #79 ) ;
#421 = ADVANCED_FACE ( 'NONE', ( #787 ), #927, .F. ) ;
#422 = EDGE_CURVE ( 'NONE', #910, #365, #1184, .T. ) ;
#423 = PRODUCT_DEFINITION_FORMATION_WITH_SPECIFIED_SOURCE ( 'ANY', '', #1270, .NOT_KNOWN. ) ;
#424 = CARTESIAN_POINT ( 'NONE',  ( 0.2499999999940882844, 0.5250000000000000222, -0.2416666666666666963 ) ) ;
#425 = VECTOR ( 'NONE', #789, 1000.000000000000000 ) ;
#426 = CARTESIAN_POINT ( 'NONE',  ( -0.2499999999999999445, 0.0000000000000000000, -0.2250000000000000056 ) ) ;
#427 = DIRECTION ( 'NONE',  ( -1.000000000000000000, 0.0000000000000000000, 0.0000000000000000000 ) ) ;
#428 = CARTESIAN_POINT ( 'NONE',  ( 0.0000000000000000000, 0.5500000000000000444, 0.0000000000000000000 ) ) ;
#429 = PRESENTATION_LAYER_ASSIGNMENT (  '', '', ( #1277 ) ) ;
#430 = VECTOR ( 'NONE', #782, 1000.000000000000000 ) ;
#431 = CARTESIAN_POINT ( 'NONE',  ( -0.5000000000000000000, 0.02499999999999995628, -0.2499999999999999445 ) ) ;
#432 = CIRCLE ( 'NONE', #109, 0.02500000000000001180 ) ;
#433 = CARTESIAN_POINT ( 'NONE',  ( 0.4999999999999998890, 0.5250000000000000222, 0.2499999999999998890 ) ) ;
#434 = EDGE_LOOP ( 'NONE', ( #270, #859, #552, #201 ) ) ;
#435 = CARTESIAN_POINT ( 'NONE',  ( 0.5000000000000000000, 0.02499999999999995628, -0.2249999999999999500 ) ) ;
#436 = ORIENTED_EDGE ( 'NONE', *, *, #200, .T. ) ;
#437 = LINE ( 'NONE', #1119, #1059 ) ;
#438 = ORIENTED_EDGE ( 'NONE', *, *, #172, .T. ) ;
#439 = CARTESIAN_POINT ( 'NONE',  ( -0.4749999999999998668, 0.5250000000000000222, 0.2249999999999998945 ) ) ;
#440 = ORIENTED_EDGE ( 'NONE', *, *, #842, .F. ) ;
#441 = SURFACE_SIDE_STYLE ('',( #1045 ) ) ;
#442 = AXIS2_PLACEMENT_3D ( 'NONE', #97, #1088, #203 ) ;
#443 = AXIS2_PLACEMENT_3D ( 'NONE', #664, #1063, #762 ) ;
#444 = ORIENTED_EDGE ( 'NONE', *, *, #1077, .F. ) ;
#445 = DIRECTION ( 'NONE',  ( 1.000000000000000000, -0.0000000000000000000, -0.0000000000000000000 ) ) ;
#446 = CARTESIAN_POINT ( 'NONE',  ( 0.4749999999999998668, 0.5250000000000000222, 0.2499999999999998890 ) ) ;
#447 = LINE ( 'NONE', #995, #1051 ) ;
#448 = UNCERTAINTY_MEASURE_WITH_UNIT (LENGTH_MEASURE( 1.000000000000000082E-05 ), #62, 'distance_accuracy_value', 'NONE');
#449 = CARTESIAN_POINT ( 'NONE',  ( 0.2499999999999998890, 0.02499999999999995628, 0.2249999999999998945 ) ) ;
#450 = EDGE_CURVE ( 'NONE', #669, #1177, #892, .T. ) ;
#451 = CYLINDRICAL_SURFACE ( 'NONE', #304, 0.02500000000000001180 ) ;
#452 = AXIS2_PLACEMENT_3D ( 'NONE', #861, #173, #376 ) ;
#453 = ORIENTED_EDGE ( 'NONE', *, *, #375, .F. ) ;
#454 = CARTESIAN_POINT ( 'NONE',  ( -0.4749999999999999778, 0.02499999999999995628, -0.2249999999999999500 ) ) ;
#455 = DIRECTION ( 'NONE',  ( 0.0000000000000000000, 0.0000000000000000000, 1.000000000000000000 ) ) ;
#456 = ORIENTED_EDGE ( 'NONE', *, *, #182, .F. ) ;
#457 = ORIENTED_EDGE ( 'NONE', *, *, #883, .T. ) ;
#458 = DIRECTION ( 'NONE',  ( -1.084202172485504681E-16, -0.0000000000000000000, -1.000000000000000000 ) ) ;
#459 = DIRECTION ( 'NONE',  ( 2.168404344971009608E-16, 0.0000000000000000000, -1.000000000000000000 ) ) ;
#460 =( GEOMETRIC_REPRESENTATION_CONTEXT ( 3 ) GLOBAL_UNCERTAINTY_ASSIGNED_CONTEXT ( ( #448 ) ) GLOBAL_UNIT_ASSIGNED_CONTEXT ( ( #62, #748, #839 ) ) REPRESENTATION_CONTEXT ( 'NONE', 'WORKASPACE' ) );
#461 = DIRECTION ( 'NONE',  ( 0.0000000000000000000, 0.0000000000000000000, 1.000000000000000000 ) ) ;
#462 = CIRCLE ( 'NONE', #834, 0.02500000000000001180 ) ;
#463 = EDGE_CURVE ( 'NONE', #737, #864, #1149, .T. ) ;
#464 = LINE ( 'NONE', #403, #226 ) ;
#465 = ORIENTED_EDGE ( 'NONE', *, *, #871, .T. ) ;
#466 = VERTEX_POINT ( 'NONE', #1029 ) ;
#467 = AXIS2_PLACEMENT_3D ( 'NONE', #363, #561, #1242 ) ;
#468 = DIRECTION ( 'NONE',  ( 2.168404344971009608E-16, -0.0000000000000000000, 1.000000000000000000 ) ) ;
#469 = CARTESIAN_POINT ( 'NONE',  ( -0.4749999999999999778, 0.5250000000000000222, -0.2249999999999999500 ) ) ;
#470 = UNCERTAINTY_MEASURE_WITH_UNIT (LENGTH_MEASURE( 1.000000000000000082E-05 ), #674, 'distance_accuracy_value', 'NONE');
#471 = VERTEX_POINT ( 'NONE', #22 ) ;
#472 = EDGE_LOOP ( 'NONE', ( #1217, #250, #277, #1182 ) ) ;
#473 = VECTOR ( 'NONE', #740, 1000.000000000000000 ) ;
#474 = EDGE_CURVE ( 'NONE', #393, #239, #1243, .T. ) ;
#475 = DIRECTION ( 'NONE',  ( 0.0000000000000000000, -1.000000000000000000, 0.0000000000000000000 ) ) ;
#476 = EDGE_LOOP ( 'NONE', ( #1241, #504, #698, #108 ) ) ;
#477 = AXIS2_PLACEMENT_3D ( 'NONE', #482, #572, #1246 ) ;
#478 = FACE_OUTER_BOUND ( 'NONE', #966, .T. ) ;
#479 = CARTESIAN_POINT ( 'NONE',  ( -4.878909776184769953E-17, 0.5250000000000000222, -0.2250000000000000611 ) ) ;
#480 = DIRECTION ( 'NONE',  ( 0.0000000000000000000, 0.0000000000000000000, -1.000000000000000000 ) ) ;
#481 = CYLINDRICAL_SURFACE ( 'NONE', #104, 0.02499999999999995628 ) ;
#482 = CARTESIAN_POINT ( 'NONE',  ( -0.5000000000000000000, 0.5500000000000000444, -0.2499999999999999445 ) ) ;
#483 = EDGE_LOOP ( 'NONE', ( #506, #94, #5, #436, #557, #838, #25, #714 ) ) ;
#484 = EDGE_CURVE ( 'NONE', #747, #365, #59, .T. ) ;
#485 = ORIENTED_EDGE ( 'NONE', *, *, #505, .F. ) ;
#486 = DIRECTION ( 'NONE',  ( 2.168404344971008375E-16, -0.0000000000000000000, 1.000000000000000000 ) ) ;
#487 = ORIENTED_EDGE ( 'NONE', *, *, #535, .T. ) ;
#488 = DIRECTION ( 'NONE',  ( 0.0000000000000000000, 1.000000000000000000, 0.0000000000000000000 ) ) ;
#489 = EDGE_CURVE ( 'NONE', #720, #544, #556, .T. ) ;
#490 = AXIS2_PLACEMENT_3D ( 'NONE', #958, #358, #55 ) ;
#491 = CARTESIAN_POINT ( 'NONE',  ( -0.2499999999999998890, 0.02499999999999995628, -0.2416666666666666130 ) ) ;
#492 = LINE ( 'NONE', #1256, #430 ) ;
#493 = DIRECTION ( 'NONE',  ( 0.0000000000000000000, -1.000000000000000000, -0.0000000000000000000 ) ) ;
#494 = SPHERICAL_SURFACE ( 'NONE', #1124, 0.02500000000000000139 ) ;
#495 = CIRCLE ( 'NONE', #559, 0.01666666666666662133 ) ;
#496 = ORIENTED_EDGE ( 'NONE', *, *, #549, .F. ) ;
#497 = AXIS2_PLACEMENT_3D ( 'NONE', #479, #372, #1061 ) ;
#498 = CARTESIAN_POINT ( 'NONE',  ( 0.2499999999940882844, 0.02499999999999995628, -0.2250000000000000611 ) ) ;
#499 = ORIENTED_EDGE ( 'NONE', *, *, #1214, .F. ) ;
#500 = CIRCLE ( 'NONE', #298, 0.01666666666666662133 ) ;
#501 = CARTESIAN_POINT ( 'NONE',  ( 0.2499999999940882844, 0.5250000000000000222, 0.2416666666666665020 ) ) ;
#502 = EDGE_LOOP ( 'NONE', ( #998, #129, #440, #579, #1142, #1247, #1267, #687 ) ) ;
#503 = VECTOR ( 'NONE', #678, 1000.000000000000000 ) ;
#504 = ORIENTED_EDGE ( 'NONE', *, *, #509, .F. ) ;
#505 = EDGE_CURVE ( 'NONE', #239, #337, #784, .T. ) ;
#506 = ORIENTED_EDGE ( 'NONE', *, *, #726, .T. ) ;
#507 = CARTESIAN_POINT ( 'NONE',  ( 0.2499999999999998890, 0.5250000000000000222, 0.2249999999999998945 ) ) ;
#508 = COLOUR_RGB ( '',0.4862745098039215619, 0.2352941176470588203, 0.01568627450980392135 ) ;
#509 = EDGE_CURVE ( 'NONE', #1069, #1115, #166, .T. ) ;
#510 = CLOSED_SHELL ( 'NONE', ( #1203, #421, #902, #33, #917, #623, #68, #909, #15, #536, #858, #274, #1027, #629, #934, #817, #926, #26 ) ) ;
#511 = AXIS2_PLACEMENT_3D ( 'NONE', #614, #224, #607 ) ;
#512 = ORIENTED_EDGE ( 'NONE', *, *, #13, .T. ) ;
#513 = ADVANCED_FACE ( 'NONE', ( #1032 ), #1213, .T. ) ;
#514 = DIRECTION ( 'NONE',  ( -1.000000000000000000, 0.0000000000000000000, 0.0000000000000000000 ) ) ;
#515 = AXIS2_PLACEMENT_3D ( 'NONE', #1111, #121, #916 ) ;
#516 = DIRECTION ( 'NONE',  ( 0.0000000000000000000, -1.000000000000000000, 0.0000000000000000000 ) ) ;
#517 = PLANE ( 'NONE',  #248 ) ;
#518 = CIRCLE ( 'NONE', #768, 0.02500000000000001180 ) ;
#519 = SPHERICAL_SURFACE ( 'NONE', #992, 0.02500000000000000139 ) ;
#520 = VERTEX_POINT ( 'NONE', #620 ) ;
#521 = SPHERICAL_SURFACE ( 'NONE', #537, 0.02500000000000000139 ) ;
#522 = EDGE_LOOP ( 'NONE', ( #596, #993, #723, #767 ) ) ;
#523 = CARTESIAN_POINT ( 'NONE',  ( 4.878909776184769953E-17, 0.0000000000000000000, -0.2250000000000000611 ) ) ;
#524 = CARTESIAN_POINT ( 'NONE',  ( -0.2499999999999998890, 0.5416666666666667407, 0.2249999999999998945 ) ) ;
#525 = DIRECTION ( 'NONE',  ( 0.0000000000000000000, 0.0000000000000000000, -1.000000000000000000 ) ) ;
#526 = EDGE_CURVE ( 'NONE', #955, #720, #74, .T. ) ;
#527 = ORIENTED_EDGE ( 'NONE', *, *, #450, .T. ) ;
#528 = AXIS2_PLACEMENT_3D ( 'NONE', #1049, #754, #659 ) ;
#529 = CIRCLE ( 'NONE', #1105, 0.01666666666666667337 ) ;
#530 = DIRECTION ( 'NONE',  ( 0.0000000000000000000, 0.0000000000000000000, -1.000000000000000000 ) ) ;
#531 = DIRECTION ( 'NONE',  ( -1.000000000000000000, 0.0000000000000000000, 0.0000000000000000000 ) ) ;
#532 = ORIENTED_EDGE ( 'NONE', *, *, #549, .T. ) ;
#533 = CARTESIAN_POINT ( 'NONE',  ( 0.0000000000000000000, 0.5500000000000000444, 0.0000000000000000000 ) ) ;
#534 = DIRECTION ( 'NONE',  ( -1.084202172485504681E-16, 0.0000000000000000000, 1.000000000000000000 ) ) ;
#535 = EDGE_CURVE ( 'NONE', #337, #779, #437, .T. ) ;
#536 = ADVANCED_FACE ( 'NONE', ( #593 ), #521, .T. ) ;
#537 = AXIS2_PLACEMENT_3D ( 'NONE', #624, #932, #427 ) ;
#538 = VECTOR ( 'NONE', #39, 1000.000000000000000 ) ;
#539 = CARTESIAN_POINT ( 'NONE',  ( 500000.0000000000582, 0.5250000000000000222, -0.2416666667100347554 ) ) ;
#540 = ORIENTED_EDGE ( 'NONE', *, *, #272, .T. ) ;
#541 = VERTEX_POINT ( 'NONE', #524 ) ;
#542 = VERTEX_POINT ( 'NONE', #1206 ) ;
#543 = EDGE_CURVE ( 'NONE', #368, #874, #1028, .T. ) ;
#544 = VERTEX_POINT ( 'NONE', #628 ) ;
#545 = CARTESIAN_POINT ( 'NONE',  ( 0.4749999999999999778, 0.5250000000000000222, -0.2249999999999999500 ) ) ;
#546 =( NAMED_UNIT ( * ) PLANE_ANGLE_UNIT ( ) SI_UNIT ( $, .RADIAN. ) );
#547 = SURFACE_SIDE_STYLE ('',( #1085 ) ) ;
#548 = DIRECTION ( 'NONE',  ( 0.0000000000000000000, -1.000000000000000000, -0.0000000000000000000 ) ) ;
#549 = EDGE_CURVE ( 'NONE', #669, #216, #383, .T. ) ;
#550 = LINE ( 'NONE', #1138, #225 ) ;
#551 = CIRCLE ( 'NONE', #314, 0.01666666666666667337 ) ;
#552 = ORIENTED_EDGE ( 'NONE', *, *, #172, .F. ) ;
#553 = CARTESIAN_POINT ( 'NONE',  ( -0.2499999999999999445, 0.02499999999999995628, -0.2500000000000000000 ) ) ;
#554 = DIRECTION ( 'NONE',  ( 1.000000000000000000, -0.0000000000000000000, -0.0000000000000000000 ) ) ;
#555 = ORIENTED_EDGE ( 'NONE', *, *, #735, .F. ) ;
#556 = CIRCLE ( 'NONE', #1044, 0.01666666666666667337 ) ;
#557 = ORIENTED_EDGE ( 'NONE', *, *, #543, .T. ) ;
#558 = CARTESIAN_POINT ( 'NONE',  ( -0.2499999999999998890, 0.02499999999999995628, 0.2249999999999998945 ) ) ;
#559 = AXIS2_PLACEMENT_3D ( 'NONE', #498, #588, #777 ) ;
#560 = LINE ( 'NONE', #185, #851 ) ;
#561 = DIRECTION ( 'NONE',  ( -1.000000000000000000, -0.0000000000000000000, -0.0000000000000000000 ) ) ;
#562 = DIRECTION ( 'NONE',  ( -1.000000000000000000, 0.0000000000000000000, 0.0000000000000000000 ) ) ;
#563 = EDGE_CURVE ( 'NONE', #569, #1070, #967, .T. ) ;
#564 = LINE ( 'NONE', #1107, #845 ) ;
#565 = ORIENTED_EDGE ( 'NONE', *, *, #626, .T. ) ;
#566 = VECTOR ( 'NONE', #157, 1000.000000000000000 ) ;
#567 = CARTESIAN_POINT ( 'NONE',  ( 0.4999999999999998890, 0.5500000000000000444, 0.2249999999999998945 ) ) ;
#568 =( NAMED_UNIT ( * ) SI_UNIT ( $, .STERADIAN. ) SOLID_ANGLE_UNIT ( ) );
#569 = VERTEX_POINT ( 'NONE', #153 ) ;
#570 = ORIENTED_EDGE ( 'NONE', *, *, #717, .T. ) ;
#571 = EDGE_CURVE ( 'NONE', #910, #857, #940, .T. ) ;
#572 = DIRECTION ( 'NONE',  ( 1.000000000000000000, 0.0000000000000000000, -2.168404344971009608E-16 ) ) ;
#573 = STYLED_ITEM ( 'NONE', ( #1266 ), #974 ) ;
#574 = VECTOR ( 'NONE', #1106, 1000.000000000000000 ) ;
#575 = PLANE ( 'NONE',  #140 ) ;
#576 = CARTESIAN_POINT ( 'NONE',  ( -0.2499999999999999445, 0.5500000000000000444, -0.2500000000000000000 ) ) ;
#577 = FACE_OUTER_BOUND ( 'NONE', #755, .T. ) ;
#578 = CYLINDRICAL_SURFACE ( 'NONE', #987, 0.02500000000000001180 ) ;
#579 = ORIENTED_EDGE ( 'NONE', *, *, #952, .F. ) ;
#580 = AXIS2_PLACEMENT_3D ( 'NONE', #439, #233, #241 ) ;
#581 = ORIENTED_EDGE ( 'NONE', *, *, #489, .T. ) ;
#582 = CARTESIAN_POINT ( 'NONE',  ( -0.4749999999999998668, 0.0000000000000000000, 0.2249999999999998945 ) ) ;
#583 =( LENGTH_UNIT ( ) NAMED_UNIT ( * ) SI_UNIT ( .MILLI., .METRE. ) );
#584 = DIRECTION ( 'NONE',  ( 0.0000000000000000000, -0.0000000000000000000, 1.000000000000000000 ) ) ;
#585 = EDGE_CURVE ( 'NONE', #417, #164, #338, .T. ) ;
#586 = VECTOR ( 'NONE', #795, 1000.000000000000000 ) ;
#587 = AXIS2_PLACEMENT_3D ( 'NONE', #832, #836, #534 ) ;
#588 = DIRECTION ( 'NONE',  ( 1.000000000000000000, 0.0000000000000000000, 1.084202172485504681E-16 ) ) ;
#589 = CARTESIAN_POINT ( 'NONE',  ( -0.5000000000000000000, 0.02499999999999995628, -0.2249999999999999500 ) ) ;
#590 = EDGE_LOOP ( 'NONE', ( #921, #178, #631 ) ) ;
#591 = EDGE_CURVE ( 'NONE', #237, #1070, #146, .T. ) ;
#592 = ORIENTED_EDGE ( 'NONE', *, *, #635, .F. ) ;
#593 = FACE_OUTER_BOUND ( 'NONE', #342, .T. ) ;
#594 = DIRECTION ( 'NONE',  ( 0.0000000000000000000, 1.000000000000000000, 0.0000000000000000000 ) ) ;
#595 = EDGE_LOOP ( 'NONE', ( #750, #1159, #684, #487 ) ) ;
#596 = ORIENTED_EDGE ( 'NONE', *, *, #626, .F. ) ;
#597 = DIRECTION ( 'NONE',  ( -1.000000000000000000, -0.0000000000000000000, 8.673617379884035472E-17 ) ) ;
#598 = SURFACE_SIDE_STYLE ('',( #1175 ) ) ;
#599 = FACE_OUTER_BOUND ( 'NONE', #895, .T. ) ;
#600 = EDGE_CURVE ( 'NONE', #239, #864, #355, .T. ) ;
#601 = DIRECTION ( 'NONE',  ( 0.0000000000000000000, 0.0000000000000000000, 1.000000000000000000 ) ) ;
#602 = LINE ( 'NONE', #1158, #244 ) ;
#603 = MANIFOLD_SOLID_BREP ( 'Fillet1', #1083 ) ;
#604 = DIRECTION ( 'NONE',  ( -1.000000000000000000, -0.0000000000000000000, 8.673617379884035472E-17 ) ) ;
#605 = FACE_OUTER_BOUND ( 'NONE', #1244, .T. ) ;
#606 = ORIENTED_EDGE ( 'NONE', *, *, #600, .T. ) ;
#607 = DIRECTION ( 'NONE',  ( -1.000000000000000000, 0.0000000000000000000, 0.0000000000000000000 ) ) ;
#608 = EDGE_LOOP ( 'NONE', ( #456, #606, #297 ) ) ;
#609 = EDGE_CURVE ( 'NONE', #73, #720, #409, .T. ) ;
#610 = FACE_OUTER_BOUND ( 'NONE', #1268, .T. ) ;
#611 = CARTESIAN_POINT ( 'NONE',  ( 500000.0000000000582, 0.5250000000000000222, -0.2250000000433681202 ) ) ;
#612 = VERTEX_POINT ( 'NONE', #553 ) ;
#613 = CARTESIAN_POINT ( 'NONE',  ( -0.4749999999999998668, 0.5500000000000000444, 0.2499999999999998890 ) ) ;
#614 = CARTESIAN_POINT ( 'NONE',  ( 0.4749999999999999778, 0.02500000000000000139, -0.2249999999999999500 ) ) ;
#615 = ORIENTED_EDGE ( 'NONE', *, *, #1056, .F. ) ;
#616 = CARTESIAN_POINT ( 'NONE',  ( 0.5000000000000000000, 0.02499999999999995628, -0.2249999999999999500 ) ) ;
#617 = DIRECTION ( 'NONE',  ( 0.0000000000000000000, 0.0000000000000000000, 1.000000000000000000 ) ) ;
#618 = FACE_OUTER_BOUND ( 'NONE', #179, .T. ) ;
#619 = CARTESIAN_POINT ( 'NONE',  ( -0.4749999999999999778, 0.02499999999999995628, -0.2499999999999999445 ) ) ;
#620 = CARTESIAN_POINT ( 'NONE',  ( 0.4749999999999998668, 0.0000000000000000000, 0.2249999999999998945 ) ) ;
#621 = ORIENTED_EDGE ( 'NONE', *, *, #44, .T. ) ;
#622 = ORIENTED_EDGE ( 'NONE', *, *, #272, .F. ) ;
#623 = ADVANCED_FACE ( 'NONE', ( #632 ), #1136, .F. ) ;
#624 = CARTESIAN_POINT ( 'NONE',  ( 0.4749999999999998668, 0.5250000000000000222, 0.2249999999999998945 ) ) ;
#625 = DIRECTION ( 'NONE',  ( 0.0000000000000000000, 0.0000000000000000000, -1.000000000000000000 ) ) ;
#626 = EDGE_CURVE ( 'NONE', #393, #805, #876, .T. ) ;
#627 = EDGE_LOOP ( 'NONE', ( #875, #194, #87, #382 ) ) ;
#628 = CARTESIAN_POINT ( 'NONE',  ( -0.2499999999999998890, 0.5416666666666667407, -0.2250000000000000056 ) ) ;
#629 = ADVANCED_FACE ( 'NONE', ( #896 ), #645, .T. ) ;
#630 = SURFACE_STYLE_USAGE ( .BOTH. , #441 ) ;
#631 = ORIENTED_EDGE ( 'NONE', *, *, #591, .F. ) ;
#632 = FACE_OUTER_BOUND ( 'NONE', #1118, .T. ) ;
#633 = EDGE_LOOP ( 'NONE', ( #848, #1272, #47, #891 ) ) ;
#634 = DIRECTION ( 'NONE',  ( 1.000000000000000000, 0.0000000000000000000, 2.168404344971008375E-16 ) ) ;
#635 = EDGE_CURVE ( 'NONE', #520, #148, #88, .T. ) ;
#636 = AXIS2_PLACEMENT_3D ( 'NONE', #1016, #925, #730 ) ;
#637 = FACE_OUTER_BOUND ( 'NONE', #691, .T. ) ;
#638 = DIRECTION ( 'NONE',  ( 0.0000000000000000000, 0.0000000000000000000, -1.000000000000000000 ) ) ;
#639 = VECTOR ( 'NONE', #295, 1000.000000000000000 ) ;
#640 = ORIENTED_EDGE ( 'NONE', *, *, #484, .T. ) ;
#641 = VECTOR ( 'NONE', #634, 1000.000000000000000 ) ;
#642 = FACE_OUTER_BOUND ( 'NONE', #10, .T. ) ;
#643 = ORIENTED_EDGE ( 'NONE', *, *, #287, .F. ) ;
#644 = FACE_OUTER_BOUND ( 'NONE', #472, .T. ) ;
#645 = CYLINDRICAL_SURFACE ( 'NONE', #92, 0.02500000000000001180 ) ;
#646 = AXIS2_PLACEMENT_3D ( 'NONE', #141, #1041, #251 ) ;
#647 = VERTEX_POINT ( 'NONE', #357 ) ;
#648 = DIRECTION ( 'NONE',  ( 0.0000000000000000000, 1.000000000000000000, 0.0000000000000000000 ) ) ;
#649 = DIRECTION ( 'NONE',  ( -0.0000000000000000000, -1.000000000000000000, -0.0000000000000000000 ) ) ;
#650 = LINE ( 'NONE', #963, #689 ) ;
#651 = CARTESIAN_POINT ( 'NONE',  ( 0.5000000000000000000, 0.5500000000000000444, -0.2499999999999999445 ) ) ;
#652 = EDGE_CURVE ( 'NONE', #371, #365, #420, .T. ) ;
#653 = STYLED_ITEM ( 'NONE', ( #349 ), #291 ) ;
#654 = ORIENTED_EDGE ( 'NONE', *, *, #1214, .T. ) ;
#655 = ADVANCED_FACE ( 'NONE', ( #249 ), #183, .T. ) ;
#656 = DIRECTION ( 'NONE',  ( 0.0000000000000000000, 0.0000000000000000000, -1.000000000000000000 ) ) ;
#657 = ORIENTED_EDGE ( 'NONE', *, *, #1222, .F. ) ;
#658 = ORIENTED_EDGE ( 'NONE', *, *, #635, .T. ) ;
#659 = DIRECTION ( 'NONE',  ( -8.673617379884036705E-17, 0.0000000000000000000, -1.000000000000000000 ) ) ;
#660 = AXIS2_PLACEMENT_3D ( 'NONE', #533, #1112, #231 ) ;
#661 = LINE ( 'NONE', #210, #410 ) ;
#662 = DIRECTION ( 'NONE',  ( 0.0000000000000000000, 0.0000000000000000000, 1.000000000000000000 ) ) ;
#663 = APPLICATION_PROTOCOL_DEFINITION ( 'draft international standard', 'automotive_design', 1998, #881 ) ;
#664 = CARTESIAN_POINT ( 'NONE',  ( 0.0000000000000000000, 0.0000000000000000000, 0.0000000000000000000 ) ) ;
#665 = EDGE_CURVE ( 'NONE', #1070, #171, #650, .T. ) ;
#666 = CIRCLE ( 'NONE', #743, 0.02500000000000001180 ) ;
#667 = LINE ( 'NONE', #112, #177 ) ;
#668 = VERTEX_POINT ( 'NONE', #65 ) ;
#669 = VERTEX_POINT ( 'NONE', #753 ) ;
#670 = CARTESIAN_POINT ( 'NONE',  ( -0.2499999999999999445, 0.5250000000000000222, -0.2500000000000000000 ) ) ;
#671 = FACE_OUTER_BOUND ( 'NONE', #938, .T. ) ;
#672 = CARTESIAN_POINT ( 'NONE',  ( 0.4749999999999999778, 0.5500000000000000444, -0.2249999999999999500 ) ) ;
#673 = EDGE_CURVE ( 'NONE', #1091, #1070, #1109, .T. ) ;
#674 =( LENGTH_UNIT ( ) NAMED_UNIT ( * ) SI_UNIT ( .MILLI., .METRE. ) );
#675 = AXIS2_PLACEMENT_3D ( 'NONE', #1221, #352, #43 ) ;
#676 = PLANE ( 'NONE',  #685 ) ;
#677 = VECTOR ( 'NONE', #597, 1000.000000000000000 ) ;
#678 = DIRECTION ( 'NONE',  ( 1.000000000000000000, -0.0000000000000000000, 0.0000000000000000000 ) ) ;
#679 =( NAMED_UNIT ( * ) PLANE_ANGLE_UNIT ( ) SI_UNIT ( $, .RADIAN. ) );
#680 = DIRECTION ( 'NONE',  ( 1.000000000000000000, 0.0000000000000000000, -8.673617379884036705E-17 ) ) ;
#681 = VECTOR ( 'NONE', #745, 1000.000000000000000 ) ;
#682 = DIRECTION ( 'NONE',  ( -1.000000000000000000, 0.0000000000000000000, 2.168404344971008375E-16 ) ) ;
#683 = LINE ( 'NONE', #1199, #364 ) ;
#684 = ORIENTED_EDGE ( 'NONE', *, *, #236, .T. ) ;
#685 = AXIS2_PLACEMENT_3D ( 'NONE', #1080, #1262, #584 ) ;
#686 = DIRECTION ( 'NONE',  ( 0.0000000000000000000, 0.0000000000000000000, 1.000000000000000000 ) ) ;
#687 = ORIENTED_EDGE ( 'NONE', *, *, #255, .F. ) ;
#688 = DIRECTION ( 'NONE',  ( -1.000000000000000000, 0.0000000000000000000, 0.0000000000000000000 ) ) ;
#689 = VECTOR ( 'NONE', #71, 1000.000000000000000 ) ;
#690 = CARTESIAN_POINT ( 'NONE',  ( -0.2499999999999999445, 0.0000000000000000000, -0.2500000000000000000 ) ) ;
#691 = EDGE_LOOP ( 'NONE', ( #786, #101, #570, #961 ) ) ;
#692 = AXIS2_PLACEMENT_3D ( 'NONE', #401, #897, #888 ) ;
#693 = VECTOR ( 'NONE', #1071, 1000.000000000000000 ) ;
#694 = ORIENTED_EDGE ( 'NONE', *, *, #1156, .T. ) ;
#695 = DIRECTION ( 'NONE',  ( 1.000000000000000000, 0.0000000000000000000, 0.0000000000000000000 ) ) ;
#696 = CARTESIAN_POINT ( 'NONE',  ( 0.2499999999999998890, 0.5500000000000000444, 0.2499999999999998890 ) ) ;
#697 = EDGE_CURVE ( 'NONE', #356, #612, #374, .T. ) ;
#698 = ORIENTED_EDGE ( 'NONE', *, *, #842, .T. ) ;
#699 = MECHANICAL_DESIGN_GEOMETRIC_PRESENTATION_REPRESENTATION (  '', ( #573 ), #192 ) ;
#700 = CARTESIAN_POINT ( 'NONE',  ( 0.5000000000000000000, 0.5250000000000000222, -0.2249999999999999500 ) ) ;
#701 = LINE ( 'NONE', #228, #1133 ) ;
#702 = ORIENTED_EDGE ( 'NONE', *, *, #1227, .F. ) ;
#703 = DIRECTION ( 'NONE',  ( -1.000000000000000000, 0.0000000000000000000, -0.0000000000000000000 ) ) ;
#704 = ADVANCED_FACE ( 'NONE', ( #833 ), #366, .F. ) ;
#705 = CARTESIAN_POINT ( 'NONE',  ( 0.4749999999999999778, 0.02499999999999995628, -0.2499999999999999445 ) ) ;
#706 = MECHANICAL_DESIGN_GEOMETRIC_PRESENTATION_REPRESENTATION (  '', ( #1277 ), #460 ) ;
#707 = DIRECTION ( 'NONE',  ( -1.000000000000000000, -0.0000000000000000000, 8.673617379884035472E-17 ) ) ;
#708 = DIRECTION ( 'NONE',  ( 0.0000000000000000000, 0.0000000000000000000, 1.000000000000000000 ) ) ;
#709 = VECTOR ( 'NONE', #554, 1000.000000000000000 ) ;
#710 = ADVANCED_FACE ( 'NONE', ( #863 ), #1240, .F. ) ;
#711 = LINE ( 'NONE', #523, #259 ) ;
#712 = CARTESIAN_POINT ( 'NONE',  ( -0.4749999999999999778, 0.02500000000000000139, -0.2249999999999999500 ) ) ;
#713 = CARTESIAN_POINT ( 'NONE',  ( -0.2499999999999999445, 0.5500000000000000444, -0.2500000000000000000 ) ) ;
#714 = ORIENTED_EDGE ( 'NONE', *, *, #1035, .T. ) ;
#715 = DIRECTION ( 'NONE',  ( -1.084202172485504681E-16, 0.0000000000000000000, 1.000000000000000000 ) ) ;
#716 = ORIENTED_EDGE ( 'NONE', *, *, #652, .F. ) ;
#717 = EDGE_CURVE ( 'NONE', #466, #73, #500, .T. ) ;
#718 = CARTESIAN_POINT ( 'NONE',  ( 0.4999999999999998890, 0.02499999999999995628, 0.2249999999999998945 ) ) ;
#719 = DIRECTION ( 'NONE',  ( 0.0000000000000000000, 0.0000000000000000000, -1.000000000000000000 ) ) ;
#720 = VERTEX_POINT ( 'NONE', #165 ) ;
#721 = DIRECTION ( 'NONE',  ( 0.0000000000000000000, -1.000000000000000000, 0.0000000000000000000 ) ) ;
#722 = CARTESIAN_POINT ( 'NONE',  ( 0.4749999999999999223, 0.5250000000000000222, 1.029992063861229459E-16 ) ) ;
#723 = ORIENTED_EDGE ( 'NONE', *, *, #182, .T. ) ;
#724 = DIRECTION ( 'NONE',  ( 0.0000000000000000000, 0.0000000000000000000, 1.000000000000000000 ) ) ;
#725 = FACE_OUTER_BOUND ( 'NONE', #823, .T. ) ;
#726 = EDGE_CURVE ( 'NONE', #955, #668, #856, .T. ) ;
#727 = EDGE_LOOP ( 'NONE', ( #923, #57, #658, #757 ) ) ;
#728 = AXIS2_PLACEMENT_3D ( 'NONE', #1141, #54, #58 ) ;
#729 = ADVANCED_FACE ( 'NONE', ( #119 ), #69, .T. ) ;
#730 = DIRECTION ( 'NONE',  ( 1.000000000000000000, 0.0000000000000000000, 0.0000000000000000000 ) ) ;
#731 = DIRECTION ( 'NONE',  ( -0.0000000000000000000, 1.000000000000000000, 0.0000000000000000000 ) ) ;
#732 = ORIENTED_EDGE ( 'NONE', *, *, #375, .T. ) ;
#733 = DIRECTION ( 'NONE',  ( 0.0000000000000000000, 1.000000000000000000, 0.0000000000000000000 ) ) ;
#734 = PLANE ( 'NONE',  #815 ) ;
#735 = EDGE_CURVE ( 'NONE', #779, #393, #292, .T. ) ;
#736 = ORIENTED_EDGE ( 'NONE', *, *, #860, .T. ) ;
#737 = VERTEX_POINT ( 'NONE', #977 ) ;
#738 = CARTESIAN_POINT ( 'NONE',  ( 0.2499999999940882844, 0.5416666666666667407, -0.2250000000975782011 ) ) ;
#739 = ORIENTED_EDGE ( 'NONE', *, *, #38, .F. ) ;
#740 = DIRECTION ( 'NONE',  ( 0.0000000000000000000, 1.000000000000000000, 0.0000000000000000000 ) ) ;
#741 = DIRECTION ( 'NONE',  ( -0.0000000000000000000, -0.0000000000000000000, -1.000000000000000000 ) ) ;
#742 = EDGE_CURVE ( 'NONE', #1177, #901, #416, .T. ) ;
#743 = AXIS2_PLACEMENT_3D ( 'NONE', #158, #741, #847 ) ;
#744 = CYLINDRICAL_SURFACE ( 'NONE', #675, 0.02500000000000001180 ) ;
#745 = DIRECTION ( 'NONE',  ( -0.0000000000000000000, 1.000000000000000000, -0.0000000000000000000 ) ) ;
#746 = ORIENTED_EDGE ( 'NONE', *, *, #189, .T. ) ;
#747 = VERTEX_POINT ( 'NONE', #299 ) ;
#748 =( NAMED_UNIT ( * ) PLANE_ANGLE_UNIT ( ) SI_UNIT ( $, .RADIAN. ) );
#749 = DIRECTION ( 'NONE',  ( 0.0000000000000000000, 1.000000000000000000, 0.0000000000000000000 ) ) ;
#750 = ORIENTED_EDGE ( 'NONE', *, *, #860, .F. ) ;
#751 = AXIS2_PLACEMENT_3D ( 'NONE', #198, #305, #392 ) ;
#752 = ADVANCED_FACE ( 'NONE', ( #306 ), #1181, .F. ) ;
#753 = CARTESIAN_POINT ( 'NONE',  ( -0.2499999999999998890, 0.5500000000000000444, 0.2249999999999998945 ) ) ;
#754 = DIRECTION ( 'NONE',  ( 1.000000000000000000, 0.0000000000000000000, -8.673617379884036705E-17 ) ) ;
#755 = EDGE_LOOP ( 'NONE', ( #813, #1058, #253, #155 ) ) ;
#756 = CYLINDRICAL_SURFACE ( 'NONE', #167, 0.02500000000000001180 ) ;
#757 = ORIENTED_EDGE ( 'NONE', *, *, #822, .T. ) ;
#758 = DIRECTION ( 'NONE',  ( -1.000000000000000000, -0.0000000000000000000, 8.673617379884035472E-17 ) ) ;
#759 = EDGE_CURVE ( 'NONE', #973, #1239, #551, .T. ) ;
#760 = LINE ( 'NONE', #1066, #350 ) ;
#761 = DIRECTION ( 'NONE',  ( 0.0000000000000000000, 0.0000000000000000000, -1.000000000000000000 ) ) ;
#762 = DIRECTION ( 'NONE',  ( 1.000000000000000000, 0.0000000000000000000, 0.0000000000000000000 ) ) ;
#763 = EDGE_LOOP ( 'NONE', ( #532, #771, #1074, #1043 ) ) ;
#764 = PRODUCT_DEFINITION_SHAPE ( 'NONE', 'NONE',  #1052 ) ;
#765 = ORIENTED_EDGE ( 'NONE', *, *, #766, .T. ) ;
#766 = EDGE_CURVE ( 'NONE', #850, #216, #1068, .T. ) ;
#767 = ORIENTED_EDGE ( 'NONE', *, *, #78, .T. ) ;
#768 = AXIS2_PLACEMENT_3D ( 'NONE', #242, #245, #638 ) ;
#769 = VERTEX_POINT ( 'NONE', #880 ) ;
#770 = DIRECTION ( 'NONE',  ( 1.000000000000000000, 0.0000000000000000000, 0.0000000000000000000 ) ) ;
#771 = ORIENTED_EDGE ( 'NONE', *, *, #1139, .T. ) ;
#772 = FILL_AREA_STYLE ('',( #870 ) ) ;
#773 = CARTESIAN_POINT ( 'NONE',  ( 0.4749999999999998668, 0.5250000000000000222, 0.2249999999999998945 ) ) ;
#774 = DIRECTION ( 'NONE',  ( 0.0000000000000000000, 0.0000000000000000000, 1.000000000000000000 ) ) ;
#775 = AXIS2_PLACEMENT_3D ( 'NONE', #1153, #75, #761 ) ;
#776 = VECTOR ( 'NONE', #936, 1000.000000000000000 ) ;
#777 = DIRECTION ( 'NONE',  ( 0.0000000000000000000, 0.0000000000000000000, -1.000000000000000000 ) ) ;
#778 = CIRCLE ( 'NONE', #1079, 0.02500000000000001180 ) ;
#779 = VERTEX_POINT ( 'NONE', #1173 ) ;
#780 = VECTOR ( 'NONE', #458, 1000.000000000000000 ) ;
#781 = DIRECTION ( 'NONE',  ( 0.0000000000000000000, 0.0000000000000000000, -1.000000000000000000 ) ) ;
#782 = DIRECTION ( 'NONE',  ( 0.0000000000000000000, -1.000000000000000000, 5.421010862427520937E-17 ) ) ;
#783 = VECTOR ( 'NONE', #1145, 1000.000000000000000 ) ;
#784 = LINE ( 'NONE', #344, #389 ) ;
#785 = DIRECTION ( 'NONE',  ( 0.0000000000000000000, 0.0000000000000000000, 1.000000000000000000 ) ) ;
#786 = ORIENTED_EDGE ( 'NONE', *, *, #797, .F. ) ;
#787 = FACE_OUTER_BOUND ( 'NONE', #476, .T. ) ;
#788 = EDGE_CURVE ( 'NONE', #1104, #541, #900, .T. ) ;
#789 = DIRECTION ( 'NONE',  ( -2.168404344971009608E-16, 0.0000000000000000000, -1.000000000000000000 ) ) ;
#790 =( GEOMETRIC_REPRESENTATION_CONTEXT ( 3 ) GLOBAL_UNCERTAINTY_ASSIGNED_CONTEXT ( ( #1031 ) ) GLOBAL_UNIT_ASSIGNED_CONTEXT ( ( #583, #679, #568 ) ) REPRESENTATION_CONTEXT ( 'NONE', 'WORKASPACE' ) );
#791 = CARTESIAN_POINT ( 'NONE',  ( 0.4749999999999998668, 0.5500000000000000444, 0.2249999999999998945 ) ) ;
#792 = CLOSED_SHELL ( 'NONE', ( #1036, #1215, #752, #1220, #243, #1123, #322, #341, #704, #327 ) ) ;
#793 = LINE ( 'NONE', #1014, #574 ) ;
#794 = CARTESIAN_POINT ( 'NONE',  ( 0.5000000000000000000, 0.5500000000000000444, -0.2499999999999999445 ) ) ;
#795 = DIRECTION ( 'NONE',  ( 1.084202172485504681E-16, -0.0000000000000000000, -1.000000000000000000 ) ) ;
#796 = DIRECTION ( 'NONE',  ( 0.0000000000000000000, -1.000000000000000000, 0.0000000000000000000 ) ) ;
#797 = EDGE_CURVE ( 'NONE', #103, #1163, #495, .T. ) ;
#798 = LINE ( 'NONE', #48, #415 ) ;
#799 = DIRECTION ( 'NONE',  ( -1.000000000000000000, 0.0000000000000000000, -2.168404344971008375E-16 ) ) ;
#800 = EDGE_LOOP ( 'NONE', ( #929, #205, #837, #984 ) ) ;
#801 = DIRECTION ( 'NONE',  ( -1.000000000000000000, 0.0000000000000000000, 0.0000000000000000000 ) ) ;
#802 = DIRECTION ( 'NONE',  ( -1.000000000000000000, 0.0000000000000000000, 2.168404344971014538E-16 ) ) ;
#803 = CARTESIAN_POINT ( 'NONE',  ( -0.2499999999999998890, 0.5250000000000000222, 0.2249999999999998945 ) ) ;
#804 = AXIS2_PLACEMENT_3D ( 'NONE', #794, #296, #380 ) ;
#805 = VERTEX_POINT ( 'NONE', #791 ) ;
#806 = CARTESIAN_POINT ( 'NONE',  ( -0.4749999999999999223, 0.5250000000000000222, 1.029992063861229459E-16 ) ) ;
#807 = CARTESIAN_POINT ( 'NONE',  ( 500000.0000000000582, 0.02499999999999995628, -0.2416666667100347277 ) ) ;
#808 = DIRECTION ( 'NONE',  ( -1.000000000000000000, -0.0000000000000000000, -2.168404344971008375E-16 ) ) ;
#809 = CARTESIAN_POINT ( 'NONE',  ( -0.2499999999999998890, 0.02499999999999995628, 0.2499999999999998890 ) ) ;
#810 = CIRCLE ( 'NONE', #266, 0.02500000000000001180 ) ;
#811 = EDGE_CURVE ( 'NONE', #1151, #1089, #1193, .T. ) ;
#812 = FACE_OUTER_BOUND ( 'NONE', #168, .T. ) ;
#813 = ORIENTED_EDGE ( 'NONE', *, *, #1050, .F. ) ;
#814 = ORIENTED_EDGE ( 'NONE', *, *, #726, .F. ) ;
#815 = AXIS2_PLACEMENT_3D ( 'NONE', #1113, #367, #853 ) ;
#816 = DIRECTION ( 'NONE',  ( 0.0000000000000000000, 0.0000000000000000000, 1.000000000000000000 ) ) ;
#817 = ADVANCED_FACE ( 'NONE', ( #56 ), #519, .T. ) ;
#818 = ORIENTED_EDGE ( 'NONE', *, *, #665, .T. ) ;
#819 = CARTESIAN_POINT ( 'NONE',  ( 0.2499999999940882844, 0.02499999999999995628, 0.2416666666666665297 ) ) ;
#820 = CARTESIAN_POINT ( 'NONE',  ( -0.2499999999999998890, 0.5250000000000000222, 0.2249999999999998945 ) ) ;
#821 = CARTESIAN_POINT ( 'NONE',  ( 0.4749999999999998668, 0.5500000000000000444, 0.2249999999999998945 ) ) ;
#822 = EDGE_CURVE ( 'NONE', #148, #152, #464, .T. ) ;
#823 = EDGE_LOOP ( 'NONE', ( #640, #716, #206, #453 ) ) ;
#824 = DIRECTION ( 'NONE',  ( -1.000000000000000000, 0.0000000000000000000, 0.0000000000000000000 ) ) ;
#825 = AXIS2_PLACEMENT_3D ( 'NONE', #207, #89, #894 ) ;
#826 = VECTOR ( 'NONE', #418, 1000.000000000000000 ) ;
#827 = CARTESIAN_POINT ( 'NONE',  ( -0.4749999999999998668, 0.5250000000000000222, 0.2249999999999998945 ) ) ;
#828 = DIRECTION ( 'NONE',  ( -2.168404344971009608E-16, -0.0000000000000000000, -1.000000000000000000 ) ) ;
#829 = VECTOR ( 'NONE', #2, 1000.000000000000000 ) ;
#830 = CARTESIAN_POINT ( 'NONE',  ( 0.5000000000000000000, 0.5250000000000000222, -0.2499999999999999445 ) ) ;
#831 = ORIENTED_EDGE ( 'NONE', *, *, #1264, .T. ) ;
#832 = CARTESIAN_POINT ( 'NONE',  ( 0.2499999999999999445, 0.5500000000000000444, -0.2500000000000000000 ) ) ;
#833 = FACE_OUTER_BOUND ( 'NONE', #1167, .T. ) ;
#834 = AXIS2_PLACEMENT_3D ( 'NONE', #558, #1230, #373 ) ;
#835 = ORIENTED_EDGE ( 'NONE', *, *, #673, .F. ) ;
#836 = DIRECTION ( 'NONE',  ( 1.000000000000000000, 0.0000000000000000000, 1.084202172485504681E-16 ) ) ;
#837 = ORIENTED_EDGE ( 'NONE', *, *, #563, .F. ) ;
#838 = ORIENTED_EDGE ( 'NONE', *, *, #312, .T. ) ;
#839 =( NAMED_UNIT ( * ) SI_UNIT ( $, .STERADIAN. ) SOLID_ANGLE_UNIT ( ) );
#840 =( LENGTH_UNIT ( ) NAMED_UNIT ( * ) SI_UNIT ( .MILLI., .METRE. ) );
#841 = SPHERICAL_SURFACE ( 'NONE', #442, 0.02500000000000000139 ) ;
#842 = EDGE_CURVE ( 'NONE', #1069, #152, #381, .T. ) ;
#843 = CARTESIAN_POINT ( 'NONE',  ( -0.4749999999999999778, 0.5250000000000000222, -0.2249999999999999500 ) ) ;
#844 = COLOUR_RGB ( '',0.7921568627450980005, 0.8196078431372548767, 0.9333333333333333481 ) ;
#845 = VECTOR ( 'NONE', #1025, 1000.000000000000000 ) ;
#846 = ORIENTED_EDGE ( 'NONE', *, *, #1274, .T. ) ;
#847 = DIRECTION ( 'NONE',  ( 1.000000000000000000, 0.0000000000000000000, 0.0000000000000000000 ) ) ;
#848 = ORIENTED_EDGE ( 'NONE', *, *, #543, .F. ) ;
#849 = ADVANCED_FACE ( 'NONE', ( #812 ), #676, .F. ) ;
#850 = VERTEX_POINT ( 'NONE', #1269 ) ;
#851 = VECTOR ( 'NONE', #884, 1000.000000000000000 ) ;
#852 = CARTESIAN_POINT ( 'NONE',  ( 0.4749999999999998668, 0.02500000000000000139, 0.2249999999999998945 ) ) ;
#853 = DIRECTION ( 'NONE',  ( -1.000000000000000000, 0.0000000000000000000, -0.0000000000000000000 ) ) ;
#854 = EDGE_CURVE ( 'NONE', #1239, #466, #193, .T. ) ;
#855 = DIRECTION ( 'NONE',  ( 1.000000000000000000, 0.0000000000000000000, 0.0000000000000000000 ) ) ;
#856 = CIRCLE ( 'NONE', #775, 0.01666666666666667337 ) ;
#857 = VERTEX_POINT ( 'NONE', #1280 ) ;
#858 = ADVANCED_FACE ( 'NONE', ( #128 ), #260, .T. ) ;
#859 = ORIENTED_EDGE ( 'NONE', *, *, #84, .F. ) ;
#860 = EDGE_CURVE ( 'NONE', #520, #779, #1209, .T. ) ;
#861 = CARTESIAN_POINT ( 'NONE',  ( -0.2499999999999999445, 0.02499999999999995628, -0.2250000000000000056 ) ) ;
#862 = DIRECTION ( 'NONE',  ( 0.0000000000000000000, 0.0000000000000000000, 1.000000000000000000 ) ) ;
#863 = FACE_OUTER_BOUND ( 'NONE', #343, .T. ) ;
#864 = VERTEX_POINT ( 'NONE', #990 ) ;
#865 = AXIS2_PLACEMENT_3D ( 'NONE', #611, #20, #911 ) ;
#866 = ORIENTED_EDGE ( 'NONE', *, *, #149, .T. ) ;
#867 = CARTESIAN_POINT ( 'NONE',  ( 0.4749999999999998668, 0.02499999999999995628, 0.2249999999999998945 ) ) ;
#868 = VERTEX_POINT ( 'NONE', #310 ) ;
#869 = VECTOR ( 'NONE', #215, 1000.000000000000000 ) ;
#870 = FILL_AREA_STYLE_COLOUR ( '', #844 ) ;
#871 = EDGE_CURVE ( 'NONE', #541, #1089, #873, .T. ) ;
#872 = CARTESIAN_POINT ( 'NONE',  ( -0.4749999999999998668, 0.5250000000000000222, 0.2249999999999998945 ) ) ;
#873 = CIRCLE ( 'NONE', #1019, 0.01666666666666667337 ) ;
#874 = VERTEX_POINT ( 'NONE', #1090 ) ;
#875 = ORIENTED_EDGE ( 'NONE', *, *, #571, .T. ) ;
#876 = CIRCLE ( 'NONE', #728, 0.02500000000000001180 ) ;
#877 = DIRECTION ( 'NONE',  ( 0.0000000000000000000, 0.0000000000000000000, 1.000000000000000000 ) ) ;
#878 = EDGE_CURVE ( 'NONE', #164, #864, #683, .T. ) ;
#879 = ORIENTED_EDGE ( 'NONE', *, *, #255, .T. ) ;
#880 = CARTESIAN_POINT ( 'NONE',  ( 0.4749999999999999778, 0.0000000000000000000, -0.2249999999999999500 ) ) ;
#881 = APPLICATION_CONTEXT ( 'automotive_design' ) ;
#882 = FACE_OUTER_BOUND ( 'NONE', #981, .T. ) ;
#883 = EDGE_CURVE ( 'NONE', #237, #471, #1236, .T. ) ;
#884 = DIRECTION ( 'NONE',  ( 1.000000000000000000, -0.0000000000000000000, 0.0000000000000000000 ) ) ;
#885 = AXIS2_PLACEMENT_3D ( 'NONE', #773, #184, #708 ) ;
#886 = EDGE_LOOP ( 'NONE', ( #9, #512, #1147, #330 ) ) ;
#887 = ORIENTED_EDGE ( 'NONE', *, *, #1249, .T. ) ;
#888 = DIRECTION ( 'NONE',  ( 1.000000000000000000, 0.0000000000000000000, 0.0000000000000000000 ) ) ;
#889 = CARTESIAN_POINT ( 'NONE',  ( 500000.0000000000582, 0.5416666666666667407, 0.2249999999566317799 ) ) ;
#890 = ORIENTED_EDGE ( 'NONE', *, *, #983, .F. ) ;
#891 = ORIENTED_EDGE ( 'NONE', *, *, #13, .F. ) ;
#892 = CIRCLE ( 'NONE', #273, 0.02500000000000001180 ) ;
#893 = AXIS2_PLACEMENT_3D ( 'NONE', #1185, #318, #1 ) ;
#894 = DIRECTION ( 'NONE',  ( -1.000000000000000000, 0.0000000000000000000, 0.0000000000000000000 ) ) ;
#895 = EDGE_LOOP ( 'NONE', ( #438, #1062, #281 ) ) ;
#896 = FACE_OUTER_BOUND ( 'NONE', #595, .T. ) ;
#897 = DIRECTION ( 'NONE',  ( 0.0000000000000000000, -0.0000000000000000000, 1.000000000000000000 ) ) ;
#898 = EDGE_CURVE ( 'NONE', #237, #569, #778, .T. ) ;
#899 = CIRCLE ( 'NONE', #467, 0.02500000000000001180 ) ;
#900 = LINE ( 'NONE', #889, #639 ) ;
#901 = VERTEX_POINT ( 'NONE', #809 ) ;
#902 = ADVANCED_FACE ( 'NONE', ( #950 ), #1017, .F. ) ;
#903 = CARTESIAN_POINT ( 'NONE',  ( -0.4999999999999998890, 0.02499999999999995628, 0.2249999999999998945 ) ) ;
#904 = VECTOR ( 'NONE', #27, 1000.000000000000000 ) ;
#905 = CARTESIAN_POINT ( 'NONE',  ( 500000.0000000000582, 0.5250000000000000222, 0.2249999999566317799 ) ) ;
#906 = CARTESIAN_POINT ( 'NONE',  ( 0.4749999999999998668, 0.5500000000000000444, 0.2499999999999998890 ) ) ;
#907 = AXIS2_PLACEMENT_3D ( 'NONE', #852, #267, #943 ) ;
#908 = ORIENTED_EDGE ( 'NONE', *, *, #463, .T. ) ;
#909 = ADVANCED_FACE ( 'NONE', ( #937 ), #21, .T. ) ;
#910 = VERTEX_POINT ( 'NONE', #419 ) ;
#911 = DIRECTION ( 'NONE',  ( 0.0000000000000000000, 0.0000000000000000000, 1.000000000000000000 ) ) ;
#912 = DIRECTION ( 'NONE',  ( -1.000000000000000000, -0.0000000000000000000, -0.0000000000000000000 ) ) ;
#913 = DIRECTION ( 'NONE',  ( -1.000000000000000000, -0.0000000000000000000, -0.0000000000000000000 ) ) ;
#914 = FACE_OUTER_BOUND ( 'NONE', #300, .T. ) ;
#915 =( LENGTH_UNIT ( ) NAMED_UNIT ( * ) SI_UNIT ( .MILLI., .METRE. ) );
#916 = DIRECTION ( 'NONE',  ( -1.000000000000000000, 0.0000000000000000000, 8.673617379884035472E-17 ) ) ;
#917 = ADVANCED_FACE ( 'NONE', ( #163 ), #517, .T. ) ;
#918 = FILL_AREA_STYLE_COLOUR ( '', #508 ) ;
#919 = EDGE_CURVE ( 'NONE', #1163, #73, #1008, .T. ) ;
#920 = VECTOR ( 'NONE', #1201, 1000.000000000000000 ) ;
#921 = ORIENTED_EDGE ( 'NONE', *, *, #898, .T. ) ;
#922 = CARTESIAN_POINT ( 'NONE',  ( 0.2499999999940882844, 0.5250000000000000222, 0.2249999999999998390 ) ) ;
#923 = ORIENTED_EDGE ( 'NONE', *, *, #1018, .T. ) ;
#924 = PRODUCT_RELATED_PRODUCT_CATEGORY ( 'part', '', ( #1270 ) ) ;
#925 = DIRECTION ( 'NONE',  ( 0.0000000000000000000, 0.0000000000000000000, -1.000000000000000000 ) ) ;
#926 = ADVANCED_FACE ( 'NONE', ( #1096 ), #144, .T. ) ;
#927 = PLANE ( 'NONE',  #636 ) ;
#928 = FILL_AREA_STYLE ('',( #918 ) ) ;
#929 = ORIENTED_EDGE ( 'NONE', *, *, #1196, .T. ) ;
#930 = AXIS2_PLACEMENT_3D ( 'NONE', #1048, #562, #662 ) ;
#931 = SPHERICAL_SURFACE ( 'NONE', #209, 0.02500000000000000139 ) ;
#932 = DIRECTION ( 'NONE',  ( 0.0000000000000000000, -1.000000000000000000, 0.0000000000000000000 ) ) ;
#933 = CARTESIAN_POINT ( 'NONE',  ( 0.2499999999999998890, 0.5250000000000000222, 0.2499999999999998890 ) ) ;
#934 = ADVANCED_FACE ( 'NONE', ( #605 ), #578, .T. ) ;
#935 = FACE_OUTER_BOUND ( 'NONE', #354, .T. ) ;
#936 = DIRECTION ( 'NONE',  ( -1.000000000000000000, -0.0000000000000000000, -2.168404344971008375E-16 ) ) ;
#937 = FACE_OUTER_BOUND ( 'NONE', #115, .T. ) ;
#938 = EDGE_LOOP ( 'NONE', ( #1081, #1183, #1229, #282 ) ) ;
#939 = EDGE_CURVE ( 'NONE', #647, #145, #667, .T. ) ;
#940 = LINE ( 'NONE', #613, #566 ) ;
#941 = EDGE_LOOP ( 'NONE', ( #247, #169, #1254, #1002 ) ) ;
#942 = ORIENTED_EDGE ( 'NONE', *, *, #60, .T. ) ;
#943 = DIRECTION ( 'NONE',  ( 0.0000000000000000000, 0.0000000000000000000, 1.000000000000000000 ) ) ;
#944 = DIRECTION ( 'NONE',  ( 2.168404344971009608E-16, -0.0000000000000000000, -1.000000000000000000 ) ) ;
#945 = EDGE_CURVE ( 'NONE', #211, #417, #86, .T. ) ;
#946 = CIRCLE ( 'NONE', #369, 0.02500000000000001180 ) ;
#947 = CARTESIAN_POINT ( 'NONE',  ( -0.4749999999999998668, 0.5500000000000000444, 0.2499999999999998890 ) ) ;
#948 = PLANE ( 'NONE',  #528 ) ;
#949 = FACE_OUTER_BOUND ( 'NONE', #214, .T. ) ;
#950 = FACE_OUTER_BOUND ( 'NONE', #502, .T. ) ;
#951 = ORIENTED_EDGE ( 'NONE', *, *, #788, .F. ) ;
#952 = EDGE_CURVE ( 'NONE', #542, #1069, #432, .T. ) ;
#953 = CARTESIAN_POINT ( 'NONE',  ( 0.4749999999999999778, 0.02499999999999995628, -0.2499999999999999445 ) ) ;
#954 = PRESENTATION_STYLE_ASSIGNMENT (( #630 ) ) ;
#955 = VERTEX_POINT ( 'NONE', #424 ) ;
#956 = AXIS2_PLACEMENT_3D ( 'NONE', #332, #617, #8 ) ;
#957 = CARTESIAN_POINT ( 'NONE',  ( -0.5000000000000000000, 0.5500000000000000444, -0.2249999999999999500 ) ) ;
#958 = CARTESIAN_POINT ( 'NONE',  ( 500000.0000000000582, 0.02499999999999995628, 0.2249999999566317799 ) ) ;
#959 = ORIENTED_EDGE ( 'NONE', *, *, #328, .F. ) ;
#960 = CYLINDRICAL_SURFACE ( 'NONE', #1150, 0.02499999999999995628 ) ;
#961 = ORIENTED_EDGE ( 'NONE', *, *, #919, .F. ) ;
#962 = AXIS2_PLACEMENT_3D ( 'NONE', #1082, #594, #985 ) ;
#963 = CARTESIAN_POINT ( 'NONE',  ( -0.5000000000000000000, 0.02499999999999995628, -0.2499999999999999445 ) ) ;
#964 = CARTESIAN_POINT ( 'NONE',  ( -4.878909776184769953E-17, 0.0000000000000000000, -0.2250000000000000611 ) ) ;
#965 = CIRCLE ( 'NONE', #1228, 0.02500000000000001180 ) ;
#966 = EDGE_LOOP ( 'NONE', ( #814, #23, #581, #643 ) ) ;
#967 = CIRCLE ( 'NONE', #646, 0.02500000000000001180 ) ;
#968 = APPLICATION_CONTEXT ( 'automotive_design' ) ;
#969 = FACE_OUTER_BOUND ( 'NONE', #727, .T. ) ;
#970 = PRESENTATION_LAYER_ASSIGNMENT (  '', '', ( #573 ) ) ;
#971 = ORIENTED_EDGE ( 'NONE', *, *, #509, .T. ) ;
#972 = CARTESIAN_POINT ( 'NONE',  ( 0.4749999999999998668, 0.5500000000000000444, 0.2499999999999998890 ) ) ;
#973 = VERTEX_POINT ( 'NONE', #1011 ) ;
#974 = MANIFOLD_SOLID_BREP ( 'Mirror2', #510 ) ;
#975 = DIRECTION ( 'NONE',  ( -1.000000000000000000, 0.0000000000000000000, 0.0000000000000000000 ) ) ;
#976 = AXIS2_PLACEMENT_3D ( 'NONE', #34, #516, #719 ) ;
#977 = CARTESIAN_POINT ( 'NONE',  ( 0.4749999999999999778, 0.5500000000000000444, -0.2249999999999999500 ) ) ;
#978 = FACE_OUTER_BOUND ( 'NONE', #522, .T. ) ;
#979 = DIRECTION ( 'NONE',  ( 1.000000000000000000, 0.0000000000000000000, -2.168404344971008375E-16 ) ) ;
#980 = FACE_OUTER_BOUND ( 'NONE', #800, .T. ) ;
#981 = EDGE_LOOP ( 'NONE', ( #402, #971, #654, #746 ) ) ;
#982 = DIRECTION ( 'NONE',  ( 0.0000000000000000000, 0.0000000000000000000, 1.000000000000000000 ) ) ;
#983 = EDGE_CURVE ( 'NONE', #850, #612, #564, .T. ) ;
#984 = ORIENTED_EDGE ( 'NONE', *, *, #265, .F. ) ;
#985 = DIRECTION ( 'NONE',  ( 0.0000000000000000000, -0.0000000000000000000, 1.000000000000000000 ) ) ;
#986 = ORIENTED_EDGE ( 'NONE', *, *, #396, .F. ) ;
#987 = AXIS2_PLACEMENT_3D ( 'NONE', #435, #212, #996 ) ;
#988 = DIRECTION ( 'NONE',  ( 0.0000000000000000000, 0.0000000000000000000, -1.000000000000000000 ) ) ;
#989 = ORIENTED_EDGE ( 'NONE', *, *, #983, .T. ) ;
#990 = CARTESIAN_POINT ( 'NONE',  ( 0.4749999999999999778, 0.5250000000000000222, -0.2499999999999999445 ) ) ;
#991 = EDGE_CURVE ( 'NONE', #371, #471, #41, .T. ) ;
#992 = AXIS2_PLACEMENT_3D ( 'NONE', #399, #796, #688 ) ;
#993 = ORIENTED_EDGE ( 'NONE', *, *, #474, .T. ) ;
#994 = LINE ( 'NONE', #1212, #1098 ) ;
#995 = CARTESIAN_POINT ( 'NONE',  ( 0.5000000000000000000, 0.5500000000000000444, -0.2249999999999999500 ) ) ;
#996 = DIRECTION ( 'NONE',  ( 0.0000000000000000000, 0.0000000000000000000, 1.000000000000000000 ) ) ;
#997 = ORIENTED_EDGE ( 'NONE', *, *, #999, .T. ) ;
#998 = ORIENTED_EDGE ( 'NONE', *, *, #60, .F. ) ;
#999 = EDGE_CURVE ( 'NONE', #864, #211, #19, .T. ) ;
#1000 = DIRECTION ( 'NONE',  ( -2.168404344971009608E-16, 0.0000000000000000000, -1.000000000000000000 ) ) ;
#1001 = CARTESIAN_POINT ( 'NONE',  ( 0.2499999999999999445, 0.5250000000000000222, -0.2500000000000000000 ) ) ;
#1002 = ORIENTED_EDGE ( 'NONE', *, *, #1139, .F. ) ;
#1003 = DIRECTION ( 'NONE',  ( 0.0000000000000000000, 1.000000000000000000, 0.0000000000000000000 ) ) ;
#1004 = CARTESIAN_POINT ( 'NONE',  ( 0.2499999999999999445, 0.5500000000000000444, -0.2500000000000000000 ) ) ;
#1005 = LINE ( 'NONE', #63, #681 ) ;
#1006 = AXIS2_PLACEMENT_3D ( 'NONE', #867, #1259, #480 ) ;
#1007 = DIRECTION ( 'NONE',  ( 0.0000000000000000000, 0.0000000000000000000, -1.000000000000000000 ) ) ;
#1008 = LINE ( 'NONE', #807, #920 ) ;
#1009 = DIRECTION ( 'NONE',  ( 1.000000000000000000, 0.0000000000000000000, -8.673617379884036705E-17 ) ) ;
#1010 = ORIENTED_EDGE ( 'NONE', *, *, #1035, .F. ) ;
#1011 = CARTESIAN_POINT ( 'NONE',  ( -0.2499999999999998890, 0.02499999999999995628, 0.2416666666666665853 ) ) ;
#1012 = ORIENTED_EDGE ( 'NONE', *, *, #591, .T. ) ;
#1013 = DIRECTION ( 'NONE',  ( -1.000000000000000000, -0.0000000000000000000, 8.673617379884035472E-17 ) ) ;
#1014 = CARTESIAN_POINT ( 'NONE',  ( 0.2499999999940882844, 0.008333333333333333218, 0.2249999999024216990 ) ) ;
#1015 = ORIENTED_EDGE ( 'NONE', *, *, #609, .T. ) ;
#1016 = CARTESIAN_POINT ( 'NONE',  ( 0.4999999999999998890, 0.5500000000000000444, 0.2499999999999998890 ) ) ;
#1017 = PLANE ( 'NONE',  #202 ) ;
#1018 = EDGE_CURVE ( 'NONE', #152, #868, #1154, .T. ) ;
#1019 = AXIS2_PLACEMENT_3D ( 'NONE', #803, #122, #525 ) ;
#1020 = ORIENTED_EDGE ( 'NONE', *, *, #38, .T. ) ;
#1021 = DIRECTION ( 'NONE',  ( 2.168404344971009608E-16, -0.0000000000000000000, -1.000000000000000000 ) ) ;
#1022 = CARTESIAN_POINT ( 'NONE',  ( -0.5000000000000000000, 0.02499999999999995628, -0.2249999999999999500 ) ) ;
#1023 = LINE ( 'NONE', #102, #586 ) ;
#1024 = ADVANCED_FACE ( 'NONE', ( #53 ), #451, .T. ) ;
#1025 = DIRECTION ( 'NONE',  ( -0.0000000000000000000, -1.000000000000000000, -0.0000000000000000000 ) ) ;
#1026 = ORIENTED_EDGE ( 'NONE', *, *, #200, .F. ) ;
#1027 = ADVANCED_FACE ( 'NONE', ( #978 ), #481, .T. ) ;
#1028 = CIRCLE ( 'NONE', #1232, 0.01666666666666667337 ) ;
#1029 = CARTESIAN_POINT ( 'NONE',  ( -0.2499999999999998890, 0.008333333333333333218, -0.2250000000000000056 ) ) ;
#1030 = CYLINDRICAL_SURFACE ( 'NONE', #320, 0.01666666666666667337 ) ;
#1031 = UNCERTAINTY_MEASURE_WITH_UNIT (LENGTH_MEASURE( 1.000000000000000082E-05 ), #583, 'distance_accuracy_value', 'NONE');
#1032 = FACE_OUTER_BOUND ( 'NONE', #763, .T. ) ;
#1033 = ORIENTED_EDGE ( 'NONE', *, *, #871, .F. ) ;
#1034 = SURFACE_STYLE_USAGE ( .BOTH. , #547 ) ;
#1035 = EDGE_CURVE ( 'NONE', #1163, #955, #1055, .T. ) ;
#1036 = ADVANCED_FACE ( 'NONE', ( #176 ), #1128, .T. ) ;
#1037 = AXIS2_PLACEMENT_3D ( 'NONE', #651, #268, #459 ) ;
#1038 = ORIENTED_EDGE ( 'NONE', *, *, #404, .T. ) ;
#1039 =( NAMED_UNIT ( * ) SI_UNIT ( $, .STERADIAN. ) SOLID_ANGLE_UNIT ( ) );
#1040 = VECTOR ( 'NONE', #731, 1000.000000000000000 ) ;
#1041 = DIRECTION ( 'NONE',  ( 0.0000000000000000000, -0.0000000000000000000, -1.000000000000000000 ) ) ;
#1042 = VECTOR ( 'NONE', #1186, 1000.000000000000000 ) ;
#1043 = ORIENTED_EDGE ( 'NONE', *, *, #116, .T. ) ;
#1044 = AXIS2_PLACEMENT_3D ( 'NONE', #339, #1009, #530 ) ;
#1045 = SURFACE_STYLE_FILL_AREA ( #928 ) ;
#1046 = ORIENTED_EDGE ( 'NONE', *, *, #697, .T. ) ;
#1047 = ORIENTED_EDGE ( 'NONE', *, *, #1064, .T. ) ;
#1048 = CARTESIAN_POINT ( 'NONE',  ( 0.0000000000000000000, 0.5250000000000000222, 0.2249999999999998945 ) ) ;
#1049 = CARTESIAN_POINT ( 'NONE',  ( -0.2499999999999998890, 0.5250000000000000222, -0.2250000000000000056 ) ) ;
#1050 = EDGE_CURVE ( 'NONE', #857, #171, #518, .T. ) ;
#1051 = VECTOR ( 'NONE', #106, 1000.000000000000000 ) ;
#1052 = PRODUCT_DEFINITION ( 'UNKNOWN', '', #423, #1233 ) ;
#1053 = CARTESIAN_POINT ( 'NONE',  ( 500000.0000000000582, 0.5416666666666667407, -0.2250000000433681202 ) ) ;
#1054 = CARTESIAN_POINT ( 'NONE',  ( -0.4749999999999999778, 0.5250000000000000222, -0.2249999999999999500 ) ) ;
#1055 = LINE ( 'NONE', #130, #1040 ) ;
#1056 = EDGE_CURVE ( 'NONE', #520, #769, #798, .T. ) ;
#1057 = CARTESIAN_POINT ( 'NONE',  ( -0.2499999999999998890, 0.02499999999999995628, -0.2250000000000000056 ) ) ;
#1058 = ORIENTED_EDGE ( 'NONE', *, *, #571, .F. ) ;
#1059 = VECTOR ( 'NONE', #35, 1000.000000000000000 ) ;
#1060 = ORIENTED_EDGE ( 'NONE', *, *, #939, .T. ) ;
#1061 = DIRECTION ( 'NONE',  ( -2.168404344971007142E-16, 0.0000000000000000000, -1.000000000000000000 ) ) ;
#1062 = ORIENTED_EDGE ( 'NONE', *, *, #1050, .T. ) ;
#1063 = DIRECTION ( 'NONE',  ( 0.0000000000000000000, 0.0000000000000000000, 1.000000000000000000 ) ) ;
#1064 = EDGE_CURVE ( 'NONE', #747, #910, #258, .T. ) ;
#1065 = CARTESIAN_POINT ( 'NONE',  ( -0.4749999999999999778, 0.5250000000000000222, -0.2249999999999999500 ) ) ;
#1066 = CARTESIAN_POINT ( 'NONE',  ( -0.2499999999999998890, 0.5416666666666667407, -0.2250000000000000056 ) ) ;
#1067 = FACE_OUTER_BOUND ( 'NONE', #1211, .T. ) ;
#1068 = CIRCLE ( 'NONE', #406, 0.02500000000000001180 ) ;
#1069 = VERTEX_POINT ( 'NONE', #933 ) ;
#1070 = VERTEX_POINT ( 'NONE', #1022 ) ;
#1071 = DIRECTION ( 'NONE',  ( 1.084202172485504681E-16, -0.0000000000000000000, -1.000000000000000000 ) ) ;
#1072 = DIRECTION ( 'NONE',  ( -1.000000000000000000, -0.0000000000000000000, -0.0000000000000000000 ) ) ;
#1073 = PRESENTATION_LAYER_ASSIGNMENT (  '', '', ( #653 ) ) ;
#1074 = ORIENTED_EDGE ( 'NONE', *, *, #652, .T. ) ;
#1075 = DIRECTION ( 'NONE',  ( 1.000000000000000000, 0.0000000000000000000, 1.084202172485504681E-16 ) ) ;
#1076 = LINE ( 'NONE', #690, #1152 ) ;
#1077 = EDGE_CURVE ( 'NONE', #668, #1104, #1234, .T. ) ;
#1078 = CARTESIAN_POINT ( 'NONE',  ( 0.2499999999999999445, 0.0000000000000000000, -0.2500000000000000000 ) ) ;
#1079 = AXIS2_PLACEMENT_3D ( 'NONE', #1102, #913, #326 ) ;
#1080 = CARTESIAN_POINT ( 'NONE',  ( 0.0000000000000000000, 0.0000000000000000000, 0.0000000000000000000 ) ) ;
#1081 = ORIENTED_EDGE ( 'NONE', *, *, #945, .F. ) ;
#1082 = CARTESIAN_POINT ( 'NONE',  ( 500000.0000000000582, 0.008333333333333333218, 0.2249999999566317799 ) ) ;
#1083 = CLOSED_SHELL ( 'NONE', ( #710, #1108, #1223, #40, #513, #849, #655, #1100, #1024, #132, #235, #729, #269, #361, #46, #1140, #334, #370 ) ) ;
#1084 = CARTESIAN_POINT ( 'NONE',  ( -0.2499999999999998890, 0.02499999999999995628, 0.2249999999999998945 ) ) ;
#1085 = SURFACE_STYLE_FILL_AREA ( #256 ) ;
#1086 = AXIS2_PLACEMENT_3D ( 'NONE', #589, #682, #1166 ) ;
#1087 = ORIENTED_EDGE ( 'NONE', *, *, #287, .T. ) ;
#1088 = DIRECTION ( 'NONE',  ( 0.0000000000000000000, 1.000000000000000000, 0.0000000000000000000 ) ) ;
#1089 = VERTEX_POINT ( 'NONE', #137 ) ;
#1090 = CARTESIAN_POINT ( 'NONE',  ( 0.2499999999940882844, 0.008333333333333296788, 0.2249999999999998390 ) ) ;
#1091 = VERTEX_POINT ( 'NONE', #134 ) ;
#1092 = FACE_OUTER_BOUND ( 'NONE', #293, .T. ) ;
#1093 = AXIS2_PLACEMENT_3D ( 'NONE', #1248, #758, #862 ) ;
#1094 = CARTESIAN_POINT ( 'NONE',  ( -0.4749999999999999223, 0.0000000000000000000, 1.029992063861229459E-16 ) ) ;
#1095 = DIRECTION ( 'NONE',  ( 1.000000000000000000, 0.0000000000000000000, 1.084202172485504681E-16 ) ) ;
#1096 = FACE_OUTER_BOUND ( 'NONE', #1176, .T. ) ;
#1097 = ORIENTED_EDGE ( 'NONE', *, *, #6, .T. ) ;
#1098 = VECTOR ( 'NONE', #828, 1000.000000000000000 ) ;
#1099 = ORIENTED_EDGE ( 'NONE', *, *, #265, .T. ) ;
#1100 = ADVANCED_FACE ( 'NONE', ( #577 ), #744, .T. ) ;
#1101 = CARTESIAN_POINT ( 'NONE',  ( -0.4749999999999998668, 0.5500000000000000444, 0.2249999999999998945 ) ) ;
#1102 = CARTESIAN_POINT ( 'NONE',  ( -0.4749999999999999778, 0.02499999999999995628, -0.2249999999999999500 ) ) ;
#1103 = VECTOR ( 'NONE', #1021, 1000.000000000000000 ) ;
#1104 = VERTEX_POINT ( 'NONE', #345 ) ;
#1105 = AXIS2_PLACEMENT_3D ( 'NONE', #922, #1198, #1007 ) ;
#1106 = DIRECTION ( 'NONE',  ( 1.084202172485504681E-16, 0.0000000000000000000, -1.000000000000000000 ) ) ;
#1107 = CARTESIAN_POINT ( 'NONE',  ( -0.2499999999999999445, 0.5500000000000000444, -0.2500000000000000000 ) ) ;
#1108 = ADVANCED_FACE ( 'NONE', ( #143 ), #734, .F. ) ;
#1109 = LINE ( 'NONE', #957, #783 ) ;
#1110 = LINE ( 'NONE', #83, #503 ) ;
#1111 = CARTESIAN_POINT ( 'NONE',  ( 500000.0000000000582, 0.5250000000000000222, 0.2416666666232984428 ) ) ;
#1112 = DIRECTION ( 'NONE',  ( 0.0000000000000000000, 1.000000000000000000, 0.0000000000000000000 ) ) ;
#1113 = CARTESIAN_POINT ( 'NONE',  ( -0.4999999999999998890, 0.5500000000000000444, 0.2499999999999998890 ) ) ;
#1114 = COLOUR_RGB ( '',0.7921568627450980005, 0.8196078431372548767, 0.9333333333333333481 ) ;
#1115 = VERTEX_POINT ( 'NONE', #446 ) ;
#1116 = EDGE_LOOP ( 'NONE', ( #592, #736, #124 ) ) ;
#1117 = VECTOR ( 'NONE', #445, 1000.000000000000000 ) ;
#1118 = EDGE_LOOP ( 'NONE', ( #615, #1276, #942, #1257 ) ) ;
#1119 = CARTESIAN_POINT ( 'NONE',  ( 0.5000000000000000000, 0.02499999999999995628, -0.2499999999999999445 ) ) ;
#1120 = CARTESIAN_POINT ( 'NONE',  ( -0.4749999999999998668, 0.5250000000000000222, 0.2249999999999998945 ) ) ;
#1121 = EDGE_CURVE ( 'NONE', #164, #337, #965, .T. ) ;
#1122 = ORIENTED_EDGE ( 'NONE', *, *, #328, .T. ) ;
#1123 = ADVANCED_FACE ( 'NONE', ( #321 ), #1191, .T. ) ;
#1124 = AXIS2_PLACEMENT_3D ( 'NONE', #712, #1003, #222 ) ;
#1125 = ORIENTED_EDGE ( 'NONE', *, *, #811, .F. ) ;
#1126 = DIRECTION ( 'NONE',  ( 0.0000000000000000000, 1.000000000000000000, -0.0000000000000000000 ) ) ;
#1127 = DIRECTION ( 'NONE',  ( 0.0000000000000000000, 0.0000000000000000000, -1.000000000000000000 ) ) ;
#1128 = PLANE ( 'NONE',  #587 ) ;
#1129 = AXIS2_PLACEMENT_3D ( 'NONE', #672, #286, #1155 ) ;
#1130 = VECTOR ( 'NONE', #414, 1000.000000000000000 ) ;
#1131 = ORIENTED_EDGE ( 'NONE', *, *, #246, .F. ) ;
#1132 = FILL_AREA_STYLE_COLOUR ( '', #213 ) ;
#1133 = VECTOR ( 'NONE', #1013, 1000.000000000000000 ) ;
#1134 = CARTESIAN_POINT ( 'NONE',  ( 0.4999999999999998890, 0.5250000000000000222, 0.2249999999999998945 ) ) ;
#1135 = ORIENTED_EDGE ( 'NONE', *, *, #1249, .F. ) ;
#1136 = PLANE ( 'NONE',  #28 ) ;
#1137 = EDGE_CURVE ( 'NONE', #1091, #471, #810, .T. ) ;
#1138 = CARTESIAN_POINT ( 'NONE',  ( -0.5000000000000000000, 0.5500000000000000444, -0.2249999999999999500 ) ) ;
#1139 = EDGE_CURVE ( 'NONE', #216, #371, #550, .T. ) ;
#1140 = ADVANCED_FACE ( 'NONE', ( #935 ), #191, .T. ) ;
#1141 = CARTESIAN_POINT ( 'NONE',  ( 0.4749999999999998668, 0.5250000000000000222, 0.2249999999999998945 ) ) ;
#1142 = ORIENTED_EDGE ( 'NONE', *, *, #219, .T. ) ;
#1143 = STYLED_ITEM ( 'NONE', ( #954 ), #385 ) ;
#1144 = ORIENTED_EDGE ( 'NONE', *, *, #489, .F. ) ;
#1145 = DIRECTION ( 'NONE',  ( 0.0000000000000000000, -1.000000000000000000, 0.0000000000000000000 ) ) ;
#1146 = DIRECTION ( 'NONE',  ( 0.0000000000000000000, 0.0000000000000000000, 1.000000000000000000 ) ) ;
#1147 = ORIENTED_EDGE ( 'NONE', *, *, #854, .T. ) ;
#1148 = ORIENTED_EDGE ( 'NONE', *, *, #609, .F. ) ;
#1149 = CIRCLE ( 'NONE', #229, 0.02500000000000001180 ) ;
#1150 = AXIS2_PLACEMENT_3D ( 'NONE', #806, #1000, #802 ) ;
#1151 = VERTEX_POINT ( 'NONE', #263 ) ;
#1152 = VECTOR ( 'NONE', #1261, 1000.000000000000000 ) ;
#1153 = CARTESIAN_POINT ( 'NONE',  ( 0.2499999999940882844, 0.5250000000000000222, -0.2250000000000000611 ) ) ;
#1154 = CIRCLE ( 'NONE', #240, 0.02500000000000001180 ) ;
#1155 = DIRECTION ( 'NONE',  ( 0.0000000000000000000, 0.0000000000000000000, -1.000000000000000000 ) ) ;
#1156 = EDGE_CURVE ( 'NONE', #171, #747, #1005, .T. ) ;
#1157 = VECTOR ( 'NONE', #1250, 1000.000000000000000 ) ;
#1158 = CARTESIAN_POINT ( 'NONE',  ( -0.4999999999999998890, 0.5250000000000000222, 0.2499999999999998890 ) ) ;
#1159 = ORIENTED_EDGE ( 'NONE', *, *, #1056, .T. ) ;
#1160 = CYLINDRICAL_SURFACE ( 'NONE', #1253, 0.02500000000000001180 ) ;
#1161 = ORIENTED_EDGE ( 'NONE', *, *, #759, .F. ) ;
#1162 = MECHANICAL_DESIGN_GEOMETRIC_PRESENTATION_REPRESENTATION (  '', ( #653 ), #790 ) ;
#1163 = VERTEX_POINT ( 'NONE', #66 ) ;
#1164 =( NAMED_UNIT ( * ) PLANE_ANGLE_UNIT ( ) SI_UNIT ( $, .RADIAN. ) );
#1165 = ORIENTED_EDGE ( 'NONE', *, *, #404, .F. ) ;
#1166 = DIRECTION ( 'NONE',  ( 0.0000000000000000000, 0.0000000000000000000, 1.000000000000000000 ) ) ;
#1167 = EDGE_LOOP ( 'NONE', ( #444, #1087, #831, #951 ) ) ;
#1168 = CARTESIAN_POINT ( 'NONE',  ( -0.2499999999999998890, 0.008333333333333296788, 0.2249999999999998945 ) ) ;
#1169 = MECHANICAL_DESIGN_GEOMETRIC_PRESENTATION_REPRESENTATION (  '', ( #1143 ), #359 ) ;
#1170 = VECTOR ( 'NONE', #188, 1000.000000000000000 ) ;
#1171 = CARTESIAN_POINT ( 'NONE',  ( 0.2499999999999998890, 0.5500000000000000444, 0.2249999999999998945 ) ) ;
#1172 = CARTESIAN_POINT ( 'NONE',  ( -0.2499999999999998890, 0.008333333333333333218, 0.2249999999999998945 ) ) ;
#1173 = CARTESIAN_POINT ( 'NONE',  ( 0.4999999999999998890, 0.02499999999999995628, 0.2249999999999998945 ) ) ;
#1174 = VECTOR ( 'NONE', #17, 1000.000000000000000 ) ;
#1175 = SURFACE_STYLE_FILL_AREA ( #32 ) ;
#1176 = EDGE_LOOP ( 'NONE', ( #739, #307, #390 ) ) ;
#1177 = VERTEX_POINT ( 'NONE', #154 ) ;
#1178 = DIRECTION ( 'NONE',  ( 1.000000000000000000, -0.0000000000000000000, -2.168404344971008375E-16 ) ) ;
#1179 = AXIS2_PLACEMENT_3D ( 'NONE', #718, #824, #232 ) ;
#1180 = DIRECTION ( 'NONE',  ( -0.0000000000000000000, -0.0000000000000000000, 1.000000000000000000 ) ) ;
#1181 = PLANE ( 'NONE',  #751 ) ;
#1182 = ORIENTED_EDGE ( 'NONE', *, *, #878, .T. ) ;
#1183 = ORIENTED_EDGE ( 'NONE', *, *, #999, .F. ) ;
#1184 = CIRCLE ( 'NONE', #387, 0.02500000000000001180 ) ;
#1185 = CARTESIAN_POINT ( 'NONE',  ( 0.2499999999999999445, 0.02499999999999995628, -0.2250000000000000056 ) ) ;
#1186 = DIRECTION ( 'NONE',  ( 0.0000000000000000000, 0.0000000000000000000, -1.000000000000000000 ) ) ;
#1187 = VECTOR ( 'NONE', #1178, 1000.000000000000000 ) ;
#1188 = EDGE_CURVE ( 'NONE', #868, #520, #3, .T. ) ;
#1189 = ORIENTED_EDGE ( 'NONE', *, *, #123, .T. ) ;
#1190 = DIRECTION ( 'NONE',  ( 1.000000000000000000, 0.0000000000000000000, 1.084202172485504681E-16 ) ) ;
#1191 = CYLINDRICAL_SURFACE ( 'NONE', #490, 0.01666666666666664562 ) ;
#1192 = CARTESIAN_POINT ( 'NONE',  ( 4.878909776184769953E-17, 0.5250000000000000222, -0.2250000000000000611 ) ) ;
#1193 = LINE ( 'NONE', #1273, #829 ) ;
#1194 = ORIENTED_EDGE ( 'NONE', *, *, #1264, .F. ) ;
#1195 = DIRECTION ( 'NONE',  ( -0.0000000000000000000, 1.000000000000000000, -0.0000000000000000000 ) ) ;
#1196 = EDGE_CURVE ( 'NONE', #145, #171, #666, .T. ) ;
#1197 = CYLINDRICAL_SURFACE ( 'NONE', #1179, 0.02500000000000001180 ) ;
#1198 = DIRECTION ( 'NONE',  ( 1.000000000000000000, 0.0000000000000000000, 1.084202172485504681E-16 ) ) ;
#1199 = CARTESIAN_POINT ( 'NONE',  ( 0.4749999999999999778, 0.5500000000000000444, -0.2499999999999999445 ) ) ;
#1200 = PLANE ( 'NONE',  #515 ) ;
#1201 = DIRECTION ( 'NONE',  ( -1.000000000000000000, -0.0000000000000000000, 8.673617379884035472E-17 ) ) ;
#1202 = EDGE_CURVE ( 'NONE', #901, #647, #462, .T. ) ;
#1203 = ADVANCED_FACE ( 'NONE', ( #1263 ), #1238, .F. ) ;
#1204 = AXIS2_PLACEMENT_3D ( 'NONE', #576, #85, #186 ) ;
#1205 = DIRECTION ( 'NONE',  ( 2.168404344971009608E-16, -0.0000000000000000000, 1.000000000000000000 ) ) ;
#1206 = CARTESIAN_POINT ( 'NONE',  ( 0.2499999999999998890, 0.5500000000000000444, 0.2249999999999998945 ) ) ;
#1207 = FILL_AREA_STYLE_COLOUR ( '', #1114 ) ;
#1208 = CYLINDRICAL_SURFACE ( 'NONE', #1093, 0.01666666666666664562 ) ;
#1209 = CIRCLE ( 'NONE', #956, 0.02500000000000001180 ) ;
#1210 = ORIENTED_EDGE ( 'NONE', *, *, #1137, .T. ) ;
#1211 = EDGE_LOOP ( 'NONE', ( #1144, #1148, #61, #323, #1161, #702, #1033, #1194 ) ) ;
#1212 = CARTESIAN_POINT ( 'NONE',  ( -0.5000000000000000000, 0.5250000000000000222, -0.2499999999999999445 ) ) ;
#1213 = PLANE ( 'NONE',  #660 ) ;
#1214 = EDGE_CURVE ( 'NONE', #1115, #805, #899, .T. ) ;
#1215 = ADVANCED_FACE ( 'NONE', ( #1067 ), #948, .F. ) ;
#1216 = AXIS2_PLACEMENT_3D ( 'NONE', #454, #648, #1127 ) ;
#1217 = ORIENTED_EDGE ( 'NONE', *, *, #600, .F. ) ;
#1218 = DIRECTION ( 'NONE',  ( 0.0000000000000000000, 0.0000000000000000000, 1.000000000000000000 ) ) ;
#1219 = LINE ( 'NONE', #1078, #693 ) ;
#1220 = ADVANCED_FACE ( 'NONE', ( #637 ), #1208, .T. ) ;
#1221 = CARTESIAN_POINT ( 'NONE',  ( -0.4749999999999998668, 0.5500000000000000444, 0.2249999999999998945 ) ) ;
#1222 = EDGE_CURVE ( 'NONE', #1177, #910, #602, .T. ) ;
#1223 = ADVANCED_FACE ( 'NONE', ( #949 ), #386, .F. ) ;
#1224 = CARTESIAN_POINT ( 'NONE',  ( 0.5000000000000000000, 0.02499999999999995628, -0.2499999999999999445 ) ) ;
#1225 = EDGE_LOOP ( 'NONE', ( #986, #45, #465, #1125 ) ) ;
#1226 = DIRECTION ( 'NONE',  ( 0.0000000000000000000, 0.0000000000000000000, 1.000000000000000000 ) ) ;
#1227 = EDGE_CURVE ( 'NONE', #1089, #973, #492, .T. ) ;
#1228 = AXIS2_PLACEMENT_3D ( 'NONE', #72, #548, #162 ) ;
#1229 = ORIENTED_EDGE ( 'NONE', *, *, #878, .F. ) ;
#1230 = DIRECTION ( 'NONE',  ( 1.000000000000000000, -0.0000000000000000000, -1.084202172485504681E-16 ) ) ;
#1231 = CARTESIAN_POINT ( 'NONE',  ( -0.2499999999999998890, 0.02499999999999995975, -0.2416666666666666408 ) ) ;
#1232 = AXIS2_PLACEMENT_3D ( 'NONE', #50, #262, #351 ) ;
#1233 = PRODUCT_DEFINITION_CONTEXT ( 'detailed design', #881, 'design' ) ;
#1234 = LINE ( 'NONE', #738, #538 ) ;
#1235 = FACE_OUTER_BOUND ( 'NONE', #590, .T. ) ;
#1236 = LINE ( 'NONE', #118, #114 ) ;
#1237 = ORIENTED_EDGE ( 'NONE', *, *, #991, .T. ) ;
#1238 = PLANE ( 'NONE',  #1037 ) ;
#1239 = VERTEX_POINT ( 'NONE', #1168 ) ;
#1240 = PLANE ( 'NONE',  #477 ) ;
#1241 = ORIENTED_EDGE ( 'NONE', *, *, #6, .F. ) ;
#1242 = DIRECTION ( 'NONE',  ( 0.0000000000000000000, 0.0000000000000000000, 1.000000000000000000 ) ) ;
#1243 = LINE ( 'NONE', #830, #1103 ) ;
#1244 = EDGE_LOOP ( 'NONE', ( #879, #254, #1020, #264 ) ) ;
#1245 = LINE ( 'NONE', #1094, #425 ) ;
#1246 = DIRECTION ( 'NONE',  ( -2.168404344971009608E-16, 0.0000000000000000000, -1.000000000000000000 ) ) ;
#1247 = ORIENTED_EDGE ( 'NONE', *, *, #107, .F. ) ;
#1248 = CARTESIAN_POINT ( 'NONE',  ( 500000.0000000000582, 0.02499999999999995628, -0.2250000000433681202 ) ) ;
#1249 = EDGE_CURVE ( 'NONE', #569, #356, #276, .T. ) ;
#1250 = DIRECTION ( 'NONE',  ( -0.0000000000000000000, 1.000000000000000000, -0.0000000000000000000 ) ) ;
#1251 = DIRECTION ( 'NONE',  ( 0.0000000000000000000, 0.0000000000000000000, 1.000000000000000000 ) ) ;
#1252 = CIRCLE ( 'NONE', #1006, 0.02500000000000001180 ) ;
#1253 = AXIS2_PLACEMENT_3D ( 'NONE', #619, #1205, #29 ) ;
#1254 = ORIENTED_EDGE ( 'NONE', *, *, #991, .F. ) ;
#1255 = DIRECTION ( 'NONE',  ( 0.0000000000000000000, -0.0000000000000000000, -1.000000000000000000 ) ) ;
#1256 = CARTESIAN_POINT ( 'NONE',  ( -0.2499999999999998890, 0.5250000000000000222, 0.2416666666666665575 ) ) ;
#1257 = ORIENTED_EDGE ( 'NONE', *, *, #353, .F. ) ;
#1258 = CARTESIAN_POINT ( 'NONE',  ( 0.2499999999999999445, 0.0000000000000000000, -0.2250000000000000056 ) ) ;
#1259 = DIRECTION ( 'NONE',  ( -0.0000000000000000000, 1.000000000000000000, -0.0000000000000000000 ) ) ;
#1260 = AXIS2_PLACEMENT_3D ( 'NONE', #1271, #975, #982 ) ;
#1261 = DIRECTION ( 'NONE',  ( -1.084202172485504681E-16, -0.0000000000000000000, -1.000000000000000000 ) ) ;
#1262 = DIRECTION ( 'NONE',  ( 0.0000000000000000000, 1.000000000000000000, 0.0000000000000000000 ) ) ;
#1263 = FACE_OUTER_BOUND ( 'NONE', #90, .T. ) ;
#1264 = EDGE_CURVE ( 'NONE', #544, #541, #760, .T. ) ;
#1265 = LINE ( 'NONE', #431, #1174 ) ;
#1266 = PRESENTATION_STYLE_ASSIGNMENT (( #234 ) ) ;
#1267 = ORIENTED_EDGE ( 'NONE', *, *, #945, .T. ) ;
#1268 = EDGE_LOOP ( 'NONE', ( #989, #1122, #457, #1189 ) ) ;
#1269 = CARTESIAN_POINT ( 'NONE',  ( -0.2499999999999999445, 0.5250000000000000222, -0.2500000000000000000 ) ) ;
#1270 = PRODUCT ( 'GQM1555C2D9R5BB01J', 'GQM1555C2D9R5BB01J', '', ( #190 ) ) ;
#1271 = CARTESIAN_POINT ( 'NONE',  ( 0.4749999999999999778, 0.02499999999999995628, -0.2249999999999999500 ) ) ;
#1272 = ORIENTED_EDGE ( 'NONE', *, *, #246, .T. ) ;
#1273 = CARTESIAN_POINT ( 'NONE',  ( 500000.0000000000582, 0.5250000000000000222, 0.2416666666232984428 ) ) ;
#1274 = EDGE_CURVE ( 'NONE', #148, #779, #1252, .T. ) ;
#1275 = CARTESIAN_POINT ( 'NONE',  ( 0.2499999999999998890, 0.02499999999999995628, 0.2499999999999998890 ) ) ;
#1276 = ORIENTED_EDGE ( 'NONE', *, *, #1188, .F. ) ;
#1277 = STYLED_ITEM ( 'NONE', ( #379 ), #603 ) ;
#1278 = LINE ( 'NONE', #501, #826 ) ;
#1279 = CARTESIAN_POINT ( 'NONE',  ( -0.2499999999999999445, 0.5500000000000000444, -0.2250000000000000056 ) ) ;
#1280 = CARTESIAN_POINT ( 'NONE',  ( -0.4749999999999998668, 0.02499999999999995628, 0.2499999999999998890 ) ) ;
ENDSEC;
END-ISO-10303-21;
