ISO-10303-21;
HEADER;
FILE_DESCRIPTION (( 'STEP AP214' ),
    '1' );
FILE_NAME ('User Library-CR1608-0603.STEP',
    '2020-09-09T22:52:50',
    ( '' ),
    ( '' ),
    'SwSTEP 2.0',
    'SolidWorks 2020',
    '' );
FILE_SCHEMA (( 'AUTOMOTIVE_DESIGN' ));
ENDSEC;

DATA;
#1 = DIRECTION ( 'NONE',  ( -1.000000000000000000, 0.0000000000000000000, 2.891205793294678326E-16 ) ) ;
#2 = VECTOR ( 'NONE', #1167, 1000.000000000000000 ) ;
#3 = DIRECTION ( 'NONE',  ( 3.918314502740957448E-32, 1.000000000000000000, 1.355252715606880296E-16 ) ) ;
#4 = VECTOR ( 'NONE', #1181, 1000.000000000000000 ) ;
#5 = PLANE ( 'NONE',  #1172 ) ;
#6 = ORIENTED_EDGE ( 'NONE', *, *, #978, .T. ) ;
#7 = VECTOR ( 'NONE', #84, 1000.000000000000000 ) ;
#8 = VERTEX_POINT ( 'NONE', #327 ) ;
#9 = CARTESIAN_POINT ( 'NONE',  ( 0.8000000000000000444, 0.4500000000000000111, 0.3999999999999998002 ) ) ;
#10 =( NAMED_UNIT ( * ) PLANE_ANGLE_UNIT ( ) SI_UNIT ( $, .RADIAN. ) );
#11 = ORIENTED_EDGE ( 'NONE', *, *, #565, .T. ) ;
#12 = EDGE_CURVE ( 'NONE', #87, #1152, #506, .T. ) ;
#13 = DIRECTION ( 'NONE',  ( -1.000000000000000000, 0.0000000000000000000, 1.445602896647339163E-16 ) ) ;
#14 = LINE ( 'NONE', #853, #678 ) ;
#15 = LINE ( 'NONE', #714, #1130 ) ;
#16 = EDGE_LOOP ( 'NONE', ( #237, #501, #788, #328 ) ) ;
#17 = CARTESIAN_POINT ( 'NONE',  ( 0.5000000000000000000, -9.825582188149879003E-17, 0.3999999999999998002 ) ) ;
#18 = DIRECTION ( 'NONE',  ( -1.000000000000000000, -2.409338161078898687E-16, 1.535953077687797784E-16 ) ) ;
#19 = EDGE_CURVE ( 'NONE', #469, #408, #133, .T. ) ;
#20 = LINE ( 'NONE', #39, #435 ) ;
#21 = COLOUR_RGB ( '',0.8980392156862745390, 0.9176470588235293713, 0.9294117647058823817 ) ;
#22 = ORIENTED_EDGE ( 'NONE', *, *, #855, .F. ) ;
#23 = PRESENTATION_LAYER_ASSIGNMENT (  '', '', ( #946 ) ) ;
#24 = VECTOR ( 'NONE', #645, 1000.000000000000000 ) ;
#25 = ORIENTED_EDGE ( 'NONE', *, *, #275, .F. ) ;
#26 = DIRECTION ( 'NONE',  ( -0.0000000000000000000, -1.000000000000000000, -0.0000000000000000000 ) ) ;
#27 = CARTESIAN_POINT ( 'NONE',  ( -0.7499999999999997780, 0.05000000000000000278, -0.4000000000000001332 ) ) ;
#28 = CARTESIAN_POINT ( 'NONE',  ( 0.8000000000000001554, -1.626303258728256651E-16, 0.3999999999999998002 ) ) ;
#29 = DIRECTION ( 'NONE',  ( -1.355252715606880543E-16, -0.0000000000000000000, -1.000000000000000000 ) ) ;
#30 = ORIENTED_EDGE ( 'NONE', *, *, #863, .F. ) ;
#31 = ORIENTED_EDGE ( 'NONE', *, *, #58, .T. ) ;
#32 = CARTESIAN_POINT ( 'NONE',  ( 0.4999999999999997780, 0.2250000000000001443, -0.4000000000000003553 ) ) ;
#33 = FACE_OUTER_BOUND ( 'NONE', #242, .T. ) ;
#34 = LINE ( 'NONE', #399, #81 ) ;
#35 = ORIENTED_EDGE ( 'NONE', *, *, #315, .T. ) ;
#36 = EDGE_CURVE ( 'NONE', #365, #1062, #15, .T. ) ;
#37 = LINE ( 'NONE', #486, #841 ) ;
#38 = DIRECTION ( 'NONE',  ( -1.000000000000000000, -0.0000000000000000000, -0.0000000000000000000 ) ) ;
#39 = CARTESIAN_POINT ( 'NONE',  ( -0.7500000000000000000, 0.4000000000000000222, -0.4000000000000002998 ) ) ;
#40 = DIRECTION ( 'NONE',  ( -1.683650762896505363E-32, 1.355252715606880543E-16, 1.000000000000000000 ) ) ;
#41 = ORIENTED_EDGE ( 'NONE', *, *, #1128, .T. ) ;
#42 = VERTEX_POINT ( 'NONE', #106 ) ;
#43 = VECTOR ( 'NONE', #586, 1000.000000000000000 ) ;
#44 = VECTOR ( 'NONE', #378, 1000.000000000000000 ) ;
#45 = CARTESIAN_POINT ( 'NONE',  ( -0.7499999999999997780, 0.4000000000000000222, 0.4000000000000001332 ) ) ;
#46 = CARTESIAN_POINT ( 'NONE',  ( -0.4999999999999998890, 0.2250000000000001443, 0.3999999999999997446 ) ) ;
#47 = LINE ( 'NONE', #1115, #680 ) ;
#48 = ORIENTED_EDGE ( 'NONE', *, *, #474, .F. ) ;
#49 = CARTESIAN_POINT ( 'NONE',  ( -0.7500000000000000000, 0.4000000000000000777, -0.4000000000000001887 ) ) ;
#50 = LINE ( 'NONE', #216, #968 ) ;
#51 = CARTESIAN_POINT ( 'NONE',  ( -0.6799999999999996048, 0.4500000000000000666, -0.4000000000000003553 ) ) ;
#52 = ADVANCED_FACE ( 'NONE', ( #385 ), #777, .F. ) ;
#53 = DIRECTION ( 'NONE',  ( -1.000000000000000000, 1.242314989306307082E-16, 2.891205793294678326E-16 ) ) ;
#54 = EDGE_LOOP ( 'NONE', ( #226, #300, #1109, #283 ) ) ;
#55 = CARTESIAN_POINT ( 'NONE',  ( 1.576560977094070060, 0.3999999999999999112, 0.3999999999999995226 ) ) ;
#56 = DIRECTION ( 'NONE',  ( 1.000000000000000000, -0.0000000000000000000, -1.445602896647339163E-16 ) ) ;
#57 = DIRECTION ( 'NONE',  ( 0.0000000000000000000, 0.0000000000000000000, 1.000000000000000000 ) ) ;
#58 = EDGE_CURVE ( 'NONE', #750, #660, #995, .T. ) ;
#59 = PLANE ( 'NONE',  #779 ) ;
#60 = PLANE ( 'NONE',  #355 ) ;
#61 = VECTOR ( 'NONE', #451, 1000.000000000000000 ) ;
#62 = VECTOR ( 'NONE', #505, 1000.000000000000000 ) ;
#63 =( GEOMETRIC_REPRESENTATION_CONTEXT ( 3 ) GLOBAL_UNCERTAINTY_ASSIGNED_CONTEXT ( ( #253 ) ) GLOBAL_UNIT_ASSIGNED_CONTEXT ( ( #790, #1160, #969 ) ) REPRESENTATION_CONTEXT ( 'NONE', 'WORKASPACE' ) );
#64 = DIRECTION ( 'NONE',  ( 1.000000000000000000, -0.0000000000000000000, -0.0000000000000000000 ) ) ;
#65 = FACE_OUTER_BOUND ( 'NONE', #16, .T. ) ;
#66 = PLANE ( 'NONE',  #259 ) ;
#67 = EDGE_CURVE ( 'NONE', #564, #794, #986, .T. ) ;
#68 = ORIENTED_EDGE ( 'NONE', *, *, #307, .F. ) ;
#69 = EDGE_CURVE ( 'NONE', #212, #773, #73, .T. ) ;
#70 = CARTESIAN_POINT ( 'NONE',  ( 0.0000000000000000000, 0.0000000000000000000, 0.0000000000000000000 ) ) ;
#71 = UNCERTAINTY_MEASURE_WITH_UNIT (LENGTH_MEASURE( 1.000000000000000082E-05 ), #887, 'distance_accuracy_value', 'NONE');
#72 = CARTESIAN_POINT ( 'NONE',  ( 0.7999999999999999334, -1.626303258728256651E-16, -0.4000000000000003553 ) ) ;
#73 = LINE ( 'NONE', #614, #517 ) ;
#74 = ORIENTED_EDGE ( 'NONE', *, *, #409, .F. ) ;
#75 = EDGE_CURVE ( 'NONE', #469, #1164, #1205, .T. ) ;
#76 = LINE ( 'NONE', #731, #198 ) ;
#77 = CARTESIAN_POINT ( 'NONE',  ( -0.6799999999999996048, -0.001000000000000186937, -0.4000000000000003553 ) ) ;
#78 = VERTEX_POINT ( 'NONE', #245 ) ;
#79 = ORIENTED_EDGE ( 'NONE', *, *, #769, .F. ) ;
#80 = VECTOR ( 'NONE', #235, 1000.000000000000000 ) ;
#81 = VECTOR ( 'NONE', #1088, 1000.000000000000000 ) ;
#82 = APPLICATION_CONTEXT ( 'automotive_design' ) ;
#83 = MECHANICAL_DESIGN_GEOMETRIC_PRESENTATION_REPRESENTATION (  '', ( #726 ), #782 ) ;
#84 = DIRECTION ( 'NONE',  ( -0.0000000000000000000, 1.000000000000000000, -0.0000000000000000000 ) ) ;
#85 = PLANE ( 'NONE',  #915 ) ;
#86 = ORIENTED_EDGE ( 'NONE', *, *, #785, .T. ) ;
#87 = VERTEX_POINT ( 'NONE', #446 ) ;
#88 = EDGE_CURVE ( 'NONE', #342, #793, #353, .T. ) ;
#89 = LINE ( 'NONE', #523, #4 ) ;
#90 = ORIENTED_EDGE ( 'NONE', *, *, #550, .F. ) ;
#91 = PLANE ( 'NONE',  #896 ) ;
#92 = DIRECTION ( 'NONE',  ( -0.0000000000000000000, 1.000000000000000000, -0.0000000000000000000 ) ) ;
#93 = EDGE_CURVE ( 'NONE', #1164, #170, #642, .T. ) ;
#94 = CARTESIAN_POINT ( 'NONE',  ( -0.6799999999999998268, 0.4500000000000000666, 0.3000000000000000444 ) ) ;
#95 = ORIENTED_EDGE ( 'NONE', *, *, #536, .F. ) ;
#96 = VECTOR ( 'NONE', #566, 1000.000000000000000 ) ;
#97 = PLANE ( 'NONE',  #827 ) ;
#98 = VECTOR ( 'NONE', #124, 1000.000000000000000 ) ;
#99 = DIRECTION ( 'NONE',  ( 1.000000000000000000, 0.0000000000000000000, -1.084202172485504434E-16 ) ) ;
#100 = AXIS2_PLACEMENT_3D ( 'NONE', #640, #1197, #1012 ) ;
#101 = CARTESIAN_POINT ( 'NONE',  ( -0.7499999999999997780, 0.05000000000000000278, -0.4000000000000001332 ) ) ;
#102 = ORIENTED_EDGE ( 'NONE', *, *, #845, .F. ) ;
#103 = EDGE_CURVE ( 'NONE', #1055, #480, #909, .T. ) ;
#104 = CARTESIAN_POINT ( 'NONE',  ( 0.7500000000000002220, 0.4000000000000000222, 0.3999999999999999112 ) ) ;
#105 =( NAMED_UNIT ( * ) PLANE_ANGLE_UNIT ( ) SI_UNIT ( $, .RADIAN. ) );
#106 = CARTESIAN_POINT ( 'NONE',  ( -0.7499999999999997780, 0.4000000000000000222, 0.4000000000000001332 ) ) ;
#107 = ORIENTED_EDGE ( 'NONE', *, *, #291, .F. ) ;
#108 = CARTESIAN_POINT ( 'NONE',  ( 0.6800000000000002709, 0.4000000000000000222, -0.3999999999999995226 ) ) ;
#109 = ADVANCED_FACE ( 'NONE', ( #742 ), #59, .F. ) ;
#110 = CARTESIAN_POINT ( 'NONE',  ( 1.301560977094069926, 0.4000000000000039080, 0.4000000000000002998 ) ) ;
#111 =( NAMED_UNIT ( * ) SI_UNIT ( $, .STERADIAN. ) SOLID_ANGLE_UNIT ( ) );
#112 = CARTESIAN_POINT ( 'NONE',  ( -0.4999999999999998890, 0.2250000000000001443, -0.4000000000000001887 ) ) ;
#113 = VERTEX_POINT ( 'NONE', #818 ) ;
#114 = ORIENTED_EDGE ( 'NONE', *, *, #453, .F. ) ;
#115 = DIRECTION ( 'NONE',  ( 1.000000000000000000, 1.242314989306307082E-16, 0.0000000000000000000 ) ) ;
#116 = EDGE_CURVE ( 'NONE', #1214, #299, #520, .T. ) ;
#117 = CARTESIAN_POINT ( 'NONE',  ( -1.576560977094070060, 0.4500000000000000666, 0.4000000000000000222 ) ) ;
#118 = VECTOR ( 'NONE', #722, 1000.000000000000000 ) ;
#119 = DIRECTION ( 'NONE',  ( 0.0000000000000000000, 1.355252715606880296E-16, -1.000000000000000000 ) ) ;
#120 = ORIENTED_EDGE ( 'NONE', *, *, #607, .T. ) ;
#121 = VECTOR ( 'NONE', #1028, 1000.000000000000000 ) ;
#122 = COLOUR_RGB ( '',0.8980392156862745390, 0.9176470588235293713, 0.9294117647058823817 ) ;
#123 = ORIENTED_EDGE ( 'NONE', *, *, #828, .T. ) ;
#124 = DIRECTION ( 'NONE',  ( -4.336808689942018525E-15, -1.355252715606880296E-16, 1.000000000000000000 ) ) ;
#125 = CARTESIAN_POINT ( 'NONE',  ( 1.301560977094069926, 0.4500000000000039524, -0.3999999999999999112 ) ) ;
#126 = DIRECTION ( 'NONE',  ( -0.0000000000000000000, -0.0000000000000000000, 1.000000000000000000 ) ) ;
#127 = EDGE_CURVE ( 'NONE', #851, #429, #423, .T. ) ;
#128 = ORIENTED_EDGE ( 'NONE', *, *, #103, .T. ) ;
#129 = ORIENTED_EDGE ( 'NONE', *, *, #152, .F. ) ;
#130 = FACE_OUTER_BOUND ( 'NONE', #1171, .T. ) ;
#131 = CARTESIAN_POINT ( 'NONE',  ( 0.7500000000000001110, 0.4000000000000000222, -0.4000000000000001332 ) ) ;
#132 = CARTESIAN_POINT ( 'NONE',  ( 0.4999999999999998890, 0.02500000000000007772, -2.529805069132843351E-16 ) ) ;
#133 = LINE ( 'NONE', #800, #618 ) ;
#134 = ORIENTED_EDGE ( 'NONE', *, *, #88, .F. ) ;
#135 = CARTESIAN_POINT ( 'NONE',  ( -0.7499999999999997780, 0.4000000000000000222, 0.4000000000000001332 ) ) ;
#136 = CARTESIAN_POINT ( 'NONE',  ( 0.7500000000000001110, 0.4000000000000000222, -0.4000000000000001332 ) ) ;
#137 = CARTESIAN_POINT ( 'NONE',  ( 0.8000000000000000444, 0.4500000000000000111, 0.3999999999999998002 ) ) ;
#138 = LINE ( 'NONE', #519, #1195 ) ;
#139 = LINE ( 'NONE', #1185, #556 ) ;
#140 = AXIS2_PLACEMENT_3D ( 'NONE', #627, #998, #426 ) ;
#141 = VERTEX_POINT ( 'NONE', #732 ) ;
#142 = VECTOR ( 'NONE', #335, 1000.000000000000000 ) ;
#143 = VECTOR ( 'NONE', #1037, 1000.000000000000000 ) ;
#144 = DIRECTION ( 'NONE',  ( -0.0000000000000000000, -1.000000000000000000, -0.0000000000000000000 ) ) ;
#145 = ADVANCED_FACE ( 'NONE', ( #1104 ), #66, .F. ) ;
#146 = LINE ( 'NONE', #525, #804 ) ;
#147 = DIRECTION ( 'NONE',  ( -0.0000000000000000000, 1.000000000000000000, -0.0000000000000000000 ) ) ;
#148 = DIRECTION ( 'NONE',  ( -1.000000000000000000, -0.0000000000000000000, -0.0000000000000000000 ) ) ;
#149 = ORIENTED_EDGE ( 'NONE', *, *, #325, .T. ) ;
#150 = CARTESIAN_POINT ( 'NONE',  ( -0.4999999999999998890, 0.4500000000000000666, 0.4000000000000000222 ) ) ;
#151 = VERTEX_POINT ( 'NONE', #160 ) ;
#152 = EDGE_CURVE ( 'NONE', #528, #957, #139, .T. ) ;
#153 = CARTESIAN_POINT ( 'NONE',  ( 0.7500000000000001110, 0.4000000000000000222, -0.4000000000000001332 ) ) ;
#154 = DIRECTION ( 'NONE',  ( -6.023345402697248937E-16, 0.0000000000000000000, 1.000000000000000000 ) ) ;
#155 = DIRECTION ( 'NONE',  ( -0.0000000000000000000, 1.000000000000000000, -0.0000000000000000000 ) ) ;
#156 = EDGE_LOOP ( 'NONE', ( #176, #692, #760, #221 ) ) ;
#157 = LINE ( 'NONE', #631, #1194 ) ;
#158 = FACE_OUTER_BOUND ( 'NONE', #764, .T. ) ;
#159 = LINE ( 'NONE', #357, #622 ) ;
#160 = CARTESIAN_POINT ( 'NONE',  ( 0.7500000000000002220, 0.05000000000000000278, -0.4000000000000001332 ) ) ;
#161 = VERTEX_POINT ( 'NONE', #334 ) ;
#162 = AXIS2_PLACEMENT_3D ( 'NONE', #1058, #955, #865 ) ;
#163 = ORIENTED_EDGE ( 'NONE', *, *, #411, .T. ) ;
#164 = VECTOR ( 'NONE', #403, 1000.000000000000000 ) ;
#165 = PRESENTATION_LAYER_ASSIGNMENT (  '', '', ( #220 ) ) ;
#166 = CARTESIAN_POINT ( 'NONE',  ( 0.4999999999999997780, 0.4000000000000021871, 0.4000000000000001887 ) ) ;
#167 = CARTESIAN_POINT ( 'NONE',  ( 0.8000000000000000444, 0.4500000000000000666, 0.3999999999999998002 ) ) ;
#168 = EDGE_CURVE ( 'NONE', #212, #1055, #1089, .T. ) ;
#169 = ORIENTED_EDGE ( 'NONE', *, *, #834, .F. ) ;
#170 = VERTEX_POINT ( 'NONE', #1201 ) ;
#171 = CARTESIAN_POINT ( 'NONE',  ( 0.5000000000000000000, 0.4500000000000022315, 0.4000000000000002998 ) ) ;
#172 = DIRECTION ( 'NONE',  ( 1.242314989306307082E-16, -1.000000000000000000, 1.355252715606880543E-16 ) ) ;
#173 = ORIENTED_EDGE ( 'NONE', *, *, #1136, .F. ) ;
#174 = CARTESIAN_POINT ( 'NONE',  ( 0.6799999999999998268, -0.001000000000000186937, 0.4000000000000000222 ) ) ;
#175 = CARTESIAN_POINT ( 'NONE',  ( 0.7500000000000000000, 0.04999999999999985706, -0.4000000000000004663 ) ) ;
#176 = ORIENTED_EDGE ( 'NONE', *, *, #902, .T. ) ;
#177 = ORIENTED_EDGE ( 'NONE', *, *, #1112, .F. ) ;
#178 = STYLED_ITEM ( 'NONE', ( #310 ), #257 ) ;
#179 = EDGE_CURVE ( 'NONE', #957, #684, #736, .T. ) ;
#180 = AXIS2_PLACEMENT_3D ( 'NONE', #396, #1159, #296 ) ;
#181 = VECTOR ( 'NONE', #831, 1000.000000000000000 ) ;
#182 = LINE ( 'NONE', #9, #44 ) ;
#183 = LINE ( 'NONE', #379, #96 ) ;
#184 = LINE ( 'NONE', #1187, #142 ) ;
#185 = ORIENTED_EDGE ( 'NONE', *, *, #590, .F. ) ;
#186 = EDGE_CURVE ( 'NONE', #386, #305, #1015, .T. ) ;
#187 = LINE ( 'NONE', #77, #701 ) ;
#188 = ORIENTED_EDGE ( 'NONE', *, *, #215, .T. ) ;
#189 = ORIENTED_EDGE ( 'NONE', *, *, #769, .T. ) ;
#190 = CARTESIAN_POINT ( 'NONE',  ( 1.576560977094069615, 0.4500000000000000666, -0.4000000000000006328 ) ) ;
#191 = ADVANCED_FACE ( 'NONE', ( #267 ), #466, .F. ) ;
#192 = DIRECTION ( 'NONE',  ( 0.0000000000000000000, -1.355252715606880543E-16, -1.000000000000000000 ) ) ;
#193 = CARTESIAN_POINT ( 'NONE',  ( -0.4999999999999997780, 0.4000000000000000222, -0.4000000000000001887 ) ) ;
#194 = ORIENTED_EDGE ( 'NONE', *, *, #1203, .T. ) ;
#195 = ORIENTED_EDGE ( 'NONE', *, *, #1074, .T. ) ;
#196 = CARTESIAN_POINT ( 'NONE',  ( 0.6799999999999998268, 0.4500000000000000666, 0.3000000000000000444 ) ) ;
#197 = VECTOR ( 'NONE', #1022, 1000.000000000000000 ) ;
#198 = VECTOR ( 'NONE', #838, 1000.000000000000000 ) ;
#199 = LINE ( 'NONE', #772, #966 ) ;
#200 = ORIENTED_EDGE ( 'NONE', *, *, #454, .T. ) ;
#201 = EDGE_CURVE ( 'NONE', #819, #419, #187, .T. ) ;
#202 = PLANE ( 'NONE',  #180 ) ;
#203 = LINE ( 'NONE', #190, #1011 ) ;
#204 = LINE ( 'NONE', #672, #2 ) ;
#205 = DIRECTION ( 'NONE',  ( 1.355252715606880296E-16, 0.0000000000000000000, -1.000000000000000000 ) ) ;
#206 = ORIENTED_EDGE ( 'NONE', *, *, #372, .F. ) ;
#207 = ORIENTED_EDGE ( 'NONE', *, *, #1004, .T. ) ;
#208 = DIRECTION ( 'NONE',  ( -0.0000000000000000000, 0.0000000000000000000, -1.000000000000000000 ) ) ;
#209 =( NAMED_UNIT ( * ) PLANE_ANGLE_UNIT ( ) SI_UNIT ( $, .RADIAN. ) );
#210 = SURFACE_SIDE_STYLE ('',( #488 ) ) ;
#211 = CARTESIAN_POINT ( 'NONE',  ( -0.4999999999999996669, 0.4500000000000000666, -0.3000000000000002665 ) ) ;
#212 = VERTEX_POINT ( 'NONE', #263 ) ;
#213 = ORIENTED_EDGE ( 'NONE', *, *, #1225, .T. ) ;
#214 = CARTESIAN_POINT ( 'NONE',  ( 0.5000000000000000000, 0.4500000000000000666, 0.3999999999999998557 ) ) ;
#215 = EDGE_CURVE ( 'NONE', #376, #1029, #183, .T. ) ;
#216 = CARTESIAN_POINT ( 'NONE',  ( -0.5000000000000000000, 0.4500000000000000666, 0.4000000000000000222 ) ) ;
#217 = CARTESIAN_POINT ( 'NONE',  ( 0.4999999999999998890, 0.3999999999999999112, 0.3000000000000000444 ) ) ;
#218 = VERTEX_POINT ( 'NONE', #1039 ) ;
#219 = VECTOR ( 'NONE', #1046, 1000.000000000000000 ) ;
#220 = STYLED_ITEM ( 'NONE', ( #605 ), #639 ) ;
#221 = ORIENTED_EDGE ( 'NONE', *, *, #828, .F. ) ;
#222 = CARTESIAN_POINT ( 'NONE',  ( 0.4999999999999998890, 0.4500000000000000666, -0.2999999999999997113 ) ) ;
#223 = SURFACE_STYLE_USAGE ( .BOTH. , #1075 ) ;
#224 = PLANE ( 'NONE',  #319 ) ;
#225 = LINE ( 'NONE', #979, #356 ) ;
#226 = ORIENTED_EDGE ( 'NONE', *, *, #421, .F. ) ;
#227 = EDGE_LOOP ( 'NONE', ( #1179, #757, #189, #778 ) ) ;
#228 = PLANE ( 'NONE',  #875 ) ;
#229 = CARTESIAN_POINT ( 'NONE',  ( 0.6800000000000002709, -0.001000000000000186937, -0.3999999999999995781 ) ) ;
#230 = ADVANCED_FACE ( 'NONE', ( #1117 ), #1033, .F. ) ;
#231 = DIRECTION ( 'NONE',  ( -0.0000000000000000000, 1.000000000000000000, -0.0000000000000000000 ) ) ;
#232 = ORIENTED_EDGE ( 'NONE', *, *, #647, .F. ) ;
#233 = DIRECTION ( 'NONE',  ( -2.891205793294678326E-16, 1.084202172485501673E-15, -1.000000000000000000 ) ) ;
#234 = CARTESIAN_POINT ( 'NONE',  ( -1.576560977094069838, 0.3999999999999999112, 0.3999999999999999667 ) ) ;
#235 = DIRECTION ( 'NONE',  ( 0.0000000000000000000, 0.0000000000000000000, -1.000000000000000000 ) ) ;
#236 = CLOSED_SHELL ( 'NONE', ( #109, #1116, #358, #239, #448, #1199 ) ) ;
#237 = ORIENTED_EDGE ( 'NONE', *, *, #918, .F. ) ;
#238 = VECTOR ( 'NONE', #604, 1000.000000000000000 ) ;
#239 = ADVANCED_FACE ( 'NONE', ( #1222 ), #1138, .F. ) ;
#240 = MECHANICAL_DESIGN_GEOMETRIC_PRESENTATION_REPRESENTATION (  '', ( #220 ), #391 ) ;
#241 = FILL_AREA_STYLE_COLOUR ( '', #824 ) ;
#242 = EDGE_LOOP ( 'NONE', ( #295, #247, #232, #1124, #402, #79, #95, #996 ) ) ;
#243 = CARTESIAN_POINT ( 'NONE',  ( 1.301560977094069926, 0.4000000000000039080, 0.4000000000000002998 ) ) ;
#244 = LINE ( 'NONE', #1067, #619 ) ;
#245 = CARTESIAN_POINT ( 'NONE',  ( -0.4999999999999998890, 0.4500000000000000666, 0.3000000000000000444 ) ) ;
#246 = ADVANCED_FACE ( 'NONE', ( #934 ), #840, .F. ) ;
#247 = ORIENTED_EDGE ( 'NONE', *, *, #201, .F. ) ;
#248 = CARTESIAN_POINT ( 'NONE',  ( -0.4999999999999998890, 0.4000000000000000222, 0.4000000000000000222 ) ) ;
#249 = CARTESIAN_POINT ( 'NONE',  ( 1.576560977094070060, 0.3999999999999999112, 0.3999999999999995226 ) ) ;
#250 = DIRECTION ( 'NONE',  ( 1.000000000000000000, -2.168404344971003346E-15, -4.246458508901558376E-16 ) ) ;
#251 = ORIENTED_EDGE ( 'NONE', *, *, #607, .F. ) ;
#252 = MANIFOLD_SOLID_BREP ( 'Extruir5[2]', #1170 ) ;
#253 = UNCERTAINTY_MEASURE_WITH_UNIT (LENGTH_MEASURE( 1.000000000000000082E-05 ), #790, 'distance_accuracy_value', 'NONE');
#254 = ADVANCED_FACE ( 'NONE', ( #1155 ), #748, .T. ) ;
#255 = CARTESIAN_POINT ( 'NONE',  ( -0.6799999999999996048, 0.4500000000000000666, -0.4000000000000003553 ) ) ;
#256 = CARTESIAN_POINT ( 'NONE',  ( 0.6799999999999998268, -0.001000000000000186937, -0.2999999999999996003 ) ) ;
#257 = MANIFOLD_SOLID_BREP ( 'Extruir3', #236 ) ;
#258 = ORIENTED_EDGE ( 'NONE', *, *, #531, .T. ) ;
#259 = AXIS2_PLACEMENT_3D ( 'NONE', #636, #250, #1006 ) ;
#260 = VECTOR ( 'NONE', #26, 1000.000000000000000 ) ;
#261 = VECTOR ( 'NONE', #1043, 1000.000000000000000 ) ;
#262 = DIRECTION ( 'NONE',  ( 0.0000000000000000000, 0.0000000000000000000, -1.000000000000000000 ) ) ;
#263 = CARTESIAN_POINT ( 'NONE',  ( -0.7999999999999999334, 0.4500000000000000111, 0.4000000000000000222 ) ) ;
#264 = ORIENTED_EDGE ( 'NONE', *, *, #739, .T. ) ;
#265 = ORIENTED_EDGE ( 'NONE', *, *, #810, .T. ) ;
#266 = DIRECTION ( 'NONE',  ( 1.000000000000000000, 2.168404344971003346E-15, 0.0000000000000000000 ) ) ;
#267 = FACE_OUTER_BOUND ( 'NONE', #1007, .T. ) ;
#268 = DIRECTION ( 'NONE',  ( -1.000000000000000000, 0.0000000000000000000, -0.0000000000000000000 ) ) ;
#269 = ORIENTED_EDGE ( 'NONE', *, *, #802, .F. ) ;
#270 = ADVANCED_FACE ( 'NONE', ( #33 ), #224, .F. ) ;
#271 = ORIENTED_EDGE ( 'NONE', *, *, #186, .F. ) ;
#272 = DIRECTION ( 'NONE',  ( 2.168404344971008079E-15, -1.000000000000000000, 0.0000000000000000000 ) ) ;
#273 = CARTESIAN_POINT ( 'NONE',  ( -0.6799999999999998268, 0.3999999999999999667, 0.4000000000000000222 ) ) ;
#274 = ORIENTED_EDGE ( 'NONE', *, *, #810, .F. ) ;
#275 = EDGE_CURVE ( 'NONE', #808, #8, #292, .T. ) ;
#276 = VECTOR ( 'NONE', #53, 1000.000000000000000 ) ;
#277 = VECTOR ( 'NONE', #293, 1000.000000000000000 ) ;
#278 = AXIS2_PLACEMENT_3D ( 'NONE', #104, #389, #13 ) ;
#279 = FACE_OUTER_BOUND ( 'NONE', #927, .T. ) ;
#280 = DIRECTION ( 'NONE',  ( 1.000000000000000000, 0.0000000000000000000, 6.023345402697248937E-16 ) ) ;
#281 = CARTESIAN_POINT ( 'NONE',  ( -0.6799999999999998268, 0.4500000000000000666, 0.4000000000000000222 ) ) ;
#282 = ORIENTED_EDGE ( 'NONE', *, *, #496, .F. ) ;
#283 = ORIENTED_EDGE ( 'NONE', *, *, #36, .F. ) ;
#284 = EDGE_CURVE ( 'NONE', #305, #1017, #971, .T. ) ;
#285 = DIRECTION ( 'NONE',  ( -1.000000000000000000, -1.242314989306307082E-16, 0.0000000000000000000 ) ) ;
#286 = CARTESIAN_POINT ( 'NONE',  ( 0.7500000000000001110, 0.4000000000000000222, -0.4000000000000001332 ) ) ;
#287 = CARTESIAN_POINT ( 'NONE',  ( -0.6799999999999996048, 0.4000000000000000222, -0.4000000000000002998 ) ) ;
#288 = ORIENTED_EDGE ( 'NONE', *, *, #918, .T. ) ;
#289 = ORIENTED_EDGE ( 'NONE', *, *, #1175, .F. ) ;
#290 = SURFACE_STYLE_FILL_AREA ( #352 ) ;
#291 = EDGE_CURVE ( 'NONE', #1219, #919, #204, .T. ) ;
#292 = LINE ( 'NONE', #577, #641 ) ;
#293 = DIRECTION ( 'NONE',  ( -0.0000000000000000000, -0.0000000000000000000, 1.000000000000000000 ) ) ;
#294 = ORIENTED_EDGE ( 'NONE', *, *, #1038, .F. ) ;
#295 = ORIENTED_EDGE ( 'NONE', *, *, #1064, .T. ) ;
#296 = DIRECTION ( 'NONE',  ( 2.409338161078898687E-16, 1.000000000000000000, 0.0000000000000000000 ) ) ;
#297 = VECTOR ( 'NONE', #985, 1000.000000000000000 ) ;
#298 =( NAMED_UNIT ( * ) SI_UNIT ( $, .STERADIAN. ) SOLID_ANGLE_UNIT ( ) );
#299 = VERTEX_POINT ( 'NONE', #585 ) ;
#300 = ORIENTED_EDGE ( 'NONE', *, *, #215, .F. ) ;
#301 = LINE ( 'NONE', #108, #98 ) ;
#302 = DIRECTION ( 'NONE',  ( -2.168404344971003346E-15, 1.000000000000000000, -2.938735877055710888E-31 ) ) ;
#303 = LINE ( 'NONE', #688, #677 ) ;
#304 = LINE ( 'NONE', #281, #277 ) ;
#305 = VERTEX_POINT ( 'NONE', #592 ) ;
#306 = ORIENTED_EDGE ( 'NONE', *, *, #325, .F. ) ;
#307 = EDGE_CURVE ( 'NONE', #630, #141, #20, .T. ) ;
#308 = DIRECTION ( 'NONE',  ( 2.409338161078898687E-16, -1.000000000000000000, -6.965892449317258658E-32 ) ) ;
#309 = DIRECTION ( 'NONE',  ( -1.355252715606880296E-16, 0.0000000000000000000, 1.000000000000000000 ) ) ;
#310 = PRESENTATION_STYLE_ASSIGNMENT (( #870 ) ) ;
#311 = DIRECTION ( 'NONE',  ( 0.0000000000000000000, 1.000000000000000000, 1.084202172485501673E-15 ) ) ;
#312 = VERTEX_POINT ( 'NONE', #131 ) ;
#313 = VERTEX_POINT ( 'NONE', #318 ) ;
#314 = LINE ( 'NONE', #694, #780 ) ;
#315 = EDGE_CURVE ( 'NONE', #1219, #8, #509, .T. ) ;
#316 = EDGE_CURVE ( 'NONE', #151, #573, #303, .T. ) ;
#317 = APPLICATION_PROTOCOL_DEFINITION ( 'draft international standard', 'automotive_design', 1998, #82 ) ;
#318 = CARTESIAN_POINT ( 'NONE',  ( -0.4999999999999998890, -9.825582188149879003E-17, 0.3999999999999999667 ) ) ;
#319 = AXIS2_PLACEMENT_3D ( 'NONE', #405, #776, #1044 ) ;
#320 = ORIENTED_EDGE ( 'NONE', *, *, #938, .T. ) ;
#321 = VECTOR ( 'NONE', #56, 1000.000000000000000 ) ;
#322 = EDGE_LOOP ( 'NONE', ( #86, #936, #6, #1135 ) ) ;
#323 = DIRECTION ( 'NONE',  ( 0.0000000000000000000, 0.0000000000000000000, -1.000000000000000000 ) ) ;
#324 = DIRECTION ( 'NONE',  ( 1.355252715606880296E-16, 2.938735877055717456E-31, -1.000000000000000000 ) ) ;
#325 = EDGE_CURVE ( 'NONE', #1017, #851, #497, .T. ) ;
#326 = CARTESIAN_POINT ( 'NONE',  ( -0.4999999999999997780, 0.4500000000000000666, -0.3000000000000003220 ) ) ;
#327 = CARTESIAN_POINT ( 'NONE',  ( -0.4999999999999997780, 0.3999999999999999112, 0.3000000000000000444 ) ) ;
#328 = ORIENTED_EDGE ( 'NONE', *, *, #1203, .F. ) ;
#329 = DIRECTION ( 'NONE',  ( 1.000000000000000000, 1.242314989306307082E-16, -0.0000000000000000000 ) ) ;
#330 = DIRECTION ( 'NONE',  ( -1.000000000000000000, 0.0000000000000000000, 1.084202172485504434E-16 ) ) ;
#331 = LINE ( 'NONE', #717, #321 ) ;
#332 = PLANE ( 'NONE',  #1150 ) ;
#333 = EDGE_CURVE ( 'NONE', #808, #787, #791, .T. ) ;
#334 = CARTESIAN_POINT ( 'NONE',  ( -0.4999999999999997780, 0.4500000000000000666, -0.4000000000000001887 ) ) ;
#335 = DIRECTION ( 'NONE',  ( -4.246458508901558376E-16, -1.214677495849693880E-30, -1.000000000000000000 ) ) ;
#336 = FACE_OUTER_BOUND ( 'NONE', #400, .T. ) ;
#337 = FACE_OUTER_BOUND ( 'NONE', #1215, .T. ) ;
#338 = DIRECTION ( 'NONE',  ( 1.000000000000000000, -1.242314989306307082E-16, -2.891205793294678326E-16 ) ) ;
#339 = PRESENTATION_LAYER_ASSIGNMENT (  '', '', ( #178 ) ) ;
#340 = PRESENTATION_LAYER_ASSIGNMENT (  '', '', ( #726 ) ) ;
#341 = LINE ( 'NONE', #364, #121 ) ;
#342 = VERTEX_POINT ( 'NONE', #612 ) ;
#343 = PRODUCT_CONTEXT ( 'NONE', #82, 'mechanical' ) ;
#344 = PLANE ( 'NONE',  #823 ) ;
#345 = CARTESIAN_POINT ( 'NONE',  ( 0.7500000000000000000, 0.05000000000000025258, 0.3999999999999997446 ) ) ;
#346 = CARTESIAN_POINT ( 'NONE',  ( 1.301560977094069926, 0.4000000000000039080, -0.3999999999999999112 ) ) ;
#347 = VERTEX_POINT ( 'NONE', #248 ) ;
#348 = ADVANCED_FACE ( 'NONE', ( #158 ), #422, .F. ) ;
#349 = CARTESIAN_POINT ( 'NONE',  ( -0.4999999999999996669, -0.001000000000000186937, -0.3000000000000002665 ) ) ;
#350 = CARTESIAN_POINT ( 'NONE',  ( -0.7499999999999997780, 0.4000000000000000222, -0.3999999999999999667 ) ) ;
#351 = ORIENTED_EDGE ( 'NONE', *, *, #284, .F. ) ;
#352 = FILL_AREA_STYLE ('',( #928 ) ) ;
#353 = LINE ( 'NONE', #346, #458 ) ;
#354 = PRESENTATION_LAYER_ASSIGNMENT (  '', '', ( #1008 ) ) ;
#355 = AXIS2_PLACEMENT_3D ( 'NONE', #55, #233, #901 ) ;
#356 = VECTOR ( 'NONE', #40, 1000.000000000000000 ) ;
#357 = CARTESIAN_POINT ( 'NONE',  ( -0.4999999999999998890, -1.253608761936364502E-16, 0.4000000000000000222 ) ) ;
#358 = ADVANCED_FACE ( 'NONE', ( #444 ), #1196, .F. ) ;
#359 = CARTESIAN_POINT ( 'NONE',  ( 0.6800000000000002709, 0.4500000000000000666, -0.3999999999999995781 ) ) ;
#360 = EDGE_LOOP ( 'NONE', ( #128, #264, #1105, #441 ) ) ;
#361 = CARTESIAN_POINT ( 'NONE',  ( -0.5000000000000000000, 0.4500000000000000666, 0.4000000000000000222 ) ) ;
#362 =( LENGTH_UNIT ( ) NAMED_UNIT ( * ) SI_UNIT ( .MILLI., .METRE. ) );
#363 = ADVANCED_FACE ( 'NONE', ( #336 ), #344, .F. ) ;
#364 = CARTESIAN_POINT ( 'NONE',  ( 0.5000000000000000000, 0.2250000000000001443, 0.3999999999999995781 ) ) ;
#365 = VERTEX_POINT ( 'NONE', #413 ) ;
#366 = ORIENTED_EDGE ( 'NONE', *, *, #580, .T. ) ;
#367 = DIRECTION ( 'NONE',  ( 0.0000000000000000000, 0.0000000000000000000, 1.000000000000000000 ) ) ;
#368 =( NAMED_UNIT ( * ) PLANE_ANGLE_UNIT ( ) SI_UNIT ( $, .RADIAN. ) );
#369 = DIRECTION ( 'NONE',  ( -1.000000000000000000, 0.0000000000000000000, 0.0000000000000000000 ) ) ;
#370 = ORIENTED_EDGE ( 'NONE', *, *, #291, .T. ) ;
#371 = PRODUCT_RELATED_PRODUCT_CATEGORY ( 'part', '', ( #752 ) ) ;
#372 = EDGE_CURVE ( 'NONE', #1036, #347, #1095, .T. ) ;
#373 = VECTOR ( 'NONE', #904, 1000.000000000000000 ) ;
#374 = FACE_OUTER_BOUND ( 'NONE', #637, .T. ) ;
#375 = DIRECTION ( 'NONE',  ( 2.891205793294678326E-16, -1.355252715606880296E-16, 1.000000000000000000 ) ) ;
#376 = VERTEX_POINT ( 'NONE', #530 ) ;
#377 = EDGE_CURVE ( 'NONE', #141, #623, #1183, .T. ) ;
#378 = DIRECTION ( 'NONE',  ( 2.409338161078898687E-16, -1.000000000000000000, -6.965892449317258658E-32 ) ) ;
#379 = CARTESIAN_POINT ( 'NONE',  ( 0.7499999999999998890, 0.4000000000000000222, -0.4000000000000005218 ) ) ;
#380 = ORIENTED_EDGE ( 'NONE', *, *, #1112, .T. ) ;
#381 = ORIENTED_EDGE ( 'NONE', *, *, #565, .F. ) ;
#382 = EDGE_CURVE ( 'NONE', #42, #1207, #331, .T. ) ;
#383 = CARTESIAN_POINT ( 'NONE',  ( -0.6799999999999996048, 0.4500000000000000666, -0.3000000000000003775 ) ) ;
#384 = CARTESIAN_POINT ( 'NONE',  ( 0.4999999999999998890, -0.001000000000000186937, 0.3000000000000000444 ) ) ;
#385 = FACE_OUTER_BOUND ( 'NONE', #669, .T. ) ;
#386 = VERTEX_POINT ( 'NONE', #137 ) ;
#387 = CARTESIAN_POINT ( 'NONE',  ( -0.7499999999999997780, 0.05000000000000000278, 0.4000000000000000222 ) ) ;
#388 = CLOSED_SHELL ( 'NONE', ( #246, #1121, #559, #254, #570, #270, #1210, #829, #582, #625, #795, #988, #513, #683 ) ) ;
#389 = DIRECTION ( 'NONE',  ( -1.445602896647339163E-16, 0.0000000000000000000, -1.000000000000000000 ) ) ;
#390 = AXIS2_PLACEMENT_3D ( 'NONE', #1122, #268, #721 ) ;
#391 =( GEOMETRIC_REPRESENTATION_CONTEXT ( 3 ) GLOBAL_UNCERTAINTY_ASSIGNED_CONTEXT ( ( #1009 ) ) GLOBAL_UNIT_ASSIGNED_CONTEXT ( ( #976, #209, #412 ) ) REPRESENTATION_CONTEXT ( 'NONE', 'WORKASPACE' ) );
#392 = DIRECTION ( 'NONE',  ( -0.0000000000000000000, -1.000000000000000000, -0.0000000000000000000 ) ) ;
#393 = EDGE_CURVE ( 'NONE', #342, #528, #146, .T. ) ;
#394 = ORIENTED_EDGE ( 'NONE', *, *, #970, .F. ) ;
#395 = ORIENTED_EDGE ( 'NONE', *, *, #315, .F. ) ;
#396 = CARTESIAN_POINT ( 'NONE',  ( -0.7500000000000000000, 0.4000000000000000222, -0.4000000000000002998 ) ) ;
#397 = DIRECTION ( 'NONE',  ( -0.0000000000000000000, 1.000000000000000000, 0.0000000000000000000 ) ) ;
#398 = DIRECTION ( 'NONE',  ( 2.891205793294678326E-16, 0.0000000000000000000, 1.000000000000000000 ) ) ;
#399 = CARTESIAN_POINT ( 'NONE',  ( -0.7500000000000000000, 0.05000000000000018319, -0.4000000000000001887 ) ) ;
#400 = EDGE_LOOP ( 'NONE', ( #200, #889, #479, #603 ) ) ;
#401 = EDGE_CURVE ( 'NONE', #623, #808, #634, .T. ) ;
#402 = ORIENTED_EDGE ( 'NONE', *, *, #859, .T. ) ;
#403 = DIRECTION ( 'NONE',  ( 1.535953077687798030E-16, -1.355252715606880296E-16, 1.000000000000000000 ) ) ;
#404 = PLANE ( 'NONE',  #439 ) ;
#405 = CARTESIAN_POINT ( 'NONE',  ( -1.576560977094069838, 0.4500000000000000666, -0.4000000000000001887 ) ) ;
#406 = CARTESIAN_POINT ( 'NONE',  ( -0.4999999999999998890, -1.253608761936364502E-16, -0.4000000000000000222 ) ) ;
#407 = DIRECTION ( 'NONE',  ( -0.0000000000000000000, 1.000000000000000000, -0.0000000000000000000 ) ) ;
#408 = VERTEX_POINT ( 'NONE', #1003 ) ;
#409 = EDGE_CURVE ( 'NONE', #1106, #313, #897, .T. ) ;
#410 = DIRECTION ( 'NONE',  ( 1.000000000000000000, 0.0000000000000000000, 6.023345402697248937E-16 ) ) ;
#411 = EDGE_CURVE ( 'NONE', #212, #664, #805, .T. ) ;
#412 =( NAMED_UNIT ( * ) SI_UNIT ( $, .STERADIAN. ) SOLID_ANGLE_UNIT ( ) );
#413 = CARTESIAN_POINT ( 'NONE',  ( 0.7500000000000000000, 0.05000000000000025258, 0.3999999999999997446 ) ) ;
#414 = VECTOR ( 'NONE', #822, 1000.000000000000000 ) ;
#415 = AXIS2_PLACEMENT_3D ( 'NONE', #214, #589, #583 ) ;
#416 = DIRECTION ( 'NONE',  ( 1.000000000000000000, -3.918314502740957448E-32, 0.0000000000000000000 ) ) ;
#417 = ORIENTED_EDGE ( 'NONE', *, *, #960, .T. ) ;
#418 = VECTOR ( 'NONE', #1200, 1000.000000000000000 ) ;
#419 = VERTEX_POINT ( 'NONE', #51 ) ;
#420 = DIRECTION ( 'NONE',  ( 0.0000000000000000000, -0.0000000000000000000, -1.000000000000000000 ) ) ;
#421 = EDGE_CURVE ( 'NONE', #1029, #365, #1177, .T. ) ;
#422 = PLANE ( 'NONE',  #140 ) ;
#423 = LINE ( 'NONE', #826, #276 ) ;
#424 = ORIENTED_EDGE ( 'NONE', *, *, #702, .F. ) ;
#425 = DIRECTION ( 'NONE',  ( 1.000000000000000000, -0.0000000000000000000, -0.0000000000000000000 ) ) ;
#426 = DIRECTION ( 'NONE',  ( -2.891205793294678326E-16, 0.0000000000000000000, -1.000000000000000000 ) ) ;
#427 = DIRECTION ( 'NONE',  ( -4.246458508901558376E-16, 0.0000000000000000000, -1.000000000000000000 ) ) ;
#428 = CARTESIAN_POINT ( 'NONE',  ( 0.4999999999999998890, 0.4500000000000000666, 0.3000000000000000444 ) ) ;
#429 = VERTEX_POINT ( 'NONE', #17 ) ;
#430 = PLANE ( 'NONE',  #518 ) ;
#431 = ORIENTED_EDGE ( 'NONE', *, *, #1004, .F. ) ;
#432 = DIRECTION ( 'NONE',  ( 1.355252715606880543E-16, 0.0000000000000000000, 1.000000000000000000 ) ) ;
#433 = LINE ( 'NONE', #345, #181 ) ;
#434 = DIRECTION ( 'NONE',  ( 1.242314989306307082E-16, 1.000000000000000000, -3.591788294179211222E-32 ) ) ;
#435 = VECTOR ( 'NONE', #784, 1000.000000000000000 ) ;
#436 = EDGE_CURVE ( 'NONE', #1023, #794, #809, .T. ) ;
#437 = ORIENTED_EDGE ( 'NONE', *, *, #756, .T. ) ;
#438 = VECTOR ( 'NONE', #767, 1000.000000000000000 ) ;
#439 = AXIS2_PLACEMENT_3D ( 'NONE', #117, #797, #687 ) ;
#440 = LINE ( 'NONE', #150, #197 ) ;
#441 = ORIENTED_EDGE ( 'NONE', *, *, #168, .T. ) ;
#442 = SHAPE_DEFINITION_REPRESENTATION ( #691, #639 ) ;
#443 = UNCERTAINTY_MEASURE_WITH_UNIT (LENGTH_MEASURE( 1.000000000000000082E-05 ), #783, 'distance_accuracy_value', 'NONE');
#444 = FACE_OUTER_BOUND ( 'NONE', #690, .T. ) ;
#445 = CARTESIAN_POINT ( 'NONE',  ( -0.7999999999999999334, 0.4500000000000000666, -0.4000000000000001332 ) ) ;
#446 = CARTESIAN_POINT ( 'NONE',  ( -0.6799999999999996048, 0.4000000000000000222, -0.3000000000000003775 ) ) ;
#447 = EDGE_LOOP ( 'NONE', ( #437, #11, #522, #579 ) ) ;
#448 = ADVANCED_FACE ( 'NONE', ( #1051 ), #685, .F. ) ;
#449 = ORIENTED_EDGE ( 'NONE', *, *, #817, .F. ) ;
#450 = LINE ( 'NONE', #869, #1030 ) ;
#451 = DIRECTION ( 'NONE',  ( -2.891205793294678326E-16, 0.0000000000000000000, -1.000000000000000000 ) ) ;
#452 = ORIENTED_EDGE ( 'NONE', *, *, #674, .F. ) ;
#453 = EDGE_CURVE ( 'NONE', #386, #1145, #954, .T. ) ;
#454 = EDGE_CURVE ( 'NONE', #750, #564, #301, .T. ) ;
#455 = CARTESIAN_POINT ( 'NONE',  ( -0.4999999999999998890, 0.4000000000000000222, 0.4000000000000000222 ) ) ;
#456 = DIRECTION ( 'NONE',  ( 1.084202172485504434E-16, -0.0000000000000000000, 1.000000000000000000 ) ) ;
#457 = ORIENTED_EDGE ( 'NONE', *, *, #19, .F. ) ;
#458 = VECTOR ( 'NONE', #1000, 1000.000000000000000 ) ;
#459 = VECTOR ( 'NONE', #816, 1000.000000000000000 ) ;
#460 = ORIENTED_EDGE ( 'NONE', *, *, #1014, .T. ) ;
#461 = EDGE_CURVE ( 'NONE', #866, #113, #1165, .T. ) ;
#462 = LINE ( 'NONE', #255, #540 ) ;
#463 = CARTESIAN_POINT ( 'NONE',  ( -1.576560977094070060, 0.4000000000000000222, -0.4000000000000001887 ) ) ;
#464 = EDGE_LOOP ( 'NONE', ( #1141, #457, #581, #727, #1079, #473, #910, #188 ) ) ;
#465 = DIRECTION ( 'NONE',  ( 1.000000000000000000, -0.0000000000000000000, -0.0000000000000000000 ) ) ;
#466 = PLANE ( 'NONE',  #1147 ) ;
#467 = CARTESIAN_POINT ( 'NONE',  ( -0.7499999999999997780, 0.3999999999999999667, 0.3999999999999999667 ) ) ;
#468 = VERTEX_POINT ( 'NONE', #387 ) ;
#469 = VERTEX_POINT ( 'NONE', #967 ) ;
#470 = CARTESIAN_POINT ( 'NONE',  ( -0.4999999999999998890, 0.05000000000000000278, 0.3999999999999999112 ) ) ;
#471 = DIRECTION ( 'NONE',  ( -6.023345402697248937E-16, 0.0000000000000000000, 1.000000000000000000 ) ) ;
#472 =( LENGTH_UNIT ( ) NAMED_UNIT ( * ) SI_UNIT ( .MILLI., .METRE. ) );
#473 = ORIENTED_EDGE ( 'NONE', *, *, #454, .F. ) ;
#474 = EDGE_CURVE ( 'NONE', #429, #980, #1057, .T. ) ;
#475 = ORIENTED_EDGE ( 'NONE', *, *, #461, .T. ) ;
#476 = VECTOR ( 'NONE', #392, 1000.000000000000000 ) ;
#477 = PLANE ( 'NONE',  #278 ) ;
#478 = LINE ( 'NONE', #1132, #599 ) ;
#479 = ORIENTED_EDGE ( 'NONE', *, *, #834, .T. ) ;
#480 = VERTEX_POINT ( 'NONE', #789 ) ;
#481 = LINE ( 'NONE', #1146, #705 ) ;
#482 = CARTESIAN_POINT ( 'NONE',  ( 0.7999999999999998224, 0.4500000000000000666, -0.4000000000000003553 ) ) ;
#483 = DIRECTION ( 'NONE',  ( -1.000000000000000000, 0.0000000000000000000, -0.0000000000000000000 ) ) ;
#484 = EDGE_LOOP ( 'NONE', ( #475, #123, #1127, #1056 ) ) ;
#485 = ORIENTED_EDGE ( 'NONE', *, *, #186, .T. ) ;
#486 = CARTESIAN_POINT ( 'NONE',  ( 0.6799999999999998268, 0.4500000000000000666, 0.4000000000000000222 ) ) ;
#487 = CARTESIAN_POINT ( 'NONE',  ( 1.576560977094069838, 0.4000000000000000222, -0.4000000000000006328 ) ) ;
#488 = SURFACE_STYLE_FILL_AREA ( #1161 ) ;
#489 = LINE ( 'NONE', #287, #1113 ) ;
#490 = ORIENTED_EDGE ( 'NONE', *, *, #734, .F. ) ;
#491 = ORIENTED_EDGE ( 'NONE', *, *, #711, .F. ) ;
#492 = CARTESIAN_POINT ( 'NONE',  ( -0.4999999999999998890, -0.001000000000000186937, 0.3000000000000000444 ) ) ;
#493 = VECTOR ( 'NONE', #1053, 1000.000000000000000 ) ;
#494 = CARTESIAN_POINT ( 'NONE',  ( -0.4999999999999996669, 0.3999999999999999112, -0.3000000000000002665 ) ) ;
#495 = VECTOR ( 'NONE', #516, 1000.000000000000000 ) ;
#496 = EDGE_CURVE ( 'NONE', #8, #78, #892, .T. ) ;
#497 = LINE ( 'NONE', #28, #658 ) ;
#498 = AXIS2_PLACEMENT_3D ( 'NONE', #132, #510, #1178 ) ;
#499 = CARTESIAN_POINT ( 'NONE',  ( -0.7500000000000001110, 0.04999999999999985706, -0.4000000000000002442 ) ) ;
#500 = ORIENTED_EDGE ( 'NONE', *, *, #693, .F. ) ;
#501 = ORIENTED_EDGE ( 'NONE', *, *, #728, .F. ) ;
#502 = CARTESIAN_POINT ( 'NONE',  ( -1.576560977094070060, 0.4000000000000000222, -0.4000000000000001887 ) ) ;
#503 = PLANE ( 'NONE',  #843 ) ;
#504 = PRODUCT_DEFINITION ( 'UNKNOWN', '', #1050, #541 ) ;
#505 = DIRECTION ( 'NONE',  ( -1.355252715606881036E-16, -1.355252715606880789E-16, -1.000000000000000000 ) ) ;
#506 = LINE ( 'NONE', #884, #1111 ) ;
#507 = ORIENTED_EDGE ( 'NONE', *, *, #436, .F. ) ;
#508 = CARTESIAN_POINT ( 'NONE',  ( 0.5000000000000000000, -1.253608761936364502E-16, 0.3999999999999998557 ) ) ;
#509 = LINE ( 'NONE', #798, #943 ) ;
#510 = DIRECTION ( 'NONE',  ( -1.000000000000000000, 1.242314989306307082E-16, 2.891205793294678326E-16 ) ) ;
#511 = VERTEX_POINT ( 'NONE', #975 ) ;
#512 = ORIENTED_EDGE ( 'NONE', *, *, #152, .T. ) ;
#513 = ADVANCED_FACE ( 'NONE', ( #130 ), #679, .F. ) ;
#514 = CARTESIAN_POINT ( 'NONE',  ( 1.576560977094070282, 0.4500000000000000666, 0.3999999999999995781 ) ) ;
#515 = SURFACE_STYLE_FILL_AREA ( #703 ) ;
#516 = DIRECTION ( 'NONE',  ( 0.0000000000000000000, 1.355252715606880296E-16, -1.000000000000000000 ) ) ;
#517 = VECTOR ( 'NONE', #725, 1000.000000000000000 ) ;
#518 = AXIS2_PLACEMENT_3D ( 'NONE', #175, #754, #815 ) ;
#519 = CARTESIAN_POINT ( 'NONE',  ( -0.7500000000000000000, 0.4000000000000000777, -0.4000000000000001887 ) ) ;
#520 = LINE ( 'NONE', #350, #874 ) ;
#521 = AXIS2_PLACEMENT_3D ( 'NONE', #1137, #1026, #285 ) ;
#522 = ORIENTED_EDGE ( 'NONE', *, *, #116, .F. ) ;
#523 = CARTESIAN_POINT ( 'NONE',  ( 0.7999999999999999334, -1.626303258728256651E-16, -0.4000000000000003553 ) ) ;
#524 = ADVANCED_FACE ( 'NONE', ( #886 ), #1153, .T. ) ;
#525 = CARTESIAN_POINT ( 'NONE',  ( 0.4999999999999996669, 0.4500000000000056732, -0.4000000000000000222 ) ) ;
#526 = LINE ( 'NONE', #878, #373 ) ;
#527 = DIRECTION ( 'NONE',  ( -2.409338161078898687E-16, -1.000000000000000000, 0.0000000000000000000 ) ) ;
#528 = VERTEX_POINT ( 'NONE', #959 ) ;
#529 = SURFACE_SIDE_STYLE ('',( #729 ) ) ;
#530 = CARTESIAN_POINT ( 'NONE',  ( 0.7499999999999998890, 0.4000000000000000777, -0.4000000000000004108 ) ) ;
#531 = EDGE_CURVE ( 'NONE', #1145, #1164, #37, .T. ) ;
#532 = PLANE ( 'NONE',  #100 ) ;
#533 = DIRECTION ( 'NONE',  ( 0.0000000000000000000, -1.355252715606880296E-16, 1.000000000000000000 ) ) ;
#534 = CARTESIAN_POINT ( 'NONE',  ( -0.6799999999999998268, 0.3999999999999999112, 0.4000000000000000777 ) ) ;
#535 = FACE_OUTER_BOUND ( 'NONE', #675, .T. ) ;
#536 = EDGE_CURVE ( 'NONE', #480, #873, #314, .T. ) ;
#537 = MECHANICAL_DESIGN_GEOMETRIC_PRESENTATION_REPRESENTATION (  '', ( #178 ), #1208 ) ;
#538 = ORIENTED_EDGE ( 'NONE', *, *, #1074, .F. ) ;
#539 = VECTOR ( 'NONE', #425, 1000.000000000000000 ) ;
#540 = VECTOR ( 'NONE', #57, 1000.000000000000000 ) ;
#541 = PRODUCT_DEFINITION_CONTEXT ( 'detailed design', #548, 'design' ) ;
#542 = PLANE ( 'NONE',  #1049 ) ;
#543 = CARTESIAN_POINT ( 'NONE',  ( -0.7999999999999999334, 0.4500000000000000666, -0.4000000000000001332 ) ) ;
#544 = EDGE_CURVE ( 'NONE', #980, #511, #781, .T. ) ;
#545 = ORIENTED_EDGE ( 'NONE', *, *, #421, .T. ) ;
#546 = ORIENTED_EDGE ( 'NONE', *, *, #333, .T. ) ;
#547 = PLANE ( 'NONE',  #765 ) ;
#548 = APPLICATION_CONTEXT ( 'automotive_design' ) ;
#549 = EDGE_LOOP ( 'NONE', ( #1098, #274, #381, #920 ) ) ;
#550 = EDGE_CURVE ( 'NONE', #42, #468, #796, .T. ) ;
#551 = ORIENTED_EDGE ( 'NONE', *, *, #496, .T. ) ;
#552 = DIRECTION ( 'NONE',  ( 0.0000000000000000000, 0.0000000000000000000, -1.000000000000000000 ) ) ;
#553 = SURFACE_STYLE_USAGE ( .BOTH. , #942 ) ;
#554 = PLANE ( 'NONE',  #895 ) ;
#555 = ORIENTED_EDGE ( 'NONE', *, *, #580, .F. ) ;
#556 = VECTOR ( 'NONE', #832, 1000.000000000000000 ) ;
#557 = VECTOR ( 'NONE', #1086, 1000.000000000000000 ) ;
#558 = AXIS2_PLACEMENT_3D ( 'NONE', #455, #753, #1212 ) ;
#559 = ADVANCED_FACE ( 'NONE', ( #801 ), #202, .T. ) ;
#560 = SURFACE_STYLE_USAGE ( .BOTH. , #584 ) ;
#561 = FILL_AREA_STYLE_COLOUR ( '', #21 ) ;
#562 = DIRECTION ( 'NONE',  ( 2.168404344971003346E-15, -1.000000000000000000, 0.0000000000000000000 ) ) ;
#563 = EDGE_LOOP ( 'NONE', ( #1041, #807, #213, #982 ) ) ;
#564 = VERTEX_POINT ( 'NONE', #1063 ) ;
#565 = EDGE_CURVE ( 'NONE', #151, #299, #1174, .T. ) ;
#566 = DIRECTION ( 'NONE',  ( 1.535953077687798277E-16, -1.355252715606880296E-16, 1.000000000000000000 ) ) ;
#567 = LINE ( 'NONE', #211, #1131 ) ;
#568 = CARTESIAN_POINT ( 'NONE',  ( 0.7499999999999998890, 0.05000000000000018319, -0.4000000000000004108 ) ) ;
#569 = SURFACE_STYLE_FILL_AREA ( #650 ) ;
#570 = ADVANCED_FACE ( 'NONE', ( #881 ), #228, .F. ) ;
#571 = FACE_OUTER_BOUND ( 'NONE', #322, .T. ) ;
#572 = ORIENTED_EDGE ( 'NONE', *, *, #763, .F. ) ;
#573 = VERTEX_POINT ( 'NONE', #911 ) ;
#574 = VECTOR ( 'NONE', #1108, 1000.000000000000000 ) ;
#575 = VECTOR ( 'NONE', #861, 1000.000000000000000 ) ;
#576 = FACE_OUTER_BOUND ( 'NONE', #595, .T. ) ;
#577 = CARTESIAN_POINT ( 'NONE',  ( -0.4999999999999998890, 0.3999999999999999112, 0.3000000000000000444 ) ) ;
#578 = FACE_OUTER_BOUND ( 'NONE', #156, .T. ) ;
#579 = ORIENTED_EDGE ( 'NONE', *, *, #1225, .F. ) ;
#580 = EDGE_CURVE ( 'NONE', #1207, #573, #157, .T. ) ;
#581 = ORIENTED_EDGE ( 'NONE', *, *, #902, .F. ) ;
#582 = ADVANCED_FACE ( 'NONE', ( #617 ), #85, .F. ) ;
#583 = DIRECTION ( 'NONE',  ( -2.168404344971003346E-15, -1.000000000000000000, 6.269303204385517027E-31 ) ) ;
#584 = SURFACE_SIDE_STYLE ('',( #290 ) ) ;
#585 = CARTESIAN_POINT ( 'NONE',  ( -0.7499999999999997780, 0.05000000000000002359, -0.3999999999999999667 ) ) ;
#586 = DIRECTION ( 'NONE',  ( 2.891205793294678326E-16, 1.355252715606880543E-16, 1.000000000000000000 ) ) ;
#587 = ORIENTED_EDGE ( 'NONE', *, *, #728, .T. ) ;
#588 = ORIENTED_EDGE ( 'NONE', *, *, #19, .T. ) ;
#589 = DIRECTION ( 'NONE',  ( 1.000000000000000000, -2.168404344971003346E-15, -4.246458508901558376E-16 ) ) ;
#590 = EDGE_CURVE ( 'NONE', #141, #833, #820, .T. ) ;
#591 = FACE_OUTER_BOUND ( 'NONE', #549, .T. ) ;
#592 = CARTESIAN_POINT ( 'NONE',  ( 0.7999999999999998224, 0.4500000000000000666, -0.4000000000000003553 ) ) ;
#593 = PLANE ( 'NONE',  #1027 ) ;
#594 = ORIENTED_EDGE ( 'NONE', *, *, #316, .F. ) ;
#595 = EDGE_LOOP ( 'NONE', ( #1061, #1110, #1158, #206 ) ) ;
#596 = CARTESIAN_POINT ( 'NONE',  ( -0.7499999999999997780, 0.05000000000000000278, -0.4000000000000001332 ) ) ;
#597 = VECTOR ( 'NONE', #730, 1000.000000000000000 ) ;
#598 = CARTESIAN_POINT ( 'NONE',  ( 0.7500000000000002220, 0.4000000000000000222, 0.3999999999999999112 ) ) ;
#599 = VECTOR ( 'NONE', #1139, 1000.000000000000000 ) ;
#600 = AXIS2_PLACEMENT_3D ( 'NONE', #27, #397, #1065 ) ;
#601 = DIRECTION ( 'NONE',  ( 2.891205793294678326E-16, 0.0000000000000000000, 1.000000000000000000 ) ) ;
#602 = ORIENTED_EDGE ( 'NONE', *, *, #401, .T. ) ;
#603 = ORIENTED_EDGE ( 'NONE', *, *, #58, .F. ) ;
#604 = DIRECTION ( 'NONE',  ( -1.000000000000000000, 0.0000000000000000000, 2.891205793294678326E-16 ) ) ;
#605 = PRESENTATION_STYLE_ASSIGNMENT (( #223 ) ) ;
#606 = CARTESIAN_POINT ( 'NONE',  ( -0.6799999999999996048, 0.4000000000000000222, -0.4000000000000001887 ) ) ;
#607 = EDGE_CURVE ( 'NONE', #78, #919, #440, .T. ) ;
#608 = ORIENTED_EDGE ( 'NONE', *, *, #436, .T. ) ;
#609 = ORIENTED_EDGE ( 'NONE', *, *, #307, .T. ) ;
#610 = DIRECTION ( 'NONE',  ( -2.891205793294678326E-16, 0.0000000000000000000, -1.000000000000000000 ) ) ;
#611 = LINE ( 'NONE', #695, #745 ) ;
#612 = CARTESIAN_POINT ( 'NONE',  ( 0.4999999999999995559, 0.4000000000000021871, -0.4000000000000000222 ) ) ;
#613 = CARTESIAN_POINT ( 'NONE',  ( -0.7499999999999998890, 0.05000000000000025258, 0.3999999999999999667 ) ) ;
#614 = CARTESIAN_POINT ( 'NONE',  ( -0.7999999999999999334, 0.4500000000000000111, 0.4000000000000000222 ) ) ;
#615 = EDGE_CURVE ( 'NONE', #1017, #980, #89, .T. ) ;
#616 = ORIENTED_EDGE ( 'NONE', *, *, #69, .T. ) ;
#617 = FACE_OUTER_BOUND ( 'NONE', #906, .T. ) ;
#618 = VECTOR ( 'NONE', #1169, 1000.000000000000000 ) ;
#619 = VECTOR ( 'NONE', #29, 1000.000000000000000 ) ;
#620 = CARTESIAN_POINT ( 'NONE',  ( -0.8000000000000002665, -1.355252715606880543E-16, 0.3999999999999999667 ) ) ;
#621 = CARTESIAN_POINT ( 'NONE',  ( 1.301560977094069704, 0.4500000000000039524, 0.4000000000000002998 ) ) ;
#622 = VECTOR ( 'NONE', #552, 1000.000000000000000 ) ;
#623 = VERTEX_POINT ( 'NONE', #273 ) ;
#624 = FILL_AREA_STYLE ('',( #241 ) ) ;
#625 = ADVANCED_FACE ( 'NONE', ( #907 ), #554, .T. ) ;
#626 = ORIENTED_EDGE ( 'NONE', *, *, #1024, .T. ) ;
#627 = CARTESIAN_POINT ( 'NONE',  ( 1.576560977094070282, 0.4500000000000000666, 0.3999999999999995781 ) ) ;
#628 = CARTESIAN_POINT ( 'NONE',  ( 0.4999999999999997780, 0.4000000000000000222, -0.2999999999999997113 ) ) ;
#629 = CARTESIAN_POINT ( 'NONE',  ( 0.6800000000000002709, -0.001000000000000186937, -0.3999999999999995781 ) ) ;
#630 = VERTEX_POINT ( 'NONE', #49 ) ;
#631 = CARTESIAN_POINT ( 'NONE',  ( 0.7500000000000002220, 0.4000000000000000222, 0.3999999999999999112 ) ) ;
#632 = ADVANCED_FACE ( 'NONE', ( #846 ), #60, .F. ) ;
#633 = UNCERTAINTY_MEASURE_WITH_UNIT (LENGTH_MEASURE( 1.000000000000000082E-05 ), #362, 'distance_accuracy_value', 'NONE');
#634 = LINE ( 'NONE', #534, #495 ) ;
#635 = DIRECTION ( 'NONE',  ( -1.000000000000000000, 8.163155214043664953E-32, -6.023345402697248937E-16 ) ) ;
#636 = CARTESIAN_POINT ( 'NONE',  ( 0.5000000000000000000, 0.4500000000000000666, 0.3999999999999998557 ) ) ;
#637 = EDGE_LOOP ( 'NONE', ( #1119, #289, #555, #814 ) ) ;
#638 = ORIENTED_EDGE ( 'NONE', *, *, #179, .F. ) ;
#639 = ADVANCED_BREP_SHAPE_REPRESENTATION ( 'User Library-CR1608-0603', ( #257, #686, #1059, #252, #1094 ), #63 ) ;
#640 = CARTESIAN_POINT ( 'NONE',  ( 0.8000000000000000444, 0.4500000000000000666, 0.3999999999999998002 ) ) ;
#641 = VECTOR ( 'NONE', #977, 1000.000000000000000 ) ;
#642 = LINE ( 'NONE', #428, #1091 ) ;
#643 = VECTOR ( 'NONE', #903, 1000.000000000000000 ) ;
#644 = ORIENTED_EDGE ( 'NONE', *, *, #1136, .T. ) ;
#645 = DIRECTION ( 'NONE',  ( -1.000000000000000000, 1.208146971678462185E-31, -6.023345402697248937E-16 ) ) ;
#646 = CARTESIAN_POINT ( 'NONE',  ( 1.576560977094069838, 0.4000000000000000222, -0.4000000000000006328 ) ) ;
#647 = EDGE_CURVE ( 'NONE', #630, #819, #651, .T. ) ;
#648 = VERTEX_POINT ( 'NONE', #1126 ) ;
#649 = CARTESIAN_POINT ( 'NONE',  ( 0.7499999999999998890, 0.3999999999999999667, 0.3999999999999997446 ) ) ;
#650 = FILL_AREA_STYLE ('',( #561 ) ) ;
#651 = LINE ( 'NONE', #463, #539 ) ;
#652 = ORIENTED_EDGE ( 'NONE', *, *, #1064, .F. ) ;
#653 = EDGE_LOOP ( 'NONE', ( #698, #1133, #900, #107 ) ) ;
#654 = DIRECTION ( 'NONE',  ( 1.000000000000000000, 0.0000000000000000000, 0.0000000000000000000 ) ) ;
#655 = CARTESIAN_POINT ( 'NONE',  ( 0.4999999999999998890, -0.001000000000000186937, -0.2999999999999997113 ) ) ;
#656 = CARTESIAN_POINT ( 'NONE',  ( -0.4999999999999998890, 0.4500000000000000666, 0.4000000000000000222 ) ) ;
#657 = VERTEX_POINT ( 'NONE', #1191 ) ;
#658 = VECTOR ( 'NONE', #398, 1000.000000000000000 ) ;
#659 = VECTOR ( 'NONE', #410, 1000.000000000000000 ) ;
#660 = VERTEX_POINT ( 'NONE', #359 ) ;
#661 = VECTOR ( 'NONE', #937, 1000.000000000000000 ) ;
#662 = LINE ( 'NONE', #673, #438 ) ;
#663 = ORIENTED_EDGE ( 'NONE', *, *, #671, .T. ) ;
#664 = VERTEX_POINT ( 'NONE', #1002 ) ;
#665 = ADVANCED_FACE ( 'NONE', ( #1213 ), #430, .F. ) ;
#666 = LINE ( 'NONE', #487, #143 ) ;
#667 = CARTESIAN_POINT ( 'NONE',  ( 0.7500000000000001110, 0.4000000000000000222, -0.4000000000000001332 ) ) ;
#668 = ORIENTED_EDGE ( 'NONE', *, *, #536, .T. ) ;
#669 = EDGE_LOOP ( 'NONE', ( #737, #1149, #149, #707 ) ) ;
#670 = CARTESIAN_POINT ( 'NONE',  ( 0.7499999999999998890, 0.05000000000000018319, -0.4000000000000004108 ) ) ;
#671 = EDGE_CURVE ( 'NONE', #218, #429, #341, .T. ) ;
#672 = CARTESIAN_POINT ( 'NONE',  ( -0.4999999999999996669, -0.001000000000000186937, -0.3000000000000002665 ) ) ;
#673 = CARTESIAN_POINT ( 'NONE',  ( -0.7499999999999998890, 0.05000000000000025258, 0.3999999999999999667 ) ) ;
#674 = EDGE_CURVE ( 'NONE', #1036, #342, #184, .T. ) ;
#675 = EDGE_LOOP ( 'NONE', ( #351, #271, #644, #306 ) ) ;
#676 = ORIENTED_EDGE ( 'NONE', *, *, #377, .T. ) ;
#677 = VECTOR ( 'NONE', #126, 1000.000000000000000 ) ;
#678 = VECTOR ( 'NONE', #681, 1000.000000000000000 ) ;
#679 = PLANE ( 'NONE',  #723 ) ;
#680 = VECTOR ( 'NONE', #735, 1000.000000000000000 ) ;
#681 = DIRECTION ( 'NONE',  ( 0.0000000000000000000, 0.0000000000000000000, 1.000000000000000000 ) ) ;
#682 = ORIENTED_EDGE ( 'NONE', *, *, #817, .T. ) ;
#683 = ADVANCED_FACE ( 'NONE', ( #931 ), #749, .F. ) ;
#684 = VERTEX_POINT ( 'NONE', #1218 ) ;
#685 = PLANE ( 'NONE',  #857 ) ;
#686 = MANIFOLD_SOLID_BREP ( 'Extruir4', #929 ) ;
#687 = DIRECTION ( 'NONE',  ( 0.0000000000000000000, 0.0000000000000000000, -1.000000000000000000 ) ) ;
#688 = CARTESIAN_POINT ( 'NONE',  ( 0.7500000000000002220, 0.05000000000000000278, -0.4000000000000001332 ) ) ;
#689 = CARTESIAN_POINT ( 'NONE',  ( 0.6800000000000002709, 0.4000000000000000777, -0.3999999999999995781 ) ) ;
#690 = EDGE_LOOP ( 'NONE', ( #366, #594, #697, #22 ) ) ;
#691 = PRODUCT_DEFINITION_SHAPE ( 'NONE', 'NONE',  #504 ) ;
#692 = ORIENTED_EDGE ( 'NONE', *, *, #75, .T. ) ;
#693 = EDGE_CURVE ( 'NONE', #78, #787, #1090, .T. ) ;
#694 = CARTESIAN_POINT ( 'NONE',  ( -0.8000000000000000444, -1.626303258728256651E-16, -0.4000000000000001332 ) ) ;
#695 = CARTESIAN_POINT ( 'NONE',  ( -0.7499999999999997780, 0.05000000000000000278, 0.4000000000000000222 ) ) ;
#696 = PLANE ( 'NONE',  #498 ) ;
#697 = ORIENTED_EDGE ( 'NONE', *, *, #756, .F. ) ;
#698 = ORIENTED_EDGE ( 'NONE', *, *, #1038, .T. ) ;
#699 = CARTESIAN_POINT ( 'NONE',  ( 0.4999999999999997780, 0.4000000000000000222, -0.4000000000000003553 ) ) ;
#700 = VECTOR ( 'NONE', #1097, 1000.000000000000000 ) ;
#701 = VECTOR ( 'NONE', #92, 1000.000000000000000 ) ;
#702 = EDGE_CURVE ( 'NONE', #787, #664, #304, .T. ) ;
#703 = FILL_AREA_STYLE ('',( #1182 ) ) ;
#704 = VECTOR ( 'NONE', #1034, 1000.000000000000000 ) ;
#705 = VECTOR ( 'NONE', #367, 1000.000000000000000 ) ;
#706 = LINE ( 'NONE', #718, #743 ) ;
#707 = ORIENTED_EDGE ( 'NONE', *, *, #127, .T. ) ;
#708 = ORIENTED_EDGE ( 'NONE', *, *, #1024, .F. ) ;
#709 = CARTESIAN_POINT ( 'NONE',  ( -0.4999999999999998890, -0.001000000000000186937, 0.3000000000000000444 ) ) ;
#710 = CARTESIAN_POINT ( 'NONE',  ( -0.7499999999999997780, 0.4000000000000000222, -0.3999999999999999667 ) ) ;
#711 = EDGE_CURVE ( 'NONE', #833, #1106, #662, .T. ) ;
#712 = DIRECTION ( 'NONE',  ( -1.000000000000000000, 0.0000000000000000000, 1.355252715606880543E-16 ) ) ;
#713 = CARTESIAN_POINT ( 'NONE',  ( 0.7499999999999998890, 0.4000000000000000777, -0.4000000000000004108 ) ) ;
#714 = CARTESIAN_POINT ( 'NONE',  ( 0.7500000000000000000, 0.04999999999999985706, -0.4000000000000004663 ) ) ;
#715 = EDGE_LOOP ( 'NONE', ( #1092, #538, #1047, #545, #626, #663, #924, #173 ) ) ;
#716 = DIRECTION ( 'NONE',  ( -1.242314989306307082E-16, 1.000000000000000000, 0.0000000000000000000 ) ) ;
#717 = CARTESIAN_POINT ( 'NONE',  ( 0.7500000000000002220, 0.4000000000000000222, 0.3999999999999999112 ) ) ;
#718 = CARTESIAN_POINT ( 'NONE',  ( 0.5000000000000000000, 0.4500000000000000666, 0.3999999999999998557 ) ) ;
#719 = CARTESIAN_POINT ( 'NONE',  ( -0.7999999999999999334, 0.4500000000000000666, 0.4000000000000000222 ) ) ;
#720 = EDGE_LOOP ( 'NONE', ( #512, #417, #854, #945 ) ) ;
#721 = DIRECTION ( 'NONE',  ( -0.0000000000000000000, 0.0000000000000000000, 1.000000000000000000 ) ) ;
#722 = DIRECTION ( 'NONE',  ( -0.0000000000000000000, 1.000000000000000000, -0.0000000000000000000 ) ) ;
#723 = AXIS2_PLACEMENT_3D ( 'NONE', #492, #208, #983 ) ;
#724 = LINE ( 'NONE', #499, #62 ) ;
#725 = DIRECTION ( 'NONE',  ( -2.409338161078898687E-16, -1.000000000000000000, 0.0000000000000000000 ) ) ;
#726 = STYLED_ITEM ( 'NONE', ( #1032 ), #1059 ) ;
#727 = ORIENTED_EDGE ( 'NONE', *, *, #461, .F. ) ;
#728 = EDGE_CURVE ( 'NONE', #347, #793, #199, .T. ) ;
#729 = SURFACE_STYLE_FILL_AREA ( #624 ) ;
#730 = DIRECTION ( 'NONE',  ( -1.000000000000000000, -2.168404344971003346E-15, -1.355252715606880296E-16 ) ) ;
#731 = CARTESIAN_POINT ( 'NONE',  ( 0.5000000000000000000, 0.4500000000000056732, 0.4000000000000001887 ) ) ;
#732 = CARTESIAN_POINT ( 'NONE',  ( -0.7499999999999997780, 0.3999999999999999667, 0.3999999999999999667 ) ) ;
#733 = EDGE_LOOP ( 'NONE', ( #35, #25, #1118, #890, #68, #949, #932, #294 ) ) ;
#734 = EDGE_CURVE ( 'NONE', #1152, #919, #567, .T. ) ;
#735 = DIRECTION ( 'NONE',  ( -0.0000000000000000000, 1.000000000000000000, -0.0000000000000000000 ) ) ;
#736 = LINE ( 'NONE', #621, #574 ) ;
#737 = ORIENTED_EDGE ( 'NONE', *, *, #474, .T. ) ;
#738 = DIRECTION ( 'NONE',  ( 1.000000000000000000, 0.0000000000000000000, 0.0000000000000000000 ) ) ;
#739 = EDGE_CURVE ( 'NONE', #480, #773, #14, .T. ) ;
#740 = CARTESIAN_POINT ( 'NONE',  ( 0.4999999999999998890, 0.4500000000000000666, -0.2999999999999997113 ) ) ;
#741 = COLOUR_RGB ( '',0.8431372549019607865, 0.8156862745098039102, 0.7529411764705882248 ) ;
#742 = FACE_OUTER_BOUND ( 'NONE', #751, .T. ) ;
#743 = VECTOR ( 'NONE', #427, 1000.000000000000000 ) ;
#744 = ORIENTED_EDGE ( 'NONE', *, *, #372, .T. ) ;
#745 = VECTOR ( 'NONE', #38, 1000.000000000000000 ) ;
#746 = DIRECTION ( 'NONE',  ( 0.0000000000000000000, 0.0000000000000000000, 1.000000000000000000 ) ) ;
#747 = CARTESIAN_POINT ( 'NONE',  ( -0.6799999999999998268, -0.001000000000000186937, 0.4000000000000000222 ) ) ;
#748 = PLANE ( 'NONE',  #162 ) ;
#749 = PLANE ( 'NONE',  #390 ) ;
#750 = VERTEX_POINT ( 'NONE', #689 ) ;
#751 = EDGE_LOOP ( 'NONE', ( #837, #265, #90, #1140 ) ) ;
#752 = PRODUCT ( 'User Library-CR1608-0603', 'User Library-CR1608-0603', '', ( #343 ) ) ;
#753 = DIRECTION ( 'NONE',  ( 1.000000000000000000, 2.168404344971008079E-15, 1.355252715606880296E-16 ) ) ;
#754 = DIRECTION ( 'NONE',  ( -1.242314989306306589E-16, -1.000000000000000000, 1.355252715606880789E-16 ) ) ;
#755 = ORIENTED_EDGE ( 'NONE', *, *, #531, .F. ) ;
#756 = EDGE_CURVE ( 'NONE', #312, #151, #786, .T. ) ;
#757 = ORIENTED_EDGE ( 'NONE', *, *, #970, .T. ) ;
#758 = DIRECTION ( 'NONE',  ( -2.409338161078898687E-16, 1.000000000000000000, 6.965892449317258658E-32 ) ) ;
#759 = DIRECTION ( 'NONE',  ( 0.0000000000000000000, 0.0000000000000000000, 1.000000000000000000 ) ) ;
#760 = ORIENTED_EDGE ( 'NONE', *, *, #93, .T. ) ;
#761 = AXIS2_PLACEMENT_3D ( 'NONE', #286, #456, #99 ) ;
#762 = VECTOR ( 'NONE', #64, 1000.000000000000000 ) ;
#763 = EDGE_CURVE ( 'NONE', #511, #218, #1054, .T. ) ;
#764 = EDGE_LOOP ( 'NONE', ( #885, #755, #114, #485, #380, #169, #507, #102 ) ) ;
#765 = AXIS2_PLACEMENT_3D ( 'NONE', #1018, #1204, #266 ) ;
#766 = FACE_OUTER_BOUND ( 'NONE', #842, .T. ) ;
#767 = DIRECTION ( 'NONE',  ( 1.000000000000000000, 1.242314989306307082E-16, 0.0000000000000000000 ) ) ;
#768 = ORIENTED_EDGE ( 'NONE', *, *, #36, .T. ) ;
#769 = EDGE_CURVE ( 'NONE', #873, #648, #956, .T. ) ;
#770 = CARTESIAN_POINT ( 'NONE',  ( 0.6799999999999998268, 0.4500000000000000666, 0.4000000000000000222 ) ) ;
#771 = DIRECTION ( 'NONE',  ( 1.355252715606880296E-16, -1.355252715606880296E-16, 1.000000000000000000 ) ) ;
#772 = CARTESIAN_POINT ( 'NONE',  ( -0.4999999999999998890, 0.4000000000000000222, 0.4000000000000000222 ) ) ;
#773 = VERTEX_POINT ( 'NONE', #1060 ) ;
#774 = CARTESIAN_POINT ( 'NONE',  ( 1.301560977094069704, 0.4500000000000039524, 0.4000000000000002998 ) ) ;
#775 = ADVANCED_FACE ( 'NONE', ( #578 ), #593, .F. ) ;
#776 = DIRECTION ( 'NONE',  ( 0.0000000000000000000, 0.0000000000000000000, 1.000000000000000000 ) ) ;
#777 = PLANE ( 'NONE',  #1192 ) ;
#778 = ORIENTED_EDGE ( 'NONE', *, *, #891, .T. ) ;
#779 = AXIS2_PLACEMENT_3D ( 'NONE', #917, #836, #905 ) ;
#780 = VECTOR ( 'NONE', #115, 1000.000000000000000 ) ;
#781 = LINE ( 'NONE', #32, #1048 ) ;
#782 =( GEOMETRIC_REPRESENTATION_CONTEXT ( 3 ) GLOBAL_UNCERTAINTY_ASSIGNED_CONTEXT ( ( #443 ) ) GLOBAL_UNIT_ASSIGNED_CONTEXT ( ( #783, #1129, #860 ) ) REPRESENTATION_CONTEXT ( 'NONE', 'WORKASPACE' ) );
#783 =( LENGTH_UNIT ( ) NAMED_UNIT ( * ) SI_UNIT ( .MILLI., .METRE. ) );
#784 = DIRECTION ( 'NONE',  ( 1.355252715606880049E-16, -1.355252715606880296E-16, 1.000000000000000000 ) ) ;
#785 = EDGE_CURVE ( 'NONE', #87, #819, #489, .T. ) ;
#786 = LINE ( 'NONE', #667, #476 ) ;
#787 = VERTEX_POINT ( 'NONE', #94 ) ;
#788 = ORIENTED_EDGE ( 'NONE', *, *, #1013, .F. ) ;
#789 = CARTESIAN_POINT ( 'NONE',  ( -0.8000000000000000444, -1.626303258728256651E-16, -0.4000000000000001332 ) ) ;
#790 =( LENGTH_UNIT ( ) NAMED_UNIT ( * ) SI_UNIT ( .MILLI., .METRE. ) );
#791 = LINE ( 'NONE', #1066, #118 ) ;
#792 = DIRECTION ( 'NONE',  ( -1.000000000000000000, 0.0000000000000000000, 2.891205793294678326E-16 ) ) ;
#793 = VERTEX_POINT ( 'NONE', #193 ) ;
#794 = VERTEX_POINT ( 'NONE', #850 ) ;
#795 = ADVANCED_FACE ( 'NONE', ( #571 ), #5, .F. ) ;
#796 = LINE ( 'NONE', #45, #260 ) ;
#797 = DIRECTION ( 'NONE',  ( 0.0000000000000000000, -1.000000000000000000, -0.0000000000000000000 ) ) ;
#798 = CARTESIAN_POINT ( 'NONE',  ( -0.4999999999999998890, 0.4000000000000000222, -0.4000000000000001887 ) ) ;
#799 = LINE ( 'NONE', #713, #297 ) ;
#800 = CARTESIAN_POINT ( 'NONE',  ( 0.6799999999999998268, 0.3999999999999999112, 0.4000000000000000777 ) ) ;
#801 = FACE_OUTER_BOUND ( 'NONE', #926, .T. ) ;
#802 = EDGE_CURVE ( 'NONE', #528, #161, #478, .T. ) ;
#803 = AXIS2_PLACEMENT_3D ( 'NONE', #646, #3, #375 ) ;
#804 = VECTOR ( 'NONE', #1102, 1000.000000000000000 ) ;
#805 = LINE ( 'NONE', #913, #762 ) ;
#806 = CARTESIAN_POINT ( 'NONE',  ( -0.4999999999999997780, 0.4500000000000000666, -0.4000000000000001887 ) ) ;
#807 = ORIENTED_EDGE ( 'NONE', *, *, #855, .T. ) ;
#808 = VERTEX_POINT ( 'NONE', #1040 ) ;
#809 = LINE ( 'NONE', #222, #659 ) ;
#810 = EDGE_CURVE ( 'NONE', #299, #468, #944, .T. ) ;
#811 = DIRECTION ( 'NONE',  ( -1.000000000000000000, 0.0000000000000000000, -1.355252715606880296E-16 ) ) ;
#812 = CARTESIAN_POINT ( 'NONE',  ( 0.6800000000000002709, 0.4500000000000000666, -0.3999999999999995781 ) ) ;
#813 = CARTESIAN_POINT ( 'NONE',  ( 0.6799999999999998268, -0.001000000000000186937, 0.3000000000000000444 ) ) ;
#814 = ORIENTED_EDGE ( 'NONE', *, *, #382, .F. ) ;
#815 = DIRECTION ( 'NONE',  ( -2.891205793294678326E-16, -1.355252715606880543E-16, -1.000000000000000000 ) ) ;
#816 = DIRECTION ( 'NONE',  ( 4.336808689942018525E-15, -0.0000000000000000000, -1.000000000000000000 ) ) ;
#817 = EDGE_CURVE ( 'NONE', #833, #657, #724, .T. ) ;
#818 = CARTESIAN_POINT ( 'NONE',  ( 0.4999999999999998890, 0.3999999999999999112, 0.3000000000000000444 ) ) ;
#819 = VERTEX_POINT ( 'NONE', #606 ) ;
#820 = LINE ( 'NONE', #467, #557 ) ;
#821 = ORIENTED_EDGE ( 'NONE', *, *, #802, .T. ) ;
#822 = DIRECTION ( 'NONE',  ( 1.000000000000000000, -0.0000000000000000000, -0.0000000000000000000 ) ) ;
#823 = AXIS2_PLACEMENT_3D ( 'NONE', #229, #993, #1087 ) ;
#824 = COLOUR_RGB ( '',0.09803921568627450844, 0.09803921568627450844, 0.09803921568627450844 ) ;
#825 = FACE_OUTER_BOUND ( 'NONE', #653, .T. ) ;
#826 = CARTESIAN_POINT ( 'NONE',  ( 0.8000000000000003775, -1.355252715606880543E-16, 0.3999999999999997446 ) ) ;
#827 = AXIS2_PLACEMENT_3D ( 'NONE', #110, #302, #1052 ) ;
#828 = EDGE_CURVE ( 'NONE', #113, #170, #526, .T. ) ;
#829 = ADVANCED_FACE ( 'NONE', ( #337 ), #1082, .F. ) ;
#830 = CARTESIAN_POINT ( 'NONE',  ( -0.4999999999999998890, 0.02500000000000007772, -1.084202172485504434E-16 ) ) ;
#831 = DIRECTION ( 'NONE',  ( -1.000000000000000000, 1.242314989306307082E-16, 2.891205793294678326E-16 ) ) ;
#832 = DIRECTION ( 'NONE',  ( 4.246458508901558376E-16, 1.508551083555264881E-30, 1.000000000000000000 ) ) ;
#833 = VERTEX_POINT ( 'NONE', #613 ) ;
#834 = EDGE_CURVE ( 'NONE', #794, #660, #1168, .T. ) ;
#835 = PLANE ( 'NONE',  #558 ) ;
#836 = DIRECTION ( 'NONE',  ( 1.000000000000000000, 0.0000000000000000000, 0.0000000000000000000 ) ) ;
#837 = ORIENTED_EDGE ( 'NONE', *, *, #116, .T. ) ;
#838 = DIRECTION ( 'NONE',  ( -2.168404344971003346E-15, -1.000000000000000000, -5.877471754111428782E-31 ) ) ;
#839 = AXIS2_PLACEMENT_3D ( 'NONE', #153, #712, #432 ) ;
#840 = PLANE ( 'NONE',  #914 ) ;
#841 = VECTOR ( 'NONE', #323, 1000.000000000000000 ) ;
#842 = EDGE_LOOP ( 'NONE', ( #394, #30, #1042, #668 ) ) ;
#843 = AXIS2_PLACEMENT_3D ( 'NONE', #125, #309, #1188 ) ;
#844 = FACE_OUTER_BOUND ( 'NONE', #1123, .T. ) ;
#845 = EDGE_CURVE ( 'NONE', #170, #1023, #706, .T. ) ;
#846 = FACE_OUTER_BOUND ( 'NONE', #715, .T. ) ;
#847 = ORIENTED_EDGE ( 'NONE', *, *, #411, .F. ) ;
#848 = PRESENTATION_STYLE_ASSIGNMENT (( #553 ) ) ;
#849 = ADVANCED_FACE ( 'NONE', ( #1162 ), #332, .F. ) ;
#850 = CARTESIAN_POINT ( 'NONE',  ( 0.6799999999999998268, 0.4500000000000000666, -0.2999999999999996003 ) ) ;
#851 = VERTEX_POINT ( 'NONE', #1096 ) ;
#852 = FACE_OUTER_BOUND ( 'NONE', #54, .T. ) ;
#853 = CARTESIAN_POINT ( 'NONE',  ( -0.8000000000000000444, -1.626303258728256651E-16, 0.4000000000000000222 ) ) ;
#854 = ORIENTED_EDGE ( 'NONE', *, *, #674, .T. ) ;
#855 = EDGE_CURVE ( 'NONE', #1207, #312, #244, .T. ) ;
#856 = MECHANICAL_DESIGN_GEOMETRIC_PRESENTATION_REPRESENTATION (  '', ( #946 ), #1010 ) ;
#857 = AXIS2_PLACEMENT_3D ( 'NONE', #135, #1072, #420 ) ;
#858 = ORIENTED_EDGE ( 'NONE', *, *, #168, .F. ) ;
#859 = EDGE_CURVE ( 'NONE', #657, #648, #34, .T. ) ;
#860 =( NAMED_UNIT ( * ) SI_UNIT ( $, .STERADIAN. ) SOLID_ANGLE_UNIT ( ) );
#861 = DIRECTION ( 'NONE',  ( -0.0000000000000000000, -0.0000000000000000000, 1.000000000000000000 ) ) ;
#862 = EDGE_LOOP ( 'NONE', ( #602, #546, #974, #431 ) ) ;
#863 = EDGE_CURVE ( 'NONE', #773, #313, #888, .T. ) ;
#864 = LINE ( 'NONE', #1221, #661 ) ;
#865 = DIRECTION ( 'NONE',  ( -2.409338161078898687E-16, -1.000000000000000000, 0.0000000000000000000 ) ) ;
#866 = VERTEX_POINT ( 'NONE', #628 ) ;
#867 = ORIENTED_EDGE ( 'NONE', *, *, #544, .F. ) ;
#868 = DIRECTION ( 'NONE',  ( -0.0000000000000000000, 1.000000000000000000, -0.0000000000000000000 ) ) ;
#869 = CARTESIAN_POINT ( 'NONE',  ( -1.576560977094069838, 0.4500000000000000666, -0.4000000000000001887 ) ) ;
#870 = SURFACE_STYLE_USAGE ( .BOTH. , #210 ) ;
#871 = DIRECTION ( 'NONE',  ( 1.000000000000000000, -0.0000000000000000000, 6.023345402697248937E-16 ) ) ;
#872 = EDGE_LOOP ( 'NONE', ( #41, #31, #177, #1206, #1198, #1084, #1193, #1085 ) ) ;
#873 = VERTEX_POINT ( 'NONE', #406 ) ;
#874 = VECTOR ( 'NONE', #922, 1000.000000000000000 ) ;
#875 = AXIS2_PLACEMENT_3D ( 'NONE', #502, #935, #533 ) ;
#876 = DIRECTION ( 'NONE',  ( 1.242314989306307082E-16, 1.000000000000000000, -3.591788294179211222E-32 ) ) ;
#877 = VECTOR ( 'NONE', #416, 1000.000000000000000 ) ;
#878 = CARTESIAN_POINT ( 'NONE',  ( 0.4999999999999998890, -0.001000000000000186937, 0.3000000000000000444 ) ) ;
#879 = EDGE_LOOP ( 'NONE', ( #1186, #940, #449, #1156 ) ) ;
#880 = ORIENTED_EDGE ( 'NONE', *, *, #67, .F. ) ;
#881 = FACE_OUTER_BOUND ( 'NONE', #733, .T. ) ;
#882 = LINE ( 'NONE', #136, #1134 ) ;
#883 = DIRECTION ( 'NONE',  ( 0.0000000000000000000, 1.084202172485501673E-15, -1.000000000000000000 ) ) ;
#884 = CARTESIAN_POINT ( 'NONE',  ( -0.6799999999999996048, -0.001000000000000186937, -0.3000000000000003775 ) ) ;
#885 = ORIENTED_EDGE ( 'NONE', *, *, #93, .F. ) ;
#886 = FACE_OUTER_BOUND ( 'NONE', #720, .T. ) ;
#887 =( LENGTH_UNIT ( ) NAMED_UNIT ( * ) SI_UNIT ( .MILLI., .METRE. ) );
#888 = LINE ( 'NONE', #620, #1211 ) ;
#889 = ORIENTED_EDGE ( 'NONE', *, *, #67, .T. ) ;
#890 = ORIENTED_EDGE ( 'NONE', *, *, #377, .F. ) ;
#891 = EDGE_CURVE ( 'NONE', #648, #1106, #225, .T. ) ;
#892 = LINE ( 'NONE', #709, #1071 ) ;
#893 =( GEOMETRIC_REPRESENTATION_CONTEXT ( 3 ) GLOBAL_UNCERTAINTY_ASSIGNED_CONTEXT ( ( #633 ) ) GLOBAL_UNIT_ASSIGNED_CONTEXT ( ( #362, #368, #111 ) ) REPRESENTATION_CONTEXT ( 'NONE', 'WORKASPACE' ) );
#894 = ADVANCED_FACE ( 'NONE', ( #999 ), #696, .T. ) ;
#895 = AXIS2_PLACEMENT_3D ( 'NONE', #830, #329, #716 ) ;
#896 = AXIS2_PLACEMENT_3D ( 'NONE', #1154, #18, #758 ) ;
#897 = LINE ( 'NONE', #46, #643 ) ;
#898 = DIRECTION ( 'NONE',  ( -2.409338161078898687E-16, -1.000000000000000000, 0.0000000000000000000 ) ) ;
#899 = CARTESIAN_POINT ( 'NONE',  ( 0.8000000000000001554, -1.626303258728256651E-16, 0.3999999999999998002 ) ) ;
#900 = ORIENTED_EDGE ( 'NONE', *, *, #734, .T. ) ;
#901 = DIRECTION ( 'NONE',  ( 3.134651602192758514E-31, 1.000000000000000000, 1.084202172485501673E-15 ) ) ;
#902 = EDGE_CURVE ( 'NONE', #113, #469, #994, .T. ) ;
#903 = DIRECTION ( 'NONE',  ( 1.242314989306307082E-16, -1.000000000000000000, 1.084202172485501476E-15 ) ) ;
#904 = DIRECTION ( 'NONE',  ( -0.0000000000000000000, 1.000000000000000000, -0.0000000000000000000 ) ) ;
#905 = DIRECTION ( 'NONE',  ( 0.0000000000000000000, 0.0000000000000000000, -1.000000000000000000 ) ) ;
#906 = EDGE_LOOP ( 'NONE', ( #251, #282, #395, #370 ) ) ;
#907 = FACE_OUTER_BOUND ( 'NONE', #227, .T. ) ;
#908 = PLANE ( 'NONE',  #1173 ) ;
#909 = LINE ( 'NONE', #543, #990 ) ;
#910 = ORIENTED_EDGE ( 'NONE', *, *, #1128, .F. ) ;
#911 = CARTESIAN_POINT ( 'NONE',  ( 0.7500000000000002220, 0.05000000000000000278, 0.4000000000000000222 ) ) ;
#912 = UNCERTAINTY_MEASURE_WITH_UNIT (LENGTH_MEASURE( 1.000000000000000082E-05 ), #472, 'distance_accuracy_value', 'NONE');
#913 = CARTESIAN_POINT ( 'NONE',  ( -1.576560977094070060, 0.4500000000000000666, 0.4000000000000000222 ) ) ;
#914 = AXIS2_PLACEMENT_3D ( 'NONE', #1217, #172, #192 ) ;
#915 = AXIS2_PLACEMENT_3D ( 'NONE', #656, #989, #562 ) ;
#916 = CARTESIAN_POINT ( 'NONE',  ( 0.4999999999999998890, 0.4000000000000000222, -0.2999999999999997113 ) ) ;
#917 = CARTESIAN_POINT ( 'NONE',  ( -0.7499999999999997780, 0.4000000000000000222, -0.3999999999999999667 ) ) ;
#918 = EDGE_CURVE ( 'NONE', #793, #161, #972, .T. ) ;
#919 = VERTEX_POINT ( 'NONE', #326 ) ;
#920 = ORIENTED_EDGE ( 'NONE', *, *, #316, .T. ) ;
#921 = FACE_OUTER_BOUND ( 'NONE', #1220, .T. ) ;
#922 = DIRECTION ( 'NONE',  ( -0.0000000000000000000, -1.000000000000000000, -0.0000000000000000000 ) ) ;
#923 = EDGE_CURVE ( 'NONE', #376, #1062, #799, .T. ) ;
#924 = ORIENTED_EDGE ( 'NONE', *, *, #127, .F. ) ;
#925 = LINE ( 'NONE', #249, #418 ) ;
#926 = EDGE_LOOP ( 'NONE', ( #963, #682, #1068, #609 ) ) ;
#927 = EDGE_LOOP ( 'NONE', ( #452, #744, #587, #134 ) ) ;
#928 = FILL_AREA_STYLE_COLOUR ( '', #122 ) ;
#929 = CLOSED_SHELL ( 'NONE', ( #1166, #1100, #1190, #1020, #981, #524 ) ) ;
#930 = VECTOR ( 'NONE', #1080, 1000.000000000000000 ) ;
#931 = FACE_OUTER_BOUND ( 'NONE', #862, .T. ) ;
#932 = ORIENTED_EDGE ( 'NONE', *, *, #785, .F. ) ;
#933 = EDGE_CURVE ( 'NONE', #630, #657, #138, .T. ) ;
#934 = FACE_OUTER_BOUND ( 'NONE', #879, .T. ) ;
#935 = DIRECTION ( 'NONE',  ( 0.0000000000000000000, 1.000000000000000000, 1.355252715606880296E-16 ) ) ;
#936 = ORIENTED_EDGE ( 'NONE', *, *, #201, .T. ) ;
#937 = DIRECTION ( 'NONE',  ( -0.0000000000000000000, 1.000000000000000000, -0.0000000000000000000 ) ) ;
#938 = EDGE_CURVE ( 'NONE', #866, #1023, #47, .T. ) ;
#939 = CARTESIAN_POINT ( 'NONE',  ( 0.4999999999999997780, 0.04999999999999989175, -0.4000000000000004108 ) ) ;
#940 = ORIENTED_EDGE ( 'NONE', *, *, #859, .F. ) ;
#941 = PLANE ( 'NONE',  #521 ) ;
#942 = SURFACE_SIDE_STYLE ('',( #569 ) ) ;
#943 = VECTOR ( 'NONE', #771, 1000.000000000000000 ) ;
#944 = LINE ( 'NONE', #101, #575 ) ;
#945 = ORIENTED_EDGE ( 'NONE', *, *, #393, .T. ) ;
#946 = STYLED_ITEM ( 'NONE', ( #1099 ), #686 ) ;
#947 = ADVANCED_FACE ( 'NONE', ( #844 ), #908, .F. ) ;
#948 = AXIS2_PLACEMENT_3D ( 'NONE', #774, #324, #811 ) ;
#949 = ORIENTED_EDGE ( 'NONE', *, *, #647, .T. ) ;
#950 = PLANE ( 'NONE',  #948 ) ;
#951 = FILL_AREA_STYLE_COLOUR ( '', #741 ) ;
#952 = DIRECTION ( 'NONE',  ( -1.535953077687797291E-16, -1.355252715606880789E-16, -1.000000000000000000 ) ) ;
#953 = ORIENTED_EDGE ( 'NONE', *, *, #978, .F. ) ;
#954 = LINE ( 'NONE', #514, #238 ) ;
#955 = DIRECTION ( 'NONE',  ( -1.000000000000000000, 2.409338161078898687E-16, 0.0000000000000000000 ) ) ;
#956 = LINE ( 'NONE', #112, #219 ) ;
#957 = VERTEX_POINT ( 'NONE', #171 ) ;
#958 = EDGE_LOOP ( 'NONE', ( #1224, #708, #768, #1078 ) ) ;
#959 = CARTESIAN_POINT ( 'NONE',  ( 0.4999999999999997780, 0.4500000000000022315, -0.4000000000000000222 ) ) ;
#960 = EDGE_CURVE ( 'NONE', #957, #1036, #76, .T. ) ;
#961 = FACE_OUTER_BOUND ( 'NONE', #1025, .T. ) ;
#962 = DIRECTION ( 'NONE',  ( 0.0000000000000000000, 0.0000000000000000000, -1.000000000000000000 ) ) ;
#963 = ORIENTED_EDGE ( 'NONE', *, *, #590, .T. ) ;
#964 = EDGE_LOOP ( 'NONE', ( #973, #572, #867, #48 ) ) ;
#965 = MECHANICAL_DESIGN_GEOMETRIC_PRESENTATION_REPRESENTATION (  '', ( #1008 ), #893 ) ;
#966 = VECTOR ( 'NONE', #205, 1000.000000000000000 ) ;
#967 = CARTESIAN_POINT ( 'NONE',  ( 0.6799999999999998268, 0.3999999999999999112, 0.3000000000000000444 ) ) ;
#968 = VECTOR ( 'NONE', #1176, 1000.000000000000000 ) ;
#969 =( NAMED_UNIT ( * ) SI_UNIT ( $, .STERADIAN. ) SOLID_ANGLE_UNIT ( ) );
#970 = EDGE_CURVE ( 'NONE', #313, #873, #159, .T. ) ;
#971 = LINE ( 'NONE', #482, #493 ) ;
#972 = LINE ( 'NONE', #806, #1073 ) ;
#973 = ORIENTED_EDGE ( 'NONE', *, *, #671, .F. ) ;
#974 = ORIENTED_EDGE ( 'NONE', *, *, #702, .T. ) ;
#975 = CARTESIAN_POINT ( 'NONE',  ( 0.4999999999999997780, 0.05000000000000032196, -0.4000000000000003553 ) ) ;
#976 =( LENGTH_UNIT ( ) NAMED_UNIT ( * ) SI_UNIT ( .MILLI., .METRE. ) );
#977 = DIRECTION ( 'NONE',  ( 1.000000000000000000, 0.0000000000000000000, 0.0000000000000000000 ) ) ;
#978 = EDGE_CURVE ( 'NONE', #419, #1152, #462, .T. ) ;
#979 = CARTESIAN_POINT ( 'NONE',  ( -0.4999999999999998890, 0.04999999999999989175, -0.4000000000000002442 ) ) ;
#980 = VERTEX_POINT ( 'NONE', #1120 ) ;
#981 = ADVANCED_FACE ( 'NONE', ( #65 ), #835, .F. ) ;
#982 = ORIENTED_EDGE ( 'NONE', *, *, #1076, .T. ) ;
#983 = DIRECTION ( 'NONE',  ( -1.000000000000000000, 0.0000000000000000000, 0.0000000000000000000 ) ) ;
#984 = FACE_OUTER_BOUND ( 'NONE', #1001, .T. ) ;
#985 = DIRECTION ( 'NONE',  ( 2.409338161078898687E-16, -1.000000000000000000, -6.965892449317258658E-32 ) ) ;
#986 = LINE ( 'NONE', #256, #700 ) ;
#987 = ORIENTED_EDGE ( 'NONE', *, *, #693, .T. ) ;
#988 = ADVANCED_FACE ( 'NONE', ( #825 ), #542, .F. ) ;
#989 = DIRECTION ( 'NONE',  ( -1.000000000000000000, -2.168404344971003346E-15, -1.355252715606880296E-16 ) ) ;
#990 = VECTOR ( 'NONE', #527, 1000.000000000000000 ) ;
#991 = AXIS2_PLACEMENT_3D ( 'NONE', #1077, #883, #311 ) ;
#992 = PLANE ( 'NONE',  #600 ) ;
#993 = DIRECTION ( 'NONE',  ( 1.000000000000000000, 0.0000000000000000000, 4.336808689942018525E-15 ) ) ;
#994 = LINE ( 'NONE', #217, #877 ) ;
#995 = LINE ( 'NONE', #629, #1045 ) ;
#996 = ORIENTED_EDGE ( 'NONE', *, *, #103, .F. ) ;
#997 = SURFACE_STYLE_USAGE ( .BOTH. , #529 ) ;
#998 = DIRECTION ( 'NONE',  ( 0.0000000000000000000, -1.000000000000000000, -0.0000000000000000000 ) ) ;
#999 = FACE_OUTER_BOUND ( 'NONE', #964, .T. ) ;
#1000 = DIRECTION ( 'NONE',  ( -1.000000000000000000, -2.168404344971003346E-15, -1.355252715606880296E-16 ) ) ;
#1001 = EDGE_LOOP ( 'NONE', ( #1144, #1180, #288, #269 ) ) ;
#1002 = CARTESIAN_POINT ( 'NONE',  ( -0.6799999999999998268, 0.4500000000000000666, 0.4000000000000000222 ) ) ;
#1003 = CARTESIAN_POINT ( 'NONE',  ( 0.6799999999999998268, 0.3999999999999999112, 0.3999999999999998002 ) ) ;
#1004 = EDGE_CURVE ( 'NONE', #623, #664, #1107, .T. ) ;
#1005 = CARTESIAN_POINT ( 'NONE',  ( -0.4999999999999996669, 0.4000000000000000222, -0.3000000000000002665 ) ) ;
#1006 = DIRECTION ( 'NONE',  ( -2.168404344971003346E-15, -1.000000000000000000, 6.269303204385517027E-31 ) ) ;
#1007 = EDGE_LOOP ( 'NONE', ( #460, #320, #608, #880 ) ) ;
#1008 = STYLED_ITEM ( 'NONE', ( #848 ), #252 ) ;
#1009 = UNCERTAINTY_MEASURE_WITH_UNIT (LENGTH_MEASURE( 1.000000000000000082E-05 ), #976, 'distance_accuracy_value', 'NONE');
#1010 =( GEOMETRIC_REPRESENTATION_CONTEXT ( 3 ) GLOBAL_UNCERTAINTY_ASSIGNED_CONTEXT ( ( #912 ) ) GLOBAL_UNIT_ASSIGNED_CONTEXT ( ( #472, #10, #298 ) ) REPRESENTATION_CONTEXT ( 'NONE', 'WORKASPACE' ) );
#1011 = VECTOR ( 'NONE', #1, 1000.000000000000000 ) ;
#1012 = DIRECTION ( 'NONE',  ( 2.409338161078898687E-16, -1.000000000000000000, -6.965892449317258658E-32 ) ) ;
#1013 = EDGE_CURVE ( 'NONE', #684, #347, #1216, .T. ) ;
#1014 = EDGE_CURVE ( 'NONE', #564, #866, #1125, .T. ) ;
#1015 = LINE ( 'NONE', #167, #61 ) ;
#1016 = VECTOR ( 'NONE', #635, 1000.000000000000000 ) ;
#1017 = VERTEX_POINT ( 'NONE', #72 ) ;
#1018 = CARTESIAN_POINT ( 'NONE',  ( 1.301560977094069704, 0.4500000000000039524, 0.4000000000000002998 ) ) ;
#1019 = ADVANCED_FACE ( 'NONE', ( #535 ), #532, .T. ) ;
#1020 = ADVANCED_FACE ( 'NONE', ( #921 ), #547, .F. ) ;
#1021 = LINE ( 'NONE', #1005, #1016 ) ;
#1022 = DIRECTION ( 'NONE',  ( 1.355252715606880296E-16, 0.0000000000000000000, -1.000000000000000000 ) ) ;
#1023 = VERTEX_POINT ( 'NONE', #740 ) ;
#1024 = EDGE_CURVE ( 'NONE', #365, #218, #433, .T. ) ;
#1025 = EDGE_LOOP ( 'NONE', ( #424, #500, #120, #490, #953, #652, #858, #163 ) ) ;
#1026 = DIRECTION ( 'NONE',  ( -1.242314989306307082E-16, 1.000000000000000000, 0.0000000000000000000 ) ) ;
#1027 = AXIS2_PLACEMENT_3D ( 'NONE', #384, #962, #483 ) ;
#1028 = DIRECTION ( 'NONE',  ( -1.242314989306303877E-16, -1.000000000000000000, 1.084202172485501476E-15 ) ) ;
#1029 = VERTEX_POINT ( 'NONE', #649 ) ;
#1030 = VECTOR ( 'NONE', #465, 1000.000000000000000 ) ;
#1031 = EDGE_CURVE ( 'NONE', #1029, #408, #925, .T. ) ;
#1032 = PRESENTATION_STYLE_ASSIGNMENT (( #560 ) ) ;
#1033 = PLANE ( 'NONE',  #803 ) ;
#1034 = DIRECTION ( 'NONE',  ( -1.000000000000000000, 0.0000000000000000000, 0.0000000000000000000 ) ) ;
#1035 = ORIENTED_EDGE ( 'NONE', *, *, #863, .T. ) ;
#1036 = VERTEX_POINT ( 'NONE', #166 ) ;
#1037 = DIRECTION ( 'NONE',  ( -1.000000000000000000, 0.0000000000000000000, 2.891205793294678326E-16 ) ) ;
#1038 = EDGE_CURVE ( 'NONE', #1219, #87, #1021, .T. ) ;
#1039 = CARTESIAN_POINT ( 'NONE',  ( 0.5000000000000000000, 0.05000000000000000278, 0.3999999999999997446 ) ) ;
#1040 = CARTESIAN_POINT ( 'NONE',  ( -0.6799999999999998268, 0.3999999999999999112, 0.3000000000000000444 ) ) ;
#1041 = ORIENTED_EDGE ( 'NONE', *, *, #382, .T. ) ;
#1042 = ORIENTED_EDGE ( 'NONE', *, *, #739, .F. ) ;
#1043 = DIRECTION ( 'NONE',  ( -1.000000000000000000, 1.242314989306307082E-16, 2.891205793294678326E-16 ) ) ;
#1044 = DIRECTION ( 'NONE',  ( 1.000000000000000000, 0.0000000000000000000, -0.0000000000000000000 ) ) ;
#1045 = VECTOR ( 'NONE', #155, 1000.000000000000000 ) ;
#1046 = DIRECTION ( 'NONE',  ( -1.242314989306307082E-16, 1.000000000000000000, 0.0000000000000000000 ) ) ;
#1047 = ORIENTED_EDGE ( 'NONE', *, *, #1031, .F. ) ;
#1048 = VECTOR ( 'NONE', #876, 1000.000000000000000 ) ;
#1049 = AXIS2_PLACEMENT_3D ( 'NONE', #349, #154, #1103 ) ;
#1050 = PRODUCT_DEFINITION_FORMATION_WITH_SPECIFIED_SOURCE ( 'ANY', '', #752, .NOT_KNOWN. ) ;
#1051 = FACE_OUTER_BOUND ( 'NONE', #563, .T. ) ;
#1052 = DIRECTION ( 'NONE',  ( -1.000000000000000000, -2.168404344971003346E-15, 0.0000000000000000000 ) ) ;
#1053 = DIRECTION ( 'NONE',  ( 2.409338161078898687E-16, -1.000000000000000000, -6.965892449317258658E-32 ) ) ;
#1054 = LINE ( 'NONE', #939, #43 ) ;
#1055 = VERTEX_POINT ( 'NONE', #445 ) ;
#1056 = ORIENTED_EDGE ( 'NONE', *, *, #938, .F. ) ;
#1057 = LINE ( 'NONE', #508, #1093 ) ;
#1058 = CARTESIAN_POINT ( 'NONE',  ( -0.7999999999999999334, 0.4500000000000000666, 0.4000000000000000222 ) ) ;
#1059 = MANIFOLD_SOLID_BREP ( 'Extruir5[1]', #388 ) ;
#1060 = CARTESIAN_POINT ( 'NONE',  ( -0.8000000000000002665, -1.355252715606880543E-16, 0.3999999999999999667 ) ) ;
#1061 = ORIENTED_EDGE ( 'NONE', *, *, #960, .F. ) ;
#1062 = VERTEX_POINT ( 'NONE', #568 ) ;
#1063 = CARTESIAN_POINT ( 'NONE',  ( 0.6799999999999998268, 0.4000000000000000222, -0.2999999999999996003 ) ) ;
#1064 = EDGE_CURVE ( 'NONE', #1055, #419, #450, .T. ) ;
#1065 = DIRECTION ( 'NONE',  ( 0.0000000000000000000, -0.0000000000000000000, 1.000000000000000000 ) ) ;
#1066 = CARTESIAN_POINT ( 'NONE',  ( -0.6799999999999998268, -0.001000000000000186937, 0.3000000000000000444 ) ) ;
#1067 = CARTESIAN_POINT ( 'NONE',  ( 0.7500000000000001110, 0.4000000000000000222, -0.4000000000000001332 ) ) ;
#1068 = ORIENTED_EDGE ( 'NONE', *, *, #933, .F. ) ;
#1069 = ORIENTED_EDGE ( 'NONE', *, *, #75, .F. ) ;
#1070 = VECTOR ( 'NONE', #231, 1000.000000000000000 ) ;
#1071 = VECTOR ( 'NONE', #868, 1000.000000000000000 ) ;
#1072 = DIRECTION ( 'NONE',  ( 0.0000000000000000000, -1.000000000000000000, 0.0000000000000000000 ) ) ;
#1073 = VECTOR ( 'NONE', #147, 1000.000000000000000 ) ;
#1074 = EDGE_CURVE ( 'NONE', #408, #1145, #864, .T. ) ;
#1075 = SURFACE_SIDE_STYLE ('',( #515 ) ) ;
#1076 = EDGE_CURVE ( 'NONE', #1214, #42, #481, .T. ) ;
#1077 = CARTESIAN_POINT ( 'NONE',  ( -1.576560977094069838, 0.3999999999999999112, 0.3999999999999999667 ) ) ;
#1078 = ORIENTED_EDGE ( 'NONE', *, *, #1157, .T. ) ;
#1079 = ORIENTED_EDGE ( 'NONE', *, *, #1014, .F. ) ;
#1080 = DIRECTION ( 'NONE',  ( -1.000000000000000000, -0.0000000000000000000, -0.0000000000000000000 ) ) ;
#1081 = CARTESIAN_POINT ( 'NONE',  ( 0.7499999999999998890, 0.3999999999999999667, 0.3999999999999997446 ) ) ;
#1082 = PLANE ( 'NONE',  #991 ) ;
#1083 = ADVANCED_FACE ( 'NONE', ( #852 ), #91, .T. ) ;
#1084 = ORIENTED_EDGE ( 'NONE', *, *, #544, .T. ) ;
#1085 = ORIENTED_EDGE ( 'NONE', *, *, #923, .F. ) ;
#1086 = DIRECTION ( 'NONE',  ( -2.409338161078898687E-16, -1.000000000000000000, 0.0000000000000000000 ) ) ;
#1087 = DIRECTION ( 'NONE',  ( 4.336808689942018525E-15, 0.0000000000000000000, -1.000000000000000000 ) ) ;
#1088 = DIRECTION ( 'NONE',  ( 1.000000000000000000, 1.242314989306307082E-16, 0.0000000000000000000 ) ) ;
#1089 = LINE ( 'NONE', #719, #80 ) ;
#1090 = LINE ( 'NONE', #1148, #704 ) ;
#1091 = VECTOR ( 'NONE', #148, 1000.000000000000000 ) ;
#1092 = ORIENTED_EDGE ( 'NONE', *, *, #453, .T. ) ;
#1093 = VECTOR ( 'NONE', #610, 1000.000000000000000 ) ;
#1094 = AXIS2_PLACEMENT_3D ( 'NONE', #70, #746, #738 ) ;
#1095 = LINE ( 'NONE', #243, #597 ) ;
#1096 = CARTESIAN_POINT ( 'NONE',  ( 0.8000000000000003775, -1.355252715606880543E-16, 0.3999999999999997446 ) ) ;
#1097 = DIRECTION ( 'NONE',  ( -0.0000000000000000000, 1.000000000000000000, -0.0000000000000000000 ) ) ;
#1098 = ORIENTED_EDGE ( 'NONE', *, *, #1175, .T. ) ;
#1099 = PRESENTATION_STYLE_ASSIGNMENT (( #997 ) ) ;
#1100 = ADVANCED_FACE ( 'NONE', ( #279 ), #97, .F. ) ;
#1101 = APPLICATION_PROTOCOL_DEFINITION ( 'draft international standard', 'automotive_design', 1998, #548 ) ;
#1102 = DIRECTION ( 'NONE',  ( 2.168404344971003346E-15, 1.000000000000000000, 2.938735877055710888E-31 ) ) ;
#1103 = DIRECTION ( 'NONE',  ( 1.000000000000000000, 0.0000000000000000000, 6.023345402697248937E-16 ) ) ;
#1104 = FACE_OUTER_BOUND ( 'NONE', #484, .T. ) ;
#1105 = ORIENTED_EDGE ( 'NONE', *, *, #69, .F. ) ;
#1106 = VERTEX_POINT ( 'NONE', #470 ) ;
#1107 = LINE ( 'NONE', #747, #7 ) ;
#1108 = DIRECTION ( 'NONE',  ( -1.000000000000000000, -2.168404344971003346E-15, -1.355252715606880296E-16 ) ) ;
#1109 = ORIENTED_EDGE ( 'NONE', *, *, #923, .T. ) ;
#1110 = ORIENTED_EDGE ( 'NONE', *, *, #179, .T. ) ;
#1111 = VECTOR ( 'NONE', #407, 1000.000000000000000 ) ;
#1112 = EDGE_CURVE ( 'NONE', #305, #660, #203, .T. ) ;
#1113 = VECTOR ( 'NONE', #119, 1000.000000000000000 ) ;
#1114 = VECTOR ( 'NONE', #272, 1000.000000000000000 ) ;
#1115 = CARTESIAN_POINT ( 'NONE',  ( 0.4999999999999998890, -0.001000000000000186937, -0.2999999999999997113 ) ) ;
#1116 = ADVANCED_FACE ( 'NONE', ( #374 ), #477, .F. ) ;
#1117 = FACE_OUTER_BOUND ( 'NONE', #464, .T. ) ;
#1118 = ORIENTED_EDGE ( 'NONE', *, *, #401, .F. ) ;
#1119 = ORIENTED_EDGE ( 'NONE', *, *, #550, .T. ) ;
#1120 = CARTESIAN_POINT ( 'NONE',  ( 0.4999999999999997780, -1.253608761936364502E-16, -0.4000000000000001887 ) ) ;
#1121 = ADVANCED_FACE ( 'NONE', ( #766 ), #941, .F. ) ;
#1122 = CARTESIAN_POINT ( 'NONE',  ( -0.6799999999999998268, -0.001000000000000186937, 0.4000000000000000222 ) ) ;
#1123 = EDGE_LOOP ( 'NONE', ( #588, #195, #258, #1069 ) ) ;
#1124 = ORIENTED_EDGE ( 'NONE', *, *, #933, .T. ) ;
#1125 = LINE ( 'NONE', #916, #24 ) ;
#1126 = CARTESIAN_POINT ( 'NONE',  ( -0.4999999999999998890, 0.05000000000000032196, -0.4000000000000001887 ) ) ;
#1127 = ORIENTED_EDGE ( 'NONE', *, *, #845, .T. ) ;
#1128 = EDGE_CURVE ( 'NONE', #376, #750, #666, .T. ) ;
#1129 =( NAMED_UNIT ( * ) PLANE_ANGLE_UNIT ( ) SI_UNIT ( $, .RADIAN. ) );
#1130 = VECTOR ( 'NONE', #952, 1000.000000000000000 ) ;
#1131 = VECTOR ( 'NONE', #871, 1000.000000000000000 ) ;
#1132 = CARTESIAN_POINT ( 'NONE',  ( 1.301560977094069926, 0.4500000000000039524, -0.3999999999999999112 ) ) ;
#1133 = ORIENTED_EDGE ( 'NONE', *, *, #12, .T. ) ;
#1134 = VECTOR ( 'NONE', #330, 1000.000000000000000 ) ;
#1135 = ORIENTED_EDGE ( 'NONE', *, *, #12, .F. ) ;
#1136 = EDGE_CURVE ( 'NONE', #386, #851, #182, .T. ) ;
#1137 = CARTESIAN_POINT ( 'NONE',  ( -0.8000000000000000444, -1.626303258728256651E-16, 0.4000000000000000222 ) ) ;
#1138 = PLANE ( 'NONE',  #761 ) ;
#1139 = DIRECTION ( 'NONE',  ( -1.000000000000000000, -2.168404344971003346E-15, -1.355252715606880296E-16 ) ) ;
#1140 = ORIENTED_EDGE ( 'NONE', *, *, #1076, .F. ) ;
#1141 = ORIENTED_EDGE ( 'NONE', *, *, #1031, .T. ) ;
#1142 = LINE ( 'NONE', #670, #261 ) ;
#1143 =( NAMED_UNIT ( * ) SI_UNIT ( $, .STERADIAN. ) SOLID_ANGLE_UNIT ( ) );
#1144 = ORIENTED_EDGE ( 'NONE', *, *, #393, .F. ) ;
#1145 = VERTEX_POINT ( 'NONE', #770 ) ;
#1146 = CARTESIAN_POINT ( 'NONE',  ( -0.7499999999999997780, 0.4000000000000000222, -0.3999999999999999667 ) ) ;
#1147 = AXIS2_PLACEMENT_3D ( 'NONE', #655, #471, #280 ) ;
#1148 = CARTESIAN_POINT ( 'NONE',  ( -0.4999999999999998890, 0.4500000000000000666, 0.3000000000000000444 ) ) ;
#1149 = ORIENTED_EDGE ( 'NONE', *, *, #615, .F. ) ;
#1150 = AXIS2_PLACEMENT_3D ( 'NONE', #1189, #601, #792 ) ;
#1151 = COLOUR_RGB ( '',0.7960784313725489669, 0.8235294117647058432, 0.9372549019607843146 ) ;
#1152 = VERTEX_POINT ( 'NONE', #383 ) ;
#1153 = PLANE ( 'NONE',  #415 ) ;
#1154 = CARTESIAN_POINT ( 'NONE',  ( 0.7499999999999998890, 0.4000000000000000222, -0.4000000000000005218 ) ) ;
#1155 = FACE_OUTER_BOUND ( 'NONE', #360, .T. ) ;
#1156 = ORIENTED_EDGE ( 'NONE', *, *, #711, .T. ) ;
#1157 = EDGE_CURVE ( 'NONE', #1062, #511, #1142, .T. ) ;
#1158 = ORIENTED_EDGE ( 'NONE', *, *, #1013, .T. ) ;
#1159 = DIRECTION ( 'NONE',  ( 1.000000000000000000, -2.409338161078898687E-16, -1.355252715606880543E-16 ) ) ;
#1160 =( NAMED_UNIT ( * ) PLANE_ANGLE_UNIT ( ) SI_UNIT ( $, .RADIAN. ) );
#1161 = FILL_AREA_STYLE ('',( #951 ) ) ;
#1162 = FACE_OUTER_BOUND ( 'NONE', #872, .T. ) ;
#1163 = ORIENTED_EDGE ( 'NONE', *, *, #333, .F. ) ;
#1164 = VERTEX_POINT ( 'NONE', #196 ) ;
#1165 = LINE ( 'NONE', #699, #164 ) ;
#1166 = ADVANCED_FACE ( 'NONE', ( #576 ), #950, .F. ) ;
#1167 = DIRECTION ( 'NONE',  ( -0.0000000000000000000, 1.000000000000000000, -0.0000000000000000000 ) ) ;
#1168 = LINE ( 'NONE', #812, #459 ) ;
#1169 = DIRECTION ( 'NONE',  ( 0.0000000000000000000, -1.355252715606880296E-16, 1.000000000000000000 ) ) ;
#1170 = CLOSED_SHELL ( 'NONE', ( #665, #52, #1083, #1019, #230, #849, #348, #632, #145, #894, #191, #363, #947, #775 ) ) ;
#1171 = EDGE_LOOP ( 'NONE', ( #1202, #551, #987, #1163 ) ) ;
#1172 = AXIS2_PLACEMENT_3D ( 'NONE', #1223, #369, #759 ) ;
#1173 = AXIS2_PLACEMENT_3D ( 'NONE', #174, #654, #262 ) ;
#1174 = LINE ( 'NONE', #596, #930 ) ;
#1175 = EDGE_CURVE ( 'NONE', #573, #468, #611, .T. ) ;
#1176 = DIRECTION ( 'NONE',  ( -2.710505431213760592E-16, -0.0000000000000000000, 1.000000000000000000 ) ) ;
#1177 = LINE ( 'NONE', #1081, #1209 ) ;
#1178 = DIRECTION ( 'NONE',  ( 1.242314989306307082E-16, 1.000000000000000000, -3.591788294179211222E-32 ) ) ;
#1179 = ORIENTED_EDGE ( 'NONE', *, *, #409, .T. ) ;
#1180 = ORIENTED_EDGE ( 'NONE', *, *, #88, .T. ) ;
#1181 = DIRECTION ( 'NONE',  ( -1.000000000000000000, 1.242314989306307082E-16, 2.891205793294678326E-16 ) ) ;
#1182 = FILL_AREA_STYLE_COLOUR ( '', #1151 ) ;
#1183 = LINE ( 'NONE', #234, #414 ) ;
#1184 = DIRECTION ( 'NONE',  ( 1.000000000000000000, 1.242314989306307082E-16, 0.0000000000000000000 ) ) ;
#1185 = CARTESIAN_POINT ( 'NONE',  ( 0.5000000000000000000, 0.4500000000000022315, 0.4000000000000006328 ) ) ;
#1186 = ORIENTED_EDGE ( 'NONE', *, *, #891, .F. ) ;
#1187 = CARTESIAN_POINT ( 'NONE',  ( 0.4999999999999998890, 0.4000000000000021871, 0.4000000000000006328 ) ) ;
#1188 = DIRECTION ( 'NONE',  ( 1.000000000000000000, 0.0000000000000000000, 1.355252715606880296E-16 ) ) ;
#1189 = CARTESIAN_POINT ( 'NONE',  ( 1.576560977094069615, 0.4500000000000000666, -0.4000000000000006328 ) ) ;
#1190 = ADVANCED_FACE ( 'NONE', ( #984 ), #503, .F. ) ;
#1191 = CARTESIAN_POINT ( 'NONE',  ( -0.7500000000000000000, 0.05000000000000018319, -0.4000000000000001887 ) ) ;
#1192 = AXIS2_PLACEMENT_3D ( 'NONE', #899, #434, #338 ) ;
#1193 = ORIENTED_EDGE ( 'NONE', *, *, #1157, .F. ) ;
#1194 = VECTOR ( 'NONE', #144, 1000.000000000000000 ) ;
#1195 = VECTOR ( 'NONE', #898, 1000.000000000000000 ) ;
#1196 = PLANE ( 'NONE',  #839 ) ;
#1197 = DIRECTION ( 'NONE',  ( 1.000000000000000000, 2.409338161078898687E-16, -2.891205793294678326E-16 ) ) ;
#1198 = ORIENTED_EDGE ( 'NONE', *, *, #615, .T. ) ;
#1199 = ADVANCED_FACE ( 'NONE', ( #591 ), #992, .F. ) ;
#1200 = DIRECTION ( 'NONE',  ( -1.000000000000000000, 0.0000000000000000000, 2.891205793294678326E-16 ) ) ;
#1201 = CARTESIAN_POINT ( 'NONE',  ( 0.5000000000000000000, 0.4500000000000000666, 0.3000000000000000444 ) ) ;
#1202 = ORIENTED_EDGE ( 'NONE', *, *, #275, .T. ) ;
#1203 = EDGE_CURVE ( 'NONE', #161, #684, #50, .T. ) ;
#1204 = DIRECTION ( 'NONE',  ( 2.168404344971003346E-15, -1.000000000000000000, 5.877471754111421775E-31 ) ) ;
#1205 = LINE ( 'NONE', #813, #1070 ) ;
#1206 = ORIENTED_EDGE ( 'NONE', *, *, #284, .T. ) ;
#1207 = VERTEX_POINT ( 'NONE', #598 ) ;
#1208 =( GEOMETRIC_REPRESENTATION_CONTEXT ( 3 ) GLOBAL_UNCERTAINTY_ASSIGNED_CONTEXT ( ( #71 ) ) GLOBAL_UNIT_ASSIGNED_CONTEXT ( ( #887, #105, #1143 ) ) REPRESENTATION_CONTEXT ( 'NONE', 'WORKASPACE' ) );
#1209 = VECTOR ( 'NONE', #308, 1000.000000000000000 ) ;
#1210 = ADVANCED_FACE ( 'NONE', ( #961 ), #404, .F. ) ;
#1211 = VECTOR ( 'NONE', #1184, 1000.000000000000000 ) ;
#1212 = DIRECTION ( 'NONE',  ( -2.168404344971008079E-15, 1.000000000000000000, 0.0000000000000000000 ) ) ;
#1213 = FACE_OUTER_BOUND ( 'NONE', #958, .T. ) ;
#1214 = VERTEX_POINT ( 'NONE', #710 ) ;
#1215 = EDGE_LOOP ( 'NONE', ( #676, #207, #847, #616, #1035, #74, #491, #185 ) ) ;
#1216 = LINE ( 'NONE', #361, #1114 ) ;
#1217 = CARTESIAN_POINT ( 'NONE',  ( -0.7500000000000001110, 0.04999999999999985706, -0.4000000000000002442 ) ) ;
#1218 = CARTESIAN_POINT ( 'NONE',  ( -0.5000000000000000000, 0.4500000000000000666, 0.4000000000000000222 ) ) ;
#1219 = VERTEX_POINT ( 'NONE', #494 ) ;
#1220 = EDGE_LOOP ( 'NONE', ( #129, #821, #194, #638 ) ) ;
#1221 = CARTESIAN_POINT ( 'NONE',  ( 0.6799999999999998268, -0.001000000000000186937, 0.4000000000000000222 ) ) ;
#1222 = FACE_OUTER_BOUND ( 'NONE', #447, .T. ) ;
#1223 = CARTESIAN_POINT ( 'NONE',  ( -0.6799999999999996048, -0.001000000000000186937, -0.4000000000000003553 ) ) ;
#1224 = ORIENTED_EDGE ( 'NONE', *, *, #763, .T. ) ;
#1225 = EDGE_CURVE ( 'NONE', #312, #1214, #882, .T. ) ;
ENDSEC;
END-ISO-10303-21;
